<?xml version="1.0" encoding="UTF-8"?>
<session version="1.0">
<refactoring comment="Rename resource &apos;FC722_08_ROSSERIAL_01/Src/main.c&apos; to &apos;main.cpp&apos;" description="Rename resource &apos;main.c&apos;" flags="7" id="org.eclipse.ltk.core.refactoring.rename.resource" input="Src/main.c" name="main.cpp" stamp="1530913477116" updateReferences="true"/>
</session>