%!PS-Adobe-3.0 EPSF-3.0
%%Creator: (MATLAB, The Mathworks, Inc. Version 9.4.0.813654 \(R2018a\). Operating System: Linux)
%%Title: /home/elgarbe/ws_gise/MatlabScripts/Pitch_Dist.eps
%%CreationDate: 2018-08-10T19:50:10
%%Pages: (atend)
%%BoundingBox: 0 0 420 345
%%LanguageLevel: 3
%%EndComments
%%BeginProlog
%%BeginResource: procset (Apache XML Graphics Std ProcSet) 1.2 0
%%Version: 1.2 0
%%Copyright: (Copyright 2001-2003,2010 The Apache Software Foundation. License terms: http://www.apache.org/licenses/LICENSE-2.0)
/bd{bind def}bind def
/ld{load def}bd
/GR/grestore ld
/GS/gsave ld
/RM/rmoveto ld
/C/curveto ld
/t/show ld
/L/lineto ld
/ML/setmiterlimit ld
/CT/concat ld
/f/fill ld
/N/newpath ld
/S/stroke ld
/CC/setcmykcolor ld
/A/ashow ld
/cp/closepath ld
/RC/setrgbcolor ld
/LJ/setlinejoin ld
/GC/setgray ld
/LW/setlinewidth ld
/M/moveto ld
/re {4 2 roll M
1 index 0 rlineto
0 exch rlineto
neg 0 rlineto
cp } bd
/_ctm matrix def
/_tm matrix def
/BT { _ctm currentmatrix pop matrix _tm copy pop 0 0 moveto } bd
/ET { _ctm setmatrix } bd
/iTm { _ctm setmatrix _tm concat } bd
/Tm { _tm astore pop iTm 0 0 moveto } bd
/ux 0.0 def
/uy 0.0 def
/F {
  /Tp exch def
  /Tf exch def
  Tf findfont Tp scalefont setfont
  /cf Tf def  /cs Tp def
} bd
/ULS {currentpoint /uy exch def /ux exch def} bd
/ULE {
  /Tcx currentpoint pop def
  gsave
  newpath
  cf findfont cs scalefont dup
  /FontMatrix get 0 get /Ts exch def /FontInfo get dup
  /UnderlinePosition get Ts mul /To exch def
  /UnderlineThickness get Ts mul /Tt exch def
  ux uy To add moveto  Tcx uy To add lineto
  Tt setlinewidth stroke
  grestore
} bd
/OLE {
  /Tcx currentpoint pop def
  gsave
  newpath
  cf findfont cs scalefont dup
  /FontMatrix get 0 get /Ts exch def /FontInfo get dup
  /UnderlinePosition get Ts mul /To exch def
  /UnderlineThickness get Ts mul /Tt exch def
  ux uy To add cs add moveto Tcx uy To add cs add lineto
  Tt setlinewidth stroke
  grestore
} bd
/SOE {
  /Tcx currentpoint pop def
  gsave
  newpath
  cf findfont cs scalefont dup
  /FontMatrix get 0 get /Ts exch def /FontInfo get dup
  /UnderlinePosition get Ts mul /To exch def
  /UnderlineThickness get Ts mul /Tt exch def
  ux uy To add cs 10 mul 26 idiv add moveto Tcx uy To add cs 10 mul 26 idiv add lineto
  Tt setlinewidth stroke
  grestore
} bd
/QT {
/Y22 exch store
/X22 exch store
/Y21 exch store
/X21 exch store
currentpoint
/Y21 load 2 mul add 3 div exch
/X21 load 2 mul add 3 div exch
/X21 load 2 mul /X22 load add 3 div
/Y21 load 2 mul /Y22 load add 3 div
/X22 load /Y22 load curveto
} bd
/SSPD {
dup length /d exch dict def
{
/v exch def
/k exch def
currentpagedevice k known {
/cpdv currentpagedevice k get def
v cpdv ne {
/upd false def
/nullv v type /nulltype eq def
/nullcpdv cpdv type /nulltype eq def
nullv nullcpdv or
{
/upd true def
} {
/sametype v type cpdv type eq def
sametype {
v type /arraytype eq {
/vlen v length def
/cpdvlen cpdv length def
vlen cpdvlen eq {
0 1 vlen 1 sub {
/i exch def
/obj v i get def
/cpdobj cpdv i get def
obj cpdobj ne {
/upd true def
exit
} if
} for
} {
/upd true def
} ifelse
} {
v type /dicttype eq {
v {
/dv exch def
/dk exch def
/cpddv cpdv dk get def
dv cpddv ne {
/upd true def
exit
} if
} forall
} {
/upd true def
} ifelse
} ifelse
} if
} ifelse
upd true eq {
d k v put
} if
} if
} if
} forall
d length 0 gt {
d setpagedevice
} if
} bd
/RE { % /NewFontName [NewEncodingArray] /FontName RE -
  findfont dup length dict begin
  {
    1 index /FID ne
    {def} {pop pop} ifelse
  } forall
  /Encoding exch def
  /FontName 1 index def
  currentdict definefont pop
  end
} bind def
%%EndResource
%%BeginResource: procset (Apache XML Graphics EPS ProcSet) 1.0 0
%%Version: 1.0 0
%%Copyright: (Copyright 2002-2003 The Apache Software Foundation. License terms: http://www.apache.org/licenses/LICENSE-2.0)
/BeginEPSF { %def
/b4_Inc_state save def         % Save state for cleanup
/dict_count countdictstack def % Count objects on dict stack
/op_count count 1 sub def      % Count objects on operand stack
userdict begin                 % Push userdict on dict stack
/showpage { } def              % Redefine showpage, { } = null proc
0 setgray 0 setlinecap         % Prepare graphics state
1 setlinewidth 0 setlinejoin
10 setmiterlimit [ ] 0 setdash newpath
/languagelevel where           % If level not equal to 1 then
{pop languagelevel             % set strokeadjust and
1 ne                           % overprint to their defaults.
{false setstrokeadjust false setoverprint
} if
} if
} bd
/EndEPSF { %def
count op_count sub {pop} repeat            % Clean up stacks
countdictstack dict_count sub {end} repeat
b4_Inc_state restore
} bd
%%EndResource
%FOPBeginFontDict
%%IncludeResource: font Courier-Oblique
%%IncludeResource: font Courier-BoldOblique
%%IncludeResource: font Courier-Bold
%%IncludeResource: font ZapfDingbats
%%IncludeResource: font Symbol
%%IncludeResource: font Helvetica
%%IncludeResource: font Helvetica-Oblique
%%IncludeResource: font Helvetica-Bold
%%IncludeResource: font Helvetica-BoldOblique
%%IncludeResource: font Times-Roman
%%IncludeResource: font Times-Italic
%%IncludeResource: font Times-Bold
%%IncludeResource: font Times-BoldItalic
%%IncludeResource: font Courier
%FOPEndFontDict
%%BeginResource: encoding WinAnsiEncoding
/WinAnsiEncoding [
/.notdef /.notdef /.notdef /.notdef /.notdef
/.notdef /.notdef /.notdef /.notdef /.notdef
/.notdef /.notdef /.notdef /.notdef /.notdef
/.notdef /.notdef /.notdef /.notdef /.notdef
/.notdef /.notdef /.notdef /.notdef /.notdef
/.notdef /.notdef /.notdef /.notdef /.notdef
/.notdef /.notdef /space /exclam /quotedbl
/numbersign /dollar /percent /ampersand /quotesingle
/parenleft /parenright /asterisk /plus /comma
/hyphen /period /slash /zero /one
/two /three /four /five /six
/seven /eight /nine /colon /semicolon
/less /equal /greater /question /at
/A /B /C /D /E
/F /G /H /I /J
/K /L /M /N /O
/P /Q /R /S /T
/U /V /W /X /Y
/Z /bracketleft /backslash /bracketright /asciicircum
/underscore /quoteleft /a /b /c
/d /e /f /g /h
/i /j /k /l /m
/n /o /p /q /r
/s /t /u /v /w
/x /y /z /braceleft /bar
/braceright /asciitilde /bullet /Euro /bullet
/quotesinglbase /florin /quotedblbase /ellipsis /dagger
/daggerdbl /circumflex /perthousand /Scaron /guilsinglleft
/OE /bullet /Zcaron /bullet /bullet
/quoteleft /quoteright /quotedblleft /quotedblright /bullet
/endash /emdash /asciitilde /trademark /scaron
/guilsinglright /oe /bullet /zcaron /Ydieresis
/space /exclamdown /cent /sterling /currency
/yen /brokenbar /section /dieresis /copyright
/ordfeminine /guillemotleft /logicalnot /sfthyphen /registered
/macron /degree /plusminus /twosuperior /threesuperior
/acute /mu /paragraph /middot /cedilla
/onesuperior /ordmasculine /guillemotright /onequarter /onehalf
/threequarters /questiondown /Agrave /Aacute /Acircumflex
/Atilde /Adieresis /Aring /AE /Ccedilla
/Egrave /Eacute /Ecircumflex /Edieresis /Igrave
/Iacute /Icircumflex /Idieresis /Eth /Ntilde
/Ograve /Oacute /Ocircumflex /Otilde /Odieresis
/multiply /Oslash /Ugrave /Uacute /Ucircumflex
/Udieresis /Yacute /Thorn /germandbls /agrave
/aacute /acircumflex /atilde /adieresis /aring
/ae /ccedilla /egrave /eacute /ecircumflex
/edieresis /igrave /iacute /icircumflex /idieresis
/eth /ntilde /ograve /oacute /ocircumflex
/otilde /odieresis /divide /oslash /ugrave
/uacute /ucircumflex /udieresis /yacute /thorn
/ydieresis
] def
%%EndResource
%FOPBeginFontReencode
/Courier-Oblique findfont
dup length dict begin
  {1 index /FID ne {def} {pop pop} ifelse} forall
  /Encoding WinAnsiEncoding def
  currentdict
end
/Courier-Oblique exch definefont pop
/Courier-BoldOblique findfont
dup length dict begin
  {1 index /FID ne {def} {pop pop} ifelse} forall
  /Encoding WinAnsiEncoding def
  currentdict
end
/Courier-BoldOblique exch definefont pop
/Courier-Bold findfont
dup length dict begin
  {1 index /FID ne {def} {pop pop} ifelse} forall
  /Encoding WinAnsiEncoding def
  currentdict
end
/Courier-Bold exch definefont pop
/Helvetica findfont
dup length dict begin
  {1 index /FID ne {def} {pop pop} ifelse} forall
  /Encoding WinAnsiEncoding def
  currentdict
end
/Helvetica exch definefont pop
/Helvetica-Oblique findfont
dup length dict begin
  {1 index /FID ne {def} {pop pop} ifelse} forall
  /Encoding WinAnsiEncoding def
  currentdict
end
/Helvetica-Oblique exch definefont pop
/Helvetica-Bold findfont
dup length dict begin
  {1 index /FID ne {def} {pop pop} ifelse} forall
  /Encoding WinAnsiEncoding def
  currentdict
end
/Helvetica-Bold exch definefont pop
/Helvetica-BoldOblique findfont
dup length dict begin
  {1 index /FID ne {def} {pop pop} ifelse} forall
  /Encoding WinAnsiEncoding def
  currentdict
end
/Helvetica-BoldOblique exch definefont pop
/Times-Roman findfont
dup length dict begin
  {1 index /FID ne {def} {pop pop} ifelse} forall
  /Encoding WinAnsiEncoding def
  currentdict
end
/Times-Roman exch definefont pop
/Times-Italic findfont
dup length dict begin
  {1 index /FID ne {def} {pop pop} ifelse} forall
  /Encoding WinAnsiEncoding def
  currentdict
end
/Times-Italic exch definefont pop
/Times-Bold findfont
dup length dict begin
  {1 index /FID ne {def} {pop pop} ifelse} forall
  /Encoding WinAnsiEncoding def
  currentdict
end
/Times-Bold exch definefont pop
/Times-BoldItalic findfont
dup length dict begin
  {1 index /FID ne {def} {pop pop} ifelse} forall
  /Encoding WinAnsiEncoding def
  currentdict
end
/Times-BoldItalic exch definefont pop
/Courier findfont
dup length dict begin
  {1 index /FID ne {def} {pop pop} ifelse} forall
  /Encoding WinAnsiEncoding def
  currentdict
end
/Courier exch definefont pop
%FOPEndFontReencode
%%EndProlog
%%Page: 1 1
%%PageBoundingBox: 0 0 420 345
%%BeginPageSetup
[1 0 0 -1 0 345] CT
%%EndPageSetup
GS
[0.75 0 0 0.75 0 0] CT
1 GC
N
0 0 560 460 re
f
GR
GS
[0.75 0 0 0.75 0 0] CT
1 GC
N
0 0 560 460 re
f
GR
GS
[0.75 0 0 0.75 0 0] CT
1 GC
N
73 409 M
507 409 L
507 34 L
73 34 L
cp
f
GR
GS
[0.75 0 0 0.75 0 0] CT
0.149 GC
2 setlinecap
1 LJ
0.667 LW
N
73 409 M
507 409 L
S
GR
GS
[0.75 0 0 0.75 0 0] CT
0.149 GC
2 setlinecap
1 LJ
0.667 LW
N
73 34 M
507 34 L
S
GR
GS
[0.75 0 0 0.75 0 0] CT
0.149 GC
2 setlinecap
1 LJ
0.667 LW
N
73 409 M
73 404.66 L
S
GR
GS
[0.75 0 0 0.75 0 0] CT
0.149 GC
2 setlinecap
1 LJ
0.667 LW
N
127.25 409 M
127.25 404.66 L
S
GR
GS
[0.75 0 0 0.75 0 0] CT
0.149 GC
2 setlinecap
1 LJ
0.667 LW
N
181.5 409 M
181.5 404.66 L
S
GR
GS
[0.75 0 0 0.75 0 0] CT
0.149 GC
2 setlinecap
1 LJ
0.667 LW
N
235.75 409 M
235.75 404.66 L
S
GR
GS
[0.75 0 0 0.75 0 0] CT
0.149 GC
2 setlinecap
1 LJ
0.667 LW
N
290 409 M
290 404.66 L
S
GR
GS
[0.75 0 0 0.75 0 0] CT
0.149 GC
2 setlinecap
1 LJ
0.667 LW
N
344.25 409 M
344.25 404.66 L
S
GR
GS
[0.75 0 0 0.75 0 0] CT
0.149 GC
2 setlinecap
1 LJ
0.667 LW
N
398.5 409 M
398.5 404.66 L
S
GR
GS
[0.75 0 0 0.75 0 0] CT
0.149 GC
2 setlinecap
1 LJ
0.667 LW
N
452.75 409 M
452.75 404.66 L
S
GR
GS
[0.75 0 0 0.75 0 0] CT
0.149 GC
2 setlinecap
1 LJ
0.667 LW
N
507 409 M
507 404.66 L
S
GR
GS
[0.75 0 0 0.75 0 0] CT
0.149 GC
2 setlinecap
1 LJ
0.667 LW
N
73 34 M
73 38.34 L
S
GR
GS
[0.75 0 0 0.75 0 0] CT
0.149 GC
2 setlinecap
1 LJ
0.667 LW
N
127.25 34 M
127.25 38.34 L
S
GR
GS
[0.75 0 0 0.75 0 0] CT
0.149 GC
2 setlinecap
1 LJ
0.667 LW
N
181.5 34 M
181.5 38.34 L
S
GR
GS
[0.75 0 0 0.75 0 0] CT
0.149 GC
2 setlinecap
1 LJ
0.667 LW
N
235.75 34 M
235.75 38.34 L
S
GR
GS
[0.75 0 0 0.75 0 0] CT
0.149 GC
2 setlinecap
1 LJ
0.667 LW
N
290 34 M
290 38.34 L
S
GR
GS
[0.75 0 0 0.75 0 0] CT
0.149 GC
2 setlinecap
1 LJ
0.667 LW
N
344.25 34 M
344.25 38.34 L
S
GR
GS
[0.75 0 0 0.75 0 0] CT
0.149 GC
2 setlinecap
1 LJ
0.667 LW
N
398.5 34 M
398.5 38.34 L
S
GR
GS
[0.75 0 0 0.75 0 0] CT
0.149 GC
2 setlinecap
1 LJ
0.667 LW
N
452.75 34 M
452.75 38.34 L
S
GR
GS
[0.75 0 0 0.75 0 0] CT
0.149 GC
2 setlinecap
1 LJ
0.667 LW
N
507 34 M
507 38.34 L
S
GR
GS
[0.75 0 0 0.75 54.75 310.75001] CT
0.149 GC
/Helvetica 13.333 F
GS
[1 0 0 1 0 0] CT
-8.5 13 moveto 
1 -1 scale
(50) t 
GR
GR
GS
[0.75 0 0 0.75 95.4375 310.75001] CT
0.149 GC
/Helvetica 13.333 F
GS
[1 0 0 1 0 0] CT
-8.5 13 moveto 
1 -1 scale
(55) t 
GR
GR
GS
[0.75 0 0 0.75 136.125 310.75001] CT
0.149 GC
/Helvetica 13.333 F
GS
[1 0 0 1 0 0] CT
-8.5 13 moveto 
1 -1 scale
(60) t 
GR
GR
GS
[0.75 0 0 0.75 176.8125 310.75001] CT
0.149 GC
/Helvetica 13.333 F
GS
[1 0 0 1 0 0] CT
-8.5 13 moveto 
1 -1 scale
(65) t 
GR
GR
GS
[0.75 0 0 0.75 217.5 310.75001] CT
0.149 GC
/Helvetica 13.333 F
GS
[1 0 0 1 0 0] CT
-8.5 13 moveto 
1 -1 scale
(70) t 
GR
GR
GS
[0.75 0 0 0.75 258.1875 310.75001] CT
0.149 GC
/Helvetica 13.333 F
GS
[1 0 0 1 0 0] CT
-8.5 13 moveto 
1 -1 scale
(75) t 
GR
GR
GS
[0.75 0 0 0.75 298.875 310.75001] CT
0.149 GC
/Helvetica 13.333 F
GS
[1 0 0 1 0 0] CT
-8.5 13 moveto 
1 -1 scale
(80) t 
GR
GR
GS
[0.75 0 0 0.75 339.5625 310.75001] CT
0.149 GC
/Helvetica 13.333 F
GS
[1 0 0 1 0 0] CT
-8.5 13 moveto 
1 -1 scale
(85) t 
GR
GR
GS
[0.75 0 0 0.75 380.25 310.75001] CT
0.149 GC
/Helvetica 13.333 F
GS
[1 0 0 1 0 0] CT
-8.5 13 moveto 
1 -1 scale
(90) t 
GR
GR
GS
[0.75 0 0 0.75 217.50018 324.49999] CT
0.149 GC
/Helvetica 14.667 F
GS
[1 0 0 1 0 0] CT
-30.5 14 moveto 
1 -1 scale
(Time [s]) t 
GR
GR
GS
[0.75 0 0 0.75 0 0] CT
0.149 GC
2 setlinecap
1 LJ
0.667 LW
N
73 409 M
73 34 L
S
GR
GS
[0.75 0 0 0.75 0 0] CT
0.149 GC
2 setlinecap
1 LJ
0.667 LW
N
507 409 M
507 34 L
S
GR
GS
[0.75 0 0 0.75 0 0] CT
0.149 GC
2 setlinecap
1 LJ
0.667 LW
N
73 409 M
77.34 409 L
S
GR
GS
[0.75 0 0 0.75 0 0] CT
0.149 GC
2 setlinecap
1 LJ
0.667 LW
N
73 355.429 M
77.34 355.429 L
S
GR
GS
[0.75 0 0 0.75 0 0] CT
0.149 GC
2 setlinecap
1 LJ
0.667 LW
N
73 301.857 M
77.34 301.857 L
S
GR
GS
[0.75 0 0 0.75 0 0] CT
0.149 GC
2 setlinecap
1 LJ
0.667 LW
N
73 248.286 M
77.34 248.286 L
S
GR
GS
[0.75 0 0 0.75 0 0] CT
0.149 GC
2 setlinecap
1 LJ
0.667 LW
N
73 194.714 M
77.34 194.714 L
S
GR
GS
[0.75 0 0 0.75 0 0] CT
0.149 GC
2 setlinecap
1 LJ
0.667 LW
N
73 141.143 M
77.34 141.143 L
S
GR
GS
[0.75 0 0 0.75 0 0] CT
0.149 GC
2 setlinecap
1 LJ
0.667 LW
N
73 87.571 M
77.34 87.571 L
S
GR
GS
[0.75 0 0 0.75 0 0] CT
0.149 GC
2 setlinecap
1 LJ
0.667 LW
N
73 34 M
77.34 34 L
S
GR
GS
[0.75 0 0 0.75 0 0] CT
0.149 GC
2 setlinecap
1 LJ
0.667 LW
N
507 409 M
502.66 409 L
S
GR
GS
[0.75 0 0 0.75 0 0] CT
0.149 GC
2 setlinecap
1 LJ
0.667 LW
N
507 355.429 M
502.66 355.429 L
S
GR
GS
[0.75 0 0 0.75 0 0] CT
0.149 GC
2 setlinecap
1 LJ
0.667 LW
N
507 301.857 M
502.66 301.857 L
S
GR
GS
[0.75 0 0 0.75 0 0] CT
0.149 GC
2 setlinecap
1 LJ
0.667 LW
N
507 248.286 M
502.66 248.286 L
S
GR
GS
[0.75 0 0 0.75 0 0] CT
0.149 GC
2 setlinecap
1 LJ
0.667 LW
N
507 194.714 M
502.66 194.714 L
S
GR
GS
[0.75 0 0 0.75 0 0] CT
0.149 GC
2 setlinecap
1 LJ
0.667 LW
N
507 141.143 M
502.66 141.143 L
S
GR
GS
[0.75 0 0 0.75 0 0] CT
0.149 GC
2 setlinecap
1 LJ
0.667 LW
N
507 87.571 M
502.66 87.571 L
S
GR
GS
[0.75 0 0 0.75 0 0] CT
0.149 GC
2 setlinecap
1 LJ
0.667 LW
N
507 34 M
502.66 34 L
S
GR
GS
[0.75 0 0 0.75 50.75001 306.75] CT
0.149 GC
/Helvetica 13.333 F
GS
[1 0 0 1 0 0] CT
-14 4.5 moveto 
1 -1 scale
(-6) t 
GR
GR
GS
[0.75 0 0 0.75 50.75001 266.57142] CT
0.149 GC
/Helvetica 13.333 F
GS
[1 0 0 1 0 0] CT
-14 4.5 moveto 
1 -1 scale
(-4) t 
GR
GR
GS
[0.75 0 0 0.75 50.75001 226.39286] CT
0.149 GC
/Helvetica 13.333 F
GS
[1 0 0 1 0 0] CT
-14 4.5 moveto 
1 -1 scale
(-2) t 
GR
GR
GS
[0.75 0 0 0.75 50.75001 186.21429] CT
0.149 GC
/Helvetica 13.333 F
GS
[1 0 0 1 0 0] CT
-9 4.5 moveto 
1 -1 scale
(0) t 
GR
GR
GS
[0.75 0 0 0.75 50.75001 146.03571] CT
0.149 GC
/Helvetica 13.333 F
GS
[1 0 0 1 0 0] CT
-9 4.5 moveto 
1 -1 scale
(2) t 
GR
GR
GS
[0.75 0 0 0.75 50.75001 105.85714] CT
0.149 GC
/Helvetica 13.333 F
GS
[1 0 0 1 0 0] CT
-9 4.5 moveto 
1 -1 scale
(4) t 
GR
GR
GS
[0.75 0 0 0.75 50.75001 65.67857] CT
0.149 GC
/Helvetica 13.333 F
GS
[1 0 0 1 0 0] CT
-9 4.5 moveto 
1 -1 scale
(6) t 
GR
GR
GS
[0.75 0 0 0.75 50.75001 25.5] CT
0.149 GC
/Helvetica 13.333 F
GS
[1 0 0 1 0 0] CT
-9 4.5 moveto 
1 -1 scale
(8) t 
GR
GR
GS
[0 -0.75 0.75 0 37.24999 166.12486] CT
0.149 GC
/Helvetica 14.667 F
GS
[1 0 0 1 0 0] CT
-53.5 -4 moveto 
1 -1 scale
(Orientation [\260]) t 
GR
GR
GS
[0.75 0 0 0.75 217.50018 23.4375] CT
/Helvetica-Bold 14.667 F
GS
[1 0 0 1 0 0] CT
-112 -4 moveto 
1 -1 scale
(Pitch disturbance rejection) t 
GR
GR
GS
[0.75 0 0 0.75 0 0] CT
0 0 1 RC
[10 6] 0 setdash
2 LJ
0.667 LW
N
73 257.165 M
73.542 257.665 L
74.085 258.757 L
74.628 259.613 L
75.17 260.036 L
75.713 260.983 L
76.255 261.74 L
76.797 262.11 L
77.34 262.425 L
77.883 262.458 L
78.425 261.521 L
78.967 261.311 L
79.51 261.634 L
80.053 261.067 L
80.595 259.273 L
81.137 257.357 L
81.68 256.758 L
82.222 256.829 L
82.765 255.965 L
83.308 254.956 L
83.85 254.184 L
84.392 254.345 L
84.935 256.132 L
85.478 256.931 L
86.02 257.226 L
86.563 258.812 L
87.105 259.432 L
87.647 260.003 L
88.19 260.095 L
88.733 260.517 L
89.275 260.875 L
89.817 260.726 L
90.36 259.974 L
90.903 260.307 L
91.445 260.619 L
91.988 260.231 L
92.53 259.568 L
93.072 257.868 L
93.615 256.342 L
94.158 256.01 L
94.7 255.304 L
95.242 253.922 L
95.785 252.464 L
96.328 251.033 L
96.87 250.467 L
97.412 249.411 L
97.955 248.004 L
98.497 246.165 L
99.04 245.667 L
99.583 245.713 L
100.125 245.936 L
100.667 246.439 L
101.21 248.022 L
101.753 249.81 L
102.295 250.689 L
102.838 251.122 L
103.38 251.636 L
103.922 252.233 L
104.465 253.691 L
105.008 254.435 L
105.55 253.537 L
106.092 252.742 L
106.635 253.505 L
107.178 254.731 L
107.72 255.557 L
108.262 255.576 L
108.805 255.871 L
109.347 256.347 L
109.89 256.805 L
110.433 256.119 L
110.975 255.491 L
111.517 255.644 L
112.06 255.616 L
112.603 254.472 L
113.145 253.398 L
113.688 252.754 L
114.23 253.087 L
114.772 253.025 L
115.315 251.868 L
115.858 251.307 L
116.4 252.222 L
116.942 252.91 L
117.485 252.385 L
118.028 251.47 L
118.57 251.862 L
119.113 252.542 L
119.655 252.786 L
120.197 253.259 L
120.74 253.731 L
121.283 254.53 L
121.825 255.128 L
122.367 255.066 L
122.91 254.737 L
123.453 254.692 L
123.995 254.139 L
124.537 253.768 L
125.08 252.781 L
125.622 251.795 L
126.165 251.348 L
126.708 250.829 L
127.25 249.868 L
127.792 249.07 L
128.335 248.324 L
128.878 247.835 L
129.42 248.228 L
129.962 248.356 L
130.505 248.27 L
131.047 248.361 L
131.59 248.154 L
132.133 248.494 L
132.675 249.682 L
133.217 250.487 L
133.76 251.116 L
134.303 250.864 L
134.845 251.772 L
135.387 251.45 L
135.93 250.963 L
136.472 251.362 L
137.015 251.885 L
137.558 252.177 L
138.1 251.31 L
138.642 249.753 L
139.185 249.834 L
139.728 250.194 L
140.27 248.955 L
140.813 246.858 L
141.355 246.869 L
141.897 246.891 L
142.44 245.935 L
142.983 245.183 L
143.525 245.258 L
144.067 245.735 L
144.61 246.411 L
145.153 246.557 L
145.695 247.057 L
146.238 248.157 L
146.78 249.427 L
147.322 249.221 L
147.865 248.753 L
148.408 248.234 L
148.95 249.166 L
149.492 250.127 L
150.035 250.766 L
150.578 250.316 L
151.12 248.989 L
151.663 248.382 L
152.205 248.334 L
152.747 248.101 L
153.29 246.672 L
153.833 245.379 L
154.375 243.911 L
154.917 242.367 L
155.46 242.67 L
156.003 243.419 L
156.545 243.639 L
157.087 243.331 L
157.63 242.497 L
158.172 241.853 L
158.715 242.038 L
159.258 242.716 L
159.8 242.105 L
160.342 240.921 L
160.885 240.811 L
161.428 241.381 L
161.97 242.413 L
162.512 242.382 L
163.055 242.033 L
163.597 242.023 L
164.14 242.324 L
164.683 243.497 L
165.225 245.129 L
165.767 246.206 L
166.31 246.535 L
166.853 247.664 L
167.395 248.51 L
167.938 252.063 L
168.48 252.9 L
169.022 253.482 L
169.565 252.48 L
170.108 252.293 L
170.65 252.408 L
171.192 252.103 L
171.735 250.972 L
172.278 250.246 L
172.82 249.697 L
173.363 249.995 L
173.905 250.22 L
174.447 250.153 L
174.99 250.056 L
175.533 249.99 L
176.075 250.235 L
176.617 250.779 L
177.16 250.611 L
177.703 250.846 L
178.245 250.93 L
178.788 249.372 L
179.33 246.938 L
179.872 245.191 L
180.415 244.797 L
180.958 245.592 L
181.5 245.284 L
182.042 244.101 L
182.585 245.263 L
183.128 247.025 L
183.67 247.496 L
184.212 247.543 L
184.755 248.735 L
185.297 249.71 L
185.84 250.448 L
186.383 249.95 L
186.925 248.888 L
187.467 247.892 L
188.01 248.338 L
188.553 249.239 L
189.095 249.268 L
189.637 248.388 L
190.18 248.383 L
190.722 248.587 L
191.265 248.649 L
191.808 248.594 L
192.35 248.937 L
192.892 249.182 L
193.435 249.014 L
193.978 249.589 L
194.52 250.117 L
195.063 249.792 L
195.605 248.97 L
196.147 246.039 L
196.69 244.882 L
197.233 242.98 L
197.775 241.29 L
198.317 239.176 L
198.86 237.161 L
199.403 237.277 L
199.945 237.596 L
200.488 237.342 L
201.03 237.888 L
201.572 238.29 L
202.115 238.781 L
202.658 240.084 L
203.2 241.169 L
203.742 242.09 L
204.285 242.072 L
204.828 241.952 L
205.37 242.87 L
205.913 243.453 L
206.455 243.468 L
206.997 244.206 L
207.54 244.61 L
208.083 244.278 L
208.625 244.556 L
209.167 244.763 L
209.71 244.9 L
210.253 246.308 L
210.795 246.514 L
211.337 246.589 L
211.88 247.335 L
212.422 247.781 L
212.965 248.637 L
213.508 249.786 L
214.05 250.299 L
214.592 250.575 L
215.135 250.577 L
215.678 250.779 L
216.22 252.046 L
216.762 253.633 L
217.305 253.522 L
217.847 252.86 L
218.39 253.48 L
218.933 253.889 L
219.475 253.982 L
220.017 253.798 L
220.56 252.651 L
221.103 251.287 L
221.645 251.379 L
222.188 252.319 L
222.73 252.793 L
223.272 253.114 L
223.815 256.577 L
224.358 266.483 L
224.9 282.902 L
225.443 301.805 L
225.985 318.596 L
226.528 334.853 L
227.07 349.827 L
227.613 358.851 L
228.155 366.402 L
228.697 375.482 L
229.24 380.9 L
229.782 381.926 L
230.325 380.403 L
230.868 377.711 L
231.41 368.102 L
231.953 358.493 L
232.495 349.725 L
233.038 340.199 L
233.58 329.795 L
234.122 318.95 L
234.665 309.824 L
235.207 303.21 L
235.75 297.958 L
236.293 291.952 L
236.835 285.334 L
237.378 280.322 L
237.92 276.564 L
238.462 273.782 L
239.005 270.512 L
239.547 266.778 L
240.09 262.571 L
240.632 260.005 L
241.175 259.71 L
241.718 260.228 L
242.26 260.674 L
242.803 260.573 L
243.345 260.511 L
243.887 260.978 L
244.43 261.891 L
244.972 262.661 L
245.515 264.05 L
246.057 264.717 L
246.6 265.007 L
247.143 265.723 L
247.685 266.192 L
248.228 266.05 L
248.77 265.955 L
249.313 265.768 L
249.855 266.085 L
250.397 265.258 L
250.94 265.031 L
251.482 264.989 L
252.025 264.826 L
252.568 263.925 L
253.11 262.559 L
253.653 263.289 L
254.195 263.409 L
254.738 262.268 L
255.28 261.272 L
255.822 261.098 L
256.365 260.07 L
256.907 258.326 L
257.45 257.442 L
257.993 258.609 L
258.535 259.918 L
259.078 259.909 L
259.62 258.974 L
260.163 258.766 L
260.705 259.034 L
261.247 258.421 L
261.79 257.174 L
262.332 256.377 L
262.875 256.847 L
263.418 257.547 L
263.96 257.4 L
264.503 256.823 L
265.045 257.161 L
265.587 257.388 L
266.13 256.301 L
266.672 255.36 L
267.215 254.797 L
267.757 255.272 L
268.3 255.053 L
268.843 253.655 L
269.385 252.621 L
269.928 252.254 L
270.47 252.787 L
271.013 253.027 L
271.555 252.299 L
272.097 252.483 L
272.64 253.604 L
273.182 254.467 L
273.725 255.62 L
274.268 256.263 L
274.81 255.806 L
275.353 255.404 L
275.895 255.744 L
276.438 256.59 L
276.98 257.236 L
277.522 257.645 L
278.065 257.167 L
278.607 256.791 L
279.15 256.68 L
279.693 256.757 L
280.235 257.022 L
280.778 257.039 L
281.32 256.508 L
281.862 255.444 L
282.405 254.988 L
282.947 254.979 L
283.49 255.291 L
284.032 255.042 L
284.575 254.746 L
285.118 254.519 L
285.66 254.059 L
286.203 253.871 L
286.745 253.716 L
287.288 253.813 L
287.83 253.196 L
288.372 252.725 L
288.915 252.649 L
289.457 252.796 L
290 251.799 L
290.543 251.061 L
291.085 251.604 L
291.628 251.676 L
292.17 251.073 L
292.712 250.124 L
293.255 249.335 L
293.797 250.089 L
294.34 250.557 L
294.882 250.414 L
295.425 249.842 L
295.968 249.919 L
296.51 249.787 L
297.053 249.788 L
297.595 249.939 L
298.138 249.977 L
298.68 250.005 L
299.222 248.753 L
299.765 247.633 L
300.307 247.774 L
300.85 249.463 L
301.393 250.985 L
301.935 250.413 L
302.478 249.315 L
303.02 249.173 L
303.563 249.919 L
304.105 250.805 L
304.647 250.931 L
305.19 250.963 L
305.732 250.779 L
306.275 249.689 L
306.818 249.065 L
307.36 249.505 L
307.903 250.251 L
308.445 250.817 L
308.987 251.09 L
309.53 251.135 L
310.072 250.715 L
310.615 250.686 L
311.157 250.861 L
311.7 250.678 L
312.243 250.972 L
312.785 250.385 L
313.328 249.949 L
313.87 249.225 L
314.413 248.23 L
314.955 248.18 L
315.497 248.705 L
316.04 249.22 L
316.582 248.847 L
317.125 247.981 L
317.668 247.484 L
318.21 247.411 L
318.753 247.157 L
319.295 246.181 L
319.837 245.21 L
320.38 245.615 L
320.922 246.178 L
321.465 246.009 L
322.007 245.174 L
322.55 245.411 L
323.093 246.322 L
323.635 246.808 L
324.178 246.357 L
324.72 246.39 L
325.263 246.964 L
325.805 246.788 L
326.347 246.361 L
326.89 246.447 L
327.432 247.935 L
327.975 248.856 L
328.518 248.047 L
329.06 247.802 L
329.603 248.7 L
330.145 249.112 L
330.688 248.718 L
331.23 247.58 L
331.772 247.434 L
332.315 247.524 L
332.857 246.971 L
333.4 246.902 L
333.943 246.661 L
334.485 246.673 L
335.028 246.182 L
335.57 246.078 L
336.112 246.243 L
336.655 245.987 L
337.197 245.654 L
337.74 249.051 L
338.282 249.382 L
338.825 250.138 L
339.368 251.003 L
339.91 251.355 L
340.453 250.259 L
340.995 249.759 L
341.538 250.034 L
342.08 250.185 L
342.622 250.439 L
343.165 250.479 L
343.707 250.514 L
344.25 250.956 L
344.793 251.219 L
345.335 251.152 L
345.878 251.032 L
346.42 250.481 L
346.962 250.119 L
347.505 249.67 L
348.047 250.477 L
348.59 251.199 L
349.132 251.229 L
349.675 251.376 L
350.218 251.815 L
350.76 252.719 L
351.303 253.047 L
351.845 252.798 L
352.388 252.993 L
352.93 253.549 L
353.472 254.23 L
354.015 253.792 L
354.557 252.992 L
355.1 252.88 L
355.643 252.544 L
356.185 252.71 L
356.728 253.086 L
357.27 254.17 L
357.813 253.862 L
358.355 253.595 L
358.897 253.343 L
359.44 252.957 L
359.982 252.268 L
360.525 251.311 L
361.068 250.656 L
361.61 251.053 L
362.153 251.447 L
362.695 250.334 L
363.237 248.379 L
363.78 246.489 L
364.322 246.965 L
364.865 248.447 L
365.407 248.511 L
365.95 248 L
366.493 248.099 L
367.035 247.577 L
367.578 245.938 L
368.12 242.864 L
368.663 235.754 L
369.205 220.606 L
369.747 199.289 L
370.29 177.206 L
370.832 155.331 L
371.375 134.047 L
371.918 115.391 L
372.46 99.584 L
373.003 85.497 L
373.545 70.431 L
374.087 53.607 L
374.63 39.246 L
375.172 35.279 L
375.715 42.439 L
376.257 53.721 L
376.8 71.823 L
377.343 96.662 L
377.885 123.39 L
378.428 145.611 L
378.97 163.742 L
379.513 176.422 L
380.055 206.468 L
380.597 211.615 L
381.14 215.102 L
381.682 219.337 L
382.225 223.241 L
382.768 225.131 L
383.31 227.539 L
383.853 229.014 L
384.395 231.516 L
384.938 234.113 L
385.48 235.875 L
386.022 237.341 L
386.565 236.672 L
387.107 237.093 L
387.65 236.626 L
388.193 234.979 L
388.735 232.355 L
389.278 228.95 L
389.82 225.562 L
390.362 222.663 L
390.905 218.332 L
391.447 213.851 L
391.99 209.929 L
392.532 206.469 L
393.075 203.795 L
393.618 200.974 L
394.16 200.333 L
394.703 203.546 L
395.245 206.856 L
395.788 209.797 L
396.33 213.265 L
396.872 216.663 L
397.415 221.466 L
397.957 226.214 L
398.5 231.92 L
399.043 235.779 L
399.585 238.406 L
400.128 239.941 L
400.67 241.348 L
401.212 241.946 L
401.755 240.776 L
402.297 241.028 L
402.84 241.034 L
403.382 242.061 L
403.925 242.53 L
404.468 241.521 L
405.01 240.112 L
405.553 238.874 L
406.095 239.89 L
406.638 240.683 L
407.18 241.292 L
407.722 241.648 L
408.265 240.641 L
408.807 240.029 L
409.35 238.205 L
409.893 237.805 L
410.435 238.101 L
410.978 240.024 L
411.52 240.216 L
412.063 239.455 L
412.605 237.998 L
413.147 237.524 L
413.69 237.714 L
414.232 238.278 L
414.775 239.37 L
415.318 239.484 L
415.86 239.481 L
416.403 238.603 L
416.945 239.164 L
417.487 238.791 L
418.03 238.871 L
418.572 237.177 L
419.115 236.513 L
419.657 235.314 L
420.2 233.991 L
420.743 232.608 L
421.285 234.147 L
421.828 235.195 L
422.37 236.774 L
422.913 236.706 L
423.455 236.858 L
423.997 237.958 L
424.54 239.541 L
425.082 240.936 L
425.625 242.203 L
426.168 244.329 L
426.71 245.161 L
427.253 246.223 L
427.795 246.528 L
428.337 247.557 L
428.88 249.332 L
429.422 249.934 L
429.965 250.066 L
430.507 249.362 L
431.05 250.911 L
431.593 251.84 L
432.135 251.166 L
432.678 250.532 L
433.22 249.747 L
433.763 249.968 L
434.305 249.11 L
434.847 248.292 L
435.39 246.749 L
435.932 245.999 L
436.475 245.755 L
437.018 245.233 L
437.56 245.675 L
438.103 244.797 L
438.645 244.845 L
439.188 244.799 L
439.73 245.311 L
440.272 245.269 L
440.815 245.246 L
441.357 244.478 L
441.9 243.979 L
442.443 244.232 L
442.985 244.266 L
443.528 245.77 L
444.07 245.851 L
444.612 246.959 L
445.155 247.507 L
445.697 247.836 L
446.24 248.047 L
446.782 247.999 L
447.325 249.274 L
447.868 250.124 L
448.41 249.816 L
448.953 249.96 L
449.495 249.711 L
450.038 250.581 L
450.58 250.582 L
451.122 249.724 L
451.665 249.806 L
452.207 249.784 L
452.75 249.802 L
453.293 248.554 L
453.835 247.411 L
454.378 246.77 L
454.92 247.129 L
455.462 246.85 L
456.005 246.784 L
456.547 245.949 L
457.09 245.555 L
457.632 245.24 L
458.175 245.418 L
458.718 246.206 L
459.26 246.094 L
459.803 246.098 L
460.345 245.815 L
460.888 246.724 L
461.43 247.284 L
461.972 247.701 L
462.515 247.339 L
463.057 246.725 L
463.6 247.557 L
464.143 248.651 L
464.685 249.299 L
465.228 249.243 L
465.77 248.93 L
466.313 248.918 L
466.855 249.345 L
467.397 250.438 L
467.94 250.272 L
468.482 249.943 L
469.025 249.45 L
469.568 248.855 L
470.11 248.618 L
470.653 247.912 L
471.195 248.263 L
471.737 248.037 L
472.28 247.906 L
472.822 247.304 L
473.365 245.623 L
473.907 245.082 L
474.45 245.263 L
474.993 245.445 L
475.535 244.357 L
476.078 243.928 L
476.62 244.303 L
477.163 245.271 L
477.705 245.043 L
478.247 245.597 L
478.79 245.584 L
479.332 245.343 L
479.875 245.514 L
480.418 245.773 L
480.96 246.157 L
481.503 246.065 L
482.045 246.261 L
482.587 246.89 L
483.13 248.16 L
483.672 248.594 L
484.215 249.347 L
484.757 249.336 L
485.3 249.469 L
485.843 250.222 L
486.385 250.637 L
486.928 251.205 L
487.47 251.094 L
488.013 251.397 L
488.555 250.795 L
489.097 250.42 L
489.64 249.219 L
490.182 249.208 L
490.725 249.659 L
491.268 250.181 L
491.81 250.306 L
492.353 250.583 L
492.895 250.887 L
493.438 251.703 L
493.98 251.893 L
494.522 251.303 L
495.065 251.93 L
495.607 253.11 L
496.15 253.986 L
496.693 254.861 L
497.235 255.787 L
497.778 256.743 L
498.32 256.409 L
498.862 255.703 L
499.405 256.436 L
499.947 258.881 L
500.49 260.477 L
501.032 260.598 L
501.575 260.262 L
502.118 259.53 L
502.66 260.015 L
503.203 260.836 L
503.745 260.753 L
504.288 260.128 L
504.83 257.92 L
505.372 256.624 L
505.915 256.732 L
506.457 257.661 L
507 258.41 L
S
GR
GS
[0.75 0 0 0.75 0 0] CT
0 0 1 RC
1 LJ
0.667 LW
N
73 248.286 M
73.542 248.286 L
74.085 248.286 L
74.628 248.286 L
75.17 248.286 L
75.713 246.946 L
76.255 246.946 L
76.797 248.286 L
77.34 248.286 L
77.883 248.286 L
78.425 248.286 L
78.967 248.286 L
79.51 248.286 L
80.053 248.286 L
80.595 248.286 L
81.137 248.286 L
81.68 248.286 L
82.222 248.286 L
82.765 248.286 L
83.308 248.286 L
83.85 248.286 L
84.392 248.286 L
84.935 248.286 L
85.478 248.286 L
86.02 248.286 L
86.563 248.286 L
87.105 248.286 L
87.647 248.286 L
88.19 248.286 L
88.733 248.286 L
89.275 248.286 L
89.817 246.946 L
90.36 248.286 L
90.903 248.286 L
91.445 248.286 L
91.988 248.286 L
92.53 248.286 L
93.072 248.286 L
93.615 246.946 L
94.158 248.286 L
94.7 248.286 L
95.242 249.625 L
95.785 248.286 L
96.328 248.286 L
96.87 248.286 L
97.412 248.286 L
97.955 248.286 L
98.497 248.286 L
99.04 248.286 L
99.583 248.286 L
100.125 248.286 L
100.667 248.286 L
101.21 248.286 L
101.753 248.286 L
102.295 248.286 L
102.838 248.286 L
103.38 249.625 L
103.922 248.286 L
104.465 248.286 L
105.008 248.286 L
105.55 248.286 L
106.092 248.286 L
106.635 248.286 L
107.178 248.286 L
107.72 248.286 L
108.262 248.286 L
108.805 248.286 L
109.347 248.286 L
109.89 248.286 L
110.433 246.946 L
110.975 248.286 L
111.517 248.286 L
112.06 248.286 L
112.603 248.286 L
113.145 246.946 L
113.688 248.286 L
114.23 248.286 L
114.772 248.286 L
115.315 248.286 L
115.858 248.286 L
116.4 246.946 L
116.942 248.286 L
117.485 248.286 L
118.028 248.286 L
118.57 248.286 L
119.113 248.286 L
119.655 248.286 L
120.197 248.286 L
120.74 248.286 L
121.283 248.286 L
121.825 248.286 L
122.367 248.286 L
122.91 248.286 L
123.453 248.286 L
123.995 248.286 L
124.537 248.286 L
125.08 248.286 L
125.622 246.946 L
126.165 248.286 L
126.708 248.286 L
127.25 248.286 L
127.792 248.286 L
128.335 248.286 L
128.878 246.946 L
129.42 248.286 L
129.962 248.286 L
130.505 248.286 L
131.047 248.286 L
131.59 249.625 L
132.133 248.286 L
132.675 248.286 L
133.217 248.286 L
133.76 248.286 L
134.303 248.286 L
134.845 248.286 L
135.387 248.286 L
135.93 248.286 L
136.472 248.286 L
137.015 246.946 L
137.558 248.286 L
138.1 248.286 L
138.642 248.286 L
139.185 248.286 L
139.728 246.946 L
140.27 248.286 L
140.813 248.286 L
141.355 248.286 L
141.897 248.286 L
142.44 249.625 L
142.983 248.286 L
143.525 248.286 L
144.067 248.286 L
144.61 248.286 L
145.153 248.286 L
145.695 248.286 L
146.238 248.286 L
146.78 248.286 L
147.322 248.286 L
147.865 246.946 L
148.408 248.286 L
148.95 248.286 L
149.492 248.286 L
150.035 248.286 L
150.578 249.625 L
151.12 248.286 L
151.663 248.286 L
152.205 248.286 L
152.747 248.286 L
153.29 246.946 L
153.833 248.286 L
154.375 248.286 L
154.917 248.286 L
155.46 248.286 L
156.003 248.286 L
156.545 248.286 L
157.087 246.946 L
157.63 248.286 L
158.172 248.286 L
158.715 248.286 L
159.258 248.286 L
159.8 249.625 L
160.342 248.286 L
160.885 248.286 L
161.428 248.286 L
161.97 248.286 L
162.512 246.946 L
163.055 248.286 L
163.597 248.286 L
164.14 248.286 L
164.683 248.286 L
165.225 249.625 L
165.767 248.286 L
166.31 248.286 L
166.853 248.286 L
167.395 248.286 L
167.938 248.286 L
168.48 248.286 L
169.022 246.946 L
169.565 248.286 L
170.108 248.286 L
170.65 248.286 L
171.192 249.625 L
171.735 248.286 L
172.278 248.286 L
172.82 248.286 L
173.363 248.286 L
173.905 248.286 L
174.447 248.286 L
174.99 248.286 L
175.533 248.286 L
176.075 248.286 L
176.617 248.286 L
177.16 248.286 L
177.703 248.286 L
178.245 246.946 L
178.788 248.286 L
179.33 248.286 L
179.872 248.286 L
180.415 248.286 L
180.958 248.286 L
181.5 248.286 L
182.042 248.286 L
182.585 246.946 L
183.128 248.286 L
183.67 248.286 L
184.212 248.286 L
184.755 248.286 L
185.297 246.946 L
185.84 248.286 L
186.383 248.286 L
186.925 248.286 L
187.467 248.286 L
188.01 248.286 L
188.553 248.286 L
189.095 248.286 L
189.637 248.286 L
190.18 248.286 L
190.722 246.946 L
191.265 248.286 L
191.808 248.286 L
192.35 248.286 L
192.892 248.286 L
193.435 246.946 L
193.978 248.286 L
194.52 248.286 L
195.063 246.946 L
195.605 248.286 L
196.147 248.286 L
196.69 248.286 L
197.233 248.286 L
197.775 248.286 L
198.317 246.946 L
198.86 248.286 L
199.403 248.286 L
199.945 248.286 L
200.488 248.286 L
201.03 248.286 L
201.572 248.286 L
202.115 248.286 L
202.658 248.286 L
203.2 248.286 L
203.742 248.286 L
204.285 248.286 L
204.828 248.286 L
205.37 246.946 L
205.913 248.286 L
206.455 248.286 L
206.997 248.286 L
207.54 248.286 L
208.083 248.286 L
208.625 248.286 L
209.167 248.286 L
209.71 248.286 L
210.253 248.286 L
210.795 248.286 L
211.337 248.286 L
211.88 248.286 L
212.422 248.286 L
212.965 248.286 L
213.508 248.286 L
214.05 248.286 L
214.592 248.286 L
215.135 248.286 L
215.678 248.286 L
216.22 248.286 L
216.762 246.946 L
217.305 248.286 L
217.847 248.286 L
218.39 248.286 L
218.933 246.946 L
219.475 248.286 L
220.017 248.286 L
220.56 248.286 L
221.103 248.286 L
221.645 248.286 L
222.188 248.286 L
222.73 248.286 L
223.272 248.286 L
223.815 248.286 L
224.358 248.286 L
224.9 248.286 L
225.443 248.286 L
225.985 248.286 L
226.528 248.286 L
227.07 248.286 L
227.613 248.286 L
228.155 246.946 L
228.697 248.286 L
229.24 246.946 L
229.782 248.286 L
230.325 248.286 L
230.868 248.286 L
231.41 248.286 L
231.953 248.286 L
232.495 248.286 L
233.038 248.286 L
233.58 248.286 L
234.122 248.286 L
234.665 248.286 L
235.207 248.286 L
235.75 248.286 L
236.293 248.286 L
236.835 248.286 L
237.378 248.286 L
237.92 248.286 L
238.462 246.946 L
239.005 248.286 L
239.547 248.286 L
240.09 248.286 L
240.632 248.286 L
241.175 248.286 L
241.718 248.286 L
242.26 248.286 L
242.803 248.286 L
243.345 248.286 L
243.887 248.286 L
244.43 248.286 L
244.972 248.286 L
245.515 248.286 L
246.057 248.286 L
246.6 248.286 L
247.143 248.286 L
247.685 246.946 L
248.228 248.286 L
248.77 248.286 L
249.313 248.286 L
249.855 248.286 L
250.397 248.286 L
250.94 248.286 L
251.482 248.286 L
252.025 248.286 L
252.568 246.946 L
253.11 248.286 L
253.653 248.286 L
254.195 248.286 L
254.738 248.286 L
255.28 248.286 L
255.822 248.286 L
256.365 248.286 L
256.907 248.286 L
257.45 248.286 L
257.993 248.286 L
258.535 248.286 L
259.078 248.286 L
259.62 248.286 L
260.163 248.286 L
260.705 248.286 L
261.247 248.286 L
261.79 248.286 L
262.332 248.286 L
262.875 248.286 L
263.418 248.286 L
263.96 248.286 L
264.503 248.286 L
265.045 248.286 L
265.587 248.286 L
266.13 248.286 L
266.672 248.286 L
267.215 248.286 L
267.757 248.286 L
268.3 248.286 L
268.843 248.286 L
269.385 248.286 L
269.928 248.286 L
270.47 248.286 L
271.013 248.286 L
271.555 248.286 L
272.097 248.286 L
272.64 248.286 L
273.182 248.286 L
273.725 248.286 L
274.268 248.286 L
274.81 246.946 L
275.353 248.286 L
275.895 248.286 L
276.438 248.286 L
276.98 248.286 L
277.522 248.286 L
278.065 246.946 L
278.607 248.286 L
279.15 248.286 L
279.693 248.286 L
280.235 248.286 L
280.778 248.286 L
281.32 248.286 L
281.862 248.286 L
282.405 246.946 L
282.947 248.286 L
283.49 248.286 L
284.032 248.286 L
284.575 246.946 L
285.118 248.286 L
285.66 248.286 L
286.203 248.286 L
286.745 248.286 L
287.288 248.286 L
287.83 248.286 L
288.372 248.286 L
288.915 248.286 L
289.457 248.286 L
290 248.286 L
290.543 248.286 L
291.085 248.286 L
291.628 248.286 L
292.17 248.286 L
292.712 248.286 L
293.255 248.286 L
293.797 246.946 L
294.34 248.286 L
294.882 248.286 L
295.425 248.286 L
295.968 248.286 L
296.51 248.286 L
297.053 248.286 L
297.595 248.286 L
298.138 246.946 L
298.68 248.286 L
299.222 248.286 L
299.765 248.286 L
300.307 248.286 L
300.85 248.286 L
301.393 248.286 L
301.935 248.286 L
302.478 246.946 L
303.02 248.286 L
303.563 248.286 L
304.105 248.286 L
304.647 248.286 L
305.19 248.286 L
305.732 248.286 L
306.275 248.286 L
306.818 246.946 L
307.36 248.286 L
307.903 249.625 L
308.445 248.286 L
308.987 248.286 L
309.53 248.286 L
310.072 248.286 L
310.615 248.286 L
311.157 248.286 L
311.7 246.946 L
312.243 248.286 L
312.785 248.286 L
313.328 248.286 L
313.87 248.286 L
314.413 248.286 L
314.955 248.286 L
315.497 248.286 L
316.04 248.286 L
316.582 248.286 L
317.125 246.946 L
317.668 248.286 L
318.21 248.286 L
318.753 248.286 L
319.295 248.286 L
319.837 248.286 L
320.38 248.286 L
320.922 248.286 L
321.465 248.286 L
322.007 248.286 L
322.55 248.286 L
323.093 248.286 L
323.635 248.286 L
324.178 248.286 L
324.72 248.286 L
325.263 246.946 L
325.805 248.286 L
326.347 248.286 L
326.89 248.286 L
327.432 248.286 L
327.975 248.286 L
328.518 248.286 L
329.06 248.286 L
329.603 248.286 L
330.145 248.286 L
330.688 248.286 L
331.23 248.286 L
331.772 246.946 L
332.315 248.286 L
332.857 248.286 L
333.4 248.286 L
333.943 246.946 L
334.485 248.286 L
335.028 246.946 L
335.57 248.286 L
336.112 248.286 L
336.655 248.286 L
337.197 248.286 L
337.74 248.286 L
338.282 248.286 L
338.825 248.286 L
339.368 248.286 L
339.91 248.286 L
340.453 246.946 L
340.995 248.286 L
341.538 248.286 L
342.08 248.286 L
342.622 248.286 L
343.165 248.286 L
343.707 248.286 L
344.25 248.286 L
344.793 246.946 L
345.335 248.286 L
345.878 248.286 L
346.42 248.286 L
346.962 248.286 L
347.505 248.286 L
348.047 248.286 L
348.59 248.286 L
349.132 248.286 L
349.675 248.286 L
350.218 248.286 L
350.76 246.946 L
351.303 248.286 L
351.845 248.286 L
352.388 248.286 L
352.93 248.286 L
353.472 246.946 L
354.015 248.286 L
354.557 248.286 L
355.1 246.946 L
355.643 248.286 L
356.185 248.286 L
356.728 248.286 L
357.27 248.286 L
357.813 248.286 L
358.355 248.286 L
358.897 248.286 L
359.44 248.286 L
359.982 248.286 L
360.525 248.286 L
361.068 248.286 L
361.61 246.946 L
362.153 248.286 L
362.695 248.286 L
363.237 246.946 L
363.78 248.286 L
364.322 248.286 L
364.865 246.946 L
365.407 248.286 L
365.95 248.286 L
366.493 249.625 L
367.035 248.286 L
367.578 248.286 L
368.12 246.946 L
368.663 248.286 L
369.205 248.286 L
369.747 248.286 L
370.29 246.946 L
370.832 248.286 L
371.375 248.286 L
371.918 248.286 L
372.46 248.286 L
373.003 248.286 L
373.545 248.286 L
374.087 248.286 L
374.63 248.286 L
375.172 248.286 L
375.715 248.286 L
376.257 248.286 L
376.8 248.286 L
377.343 248.286 L
377.885 248.286 L
378.428 248.286 L
378.97 246.946 L
379.513 248.286 L
380.055 248.286 L
380.597 248.286 L
381.14 248.286 L
381.682 248.286 L
382.225 248.286 L
382.768 246.946 L
383.31 248.286 L
383.853 248.286 L
384.395 249.625 L
384.938 248.286 L
385.48 248.286 L
386.022 248.286 L
386.565 248.286 L
387.107 248.286 L
387.65 248.286 L
388.193 246.946 L
388.735 248.286 L
389.278 248.286 L
389.82 248.286 L
390.362 248.286 L
390.905 249.625 L
391.447 246.946 L
391.99 248.286 L
392.532 248.286 L
393.075 246.946 L
393.618 248.286 L
394.16 248.286 L
394.703 249.625 L
395.245 248.286 L
395.788 248.286 L
396.33 246.946 L
396.872 248.286 L
397.415 248.286 L
397.957 246.946 L
398.5 248.286 L
399.043 248.286 L
399.585 248.286 L
400.128 248.286 L
400.67 248.286 L
401.212 248.286 L
401.755 248.286 L
402.297 248.286 L
402.84 246.946 L
403.382 248.286 L
403.925 248.286 L
404.468 248.286 L
405.01 248.286 L
405.553 248.286 L
406.095 248.286 L
406.638 248.286 L
407.18 248.286 L
407.722 246.946 L
408.265 248.286 L
408.807 248.286 L
409.35 248.286 L
409.893 248.286 L
410.435 248.286 L
410.978 248.286 L
411.52 248.286 L
412.063 248.286 L
412.605 248.286 L
413.147 248.286 L
413.69 248.286 L
414.232 248.286 L
414.775 248.286 L
415.318 248.286 L
415.86 248.286 L
416.403 248.286 L
416.945 246.946 L
417.487 248.286 L
418.03 248.286 L
418.572 248.286 L
419.115 248.286 L
419.657 248.286 L
420.2 249.625 L
420.743 248.286 L
421.285 248.286 L
421.828 246.946 L
422.37 248.286 L
422.913 248.286 L
423.455 248.286 L
423.997 248.286 L
424.54 248.286 L
425.082 248.286 L
425.625 248.286 L
426.168 248.286 L
426.71 248.286 L
427.253 248.286 L
427.795 248.286 L
428.337 248.286 L
428.88 248.286 L
429.422 249.625 L
429.965 248.286 L
430.507 248.286 L
431.05 248.286 L
431.593 248.286 L
432.135 248.286 L
432.678 248.286 L
433.22 248.286 L
433.763 248.286 L
434.305 248.286 L
434.847 248.286 L
435.39 248.286 L
435.932 248.286 L
436.475 248.286 L
437.018 248.286 L
437.56 248.286 L
438.103 248.286 L
438.645 248.286 L
439.188 248.286 L
439.73 248.286 L
440.272 248.286 L
440.815 248.286 L
441.357 246.946 L
441.9 248.286 L
442.443 248.286 L
442.985 248.286 L
443.528 248.286 L
444.07 249.625 L
444.612 248.286 L
445.155 248.286 L
445.697 248.286 L
446.24 248.286 L
446.782 248.286 L
447.325 248.286 L
447.868 249.625 L
448.41 248.286 L
448.953 248.286 L
449.495 248.286 L
450.038 248.286 L
450.58 246.946 L
451.122 248.286 L
451.665 248.286 L
452.207 248.286 L
452.75 248.286 L
453.293 248.286 L
453.835 248.286 L
454.378 248.286 L
454.92 246.946 L
455.462 248.286 L
456.005 248.286 L
456.547 246.946 L
457.09 248.286 L
457.632 248.286 L
458.175 248.286 L
458.718 248.286 L
459.26 248.286 L
459.803 248.286 L
460.345 246.946 L
460.888 248.286 L
461.43 248.286 L
461.972 248.286 L
462.515 248.286 L
463.057 248.286 L
463.6 248.286 L
464.143 248.286 L
464.685 248.286 L
465.228 248.286 L
465.77 248.286 L
466.313 248.286 L
466.855 248.286 L
467.397 248.286 L
467.94 248.286 L
468.482 248.286 L
469.025 248.286 L
469.568 248.286 L
470.11 246.946 L
470.653 248.286 L
471.195 248.286 L
471.737 248.286 L
472.28 248.286 L
472.822 248.286 L
473.365 248.286 L
473.907 246.946 L
474.45 248.286 L
474.993 248.286 L
475.535 246.946 L
476.078 248.286 L
476.62 248.286 L
477.163 248.286 L
477.705 248.286 L
478.247 248.286 L
478.79 248.286 L
479.332 248.286 L
479.875 246.946 L
480.418 248.286 L
480.96 249.625 L
481.503 248.286 L
482.045 248.286 L
482.587 248.286 L
483.13 248.286 L
483.672 246.946 L
484.215 248.286 L
484.757 248.286 L
485.3 248.286 L
485.843 248.286 L
486.385 248.286 L
486.928 248.286 L
487.47 246.946 L
488.013 248.286 L
488.555 248.286 L
489.097 248.286 L
489.64 248.286 L
490.182 248.286 L
490.725 248.286 L
491.268 248.286 L
491.81 248.286 L
492.353 248.286 L
492.895 246.946 L
493.438 248.286 L
493.98 248.286 L
494.522 248.286 L
495.065 248.286 L
495.607 248.286 L
496.15 248.286 L
496.693 248.286 L
497.235 248.286 L
497.778 248.286 L
498.32 248.286 L
498.862 248.286 L
499.405 246.946 L
499.947 248.286 L
500.49 248.286 L
501.032 248.286 L
501.575 248.286 L
502.118 248.286 L
502.66 248.286 L
503.203 248.286 L
503.745 248.286 L
504.288 248.286 L
504.83 248.286 L
505.372 248.286 L
505.915 248.286 L
506.457 248.286 L
507 248.286 L
S
GR
GS
[0.75 0 0 0.75 0 0] CT
1 GC
N
496 79 M
496 45 L
342 45 L
342 79 L
cp
f
GR
GS
[0.75 0 0 0.75 291.75 40.77174] CT
/Helvetica 12 F
GS
[1 0 0 1 0 0] CT
0 4.5 moveto 
1 -1 scale
(pitch - measured) t 
GR
GR
GS
[0.75 0 0 0.75 0 0] CT
0 0 1 RC
[10 6] 0 setdash
2 LJ
0.667 LW
N
346 54.362 M
386 54.362 L
S
GR
GS
[0.75 0 0 0.75 291.75 52.22826] CT
/Helvetica 12 F
GS
[1 0 0 1 0 0] CT
0 4.5 moveto 
1 -1 scale
(pitch - reference) t 
GR
GR
GS
[0.75 0 0 0.75 0 0] CT
0 0 1 RC
1 LJ
0.667 LW
N
346 69.638 M
386 69.638 L
S
GR
GS
[0.75 0 0 0.75 0 0] CT
0.149 GC
10.0 ML
0.667 LW
N
342 79 M
342 45 L
496 45 L
496 79 L
cp
S
GR
%%Trailer
%%Pages: 1
%%EOF
