%!PS-Adobe-3.0 EPSF-3.0
%%Creator: (MATLAB, The Mathworks, Inc. Version 9.4.0.813654 \(R2018a\). Operating System: Linux)
%%Title: /home/elgarbe/ws_gise/MatlabScripts/Pitch_01.eps
%%CreationDate: 2018-08-10T13:16:35
%%Pages: (atend)
%%BoundingBox: 0 0 420 345
%%LanguageLevel: 3
%%EndComments
%%BeginProlog
%%BeginResource: procset (Apache XML Graphics Std ProcSet) 1.2 0
%%Version: 1.2 0
%%Copyright: (Copyright 2001-2003,2010 The Apache Software Foundation. License terms: http://www.apache.org/licenses/LICENSE-2.0)
/bd{bind def}bind def
/ld{load def}bd
/GR/grestore ld
/GS/gsave ld
/RM/rmoveto ld
/C/curveto ld
/t/show ld
/L/lineto ld
/ML/setmiterlimit ld
/CT/concat ld
/f/fill ld
/N/newpath ld
/S/stroke ld
/CC/setcmykcolor ld
/A/ashow ld
/cp/closepath ld
/RC/setrgbcolor ld
/LJ/setlinejoin ld
/GC/setgray ld
/LW/setlinewidth ld
/M/moveto ld
/re {4 2 roll M
1 index 0 rlineto
0 exch rlineto
neg 0 rlineto
cp } bd
/_ctm matrix def
/_tm matrix def
/BT { _ctm currentmatrix pop matrix _tm copy pop 0 0 moveto } bd
/ET { _ctm setmatrix } bd
/iTm { _ctm setmatrix _tm concat } bd
/Tm { _tm astore pop iTm 0 0 moveto } bd
/ux 0.0 def
/uy 0.0 def
/F {
  /Tp exch def
  /Tf exch def
  Tf findfont Tp scalefont setfont
  /cf Tf def  /cs Tp def
} bd
/ULS {currentpoint /uy exch def /ux exch def} bd
/ULE {
  /Tcx currentpoint pop def
  gsave
  newpath
  cf findfont cs scalefont dup
  /FontMatrix get 0 get /Ts exch def /FontInfo get dup
  /UnderlinePosition get Ts mul /To exch def
  /UnderlineThickness get Ts mul /Tt exch def
  ux uy To add moveto  Tcx uy To add lineto
  Tt setlinewidth stroke
  grestore
} bd
/OLE {
  /Tcx currentpoint pop def
  gsave
  newpath
  cf findfont cs scalefont dup
  /FontMatrix get 0 get /Ts exch def /FontInfo get dup
  /UnderlinePosition get Ts mul /To exch def
  /UnderlineThickness get Ts mul /Tt exch def
  ux uy To add cs add moveto Tcx uy To add cs add lineto
  Tt setlinewidth stroke
  grestore
} bd
/SOE {
  /Tcx currentpoint pop def
  gsave
  newpath
  cf findfont cs scalefont dup
  /FontMatrix get 0 get /Ts exch def /FontInfo get dup
  /UnderlinePosition get Ts mul /To exch def
  /UnderlineThickness get Ts mul /Tt exch def
  ux uy To add cs 10 mul 26 idiv add moveto Tcx uy To add cs 10 mul 26 idiv add lineto
  Tt setlinewidth stroke
  grestore
} bd
/QT {
/Y22 exch store
/X22 exch store
/Y21 exch store
/X21 exch store
currentpoint
/Y21 load 2 mul add 3 div exch
/X21 load 2 mul add 3 div exch
/X21 load 2 mul /X22 load add 3 div
/Y21 load 2 mul /Y22 load add 3 div
/X22 load /Y22 load curveto
} bd
/SSPD {
dup length /d exch dict def
{
/v exch def
/k exch def
currentpagedevice k known {
/cpdv currentpagedevice k get def
v cpdv ne {
/upd false def
/nullv v type /nulltype eq def
/nullcpdv cpdv type /nulltype eq def
nullv nullcpdv or
{
/upd true def
} {
/sametype v type cpdv type eq def
sametype {
v type /arraytype eq {
/vlen v length def
/cpdvlen cpdv length def
vlen cpdvlen eq {
0 1 vlen 1 sub {
/i exch def
/obj v i get def
/cpdobj cpdv i get def
obj cpdobj ne {
/upd true def
exit
} if
} for
} {
/upd true def
} ifelse
} {
v type /dicttype eq {
v {
/dv exch def
/dk exch def
/cpddv cpdv dk get def
dv cpddv ne {
/upd true def
exit
} if
} forall
} {
/upd true def
} ifelse
} ifelse
} if
} ifelse
upd true eq {
d k v put
} if
} if
} if
} forall
d length 0 gt {
d setpagedevice
} if
} bd
/RE { % /NewFontName [NewEncodingArray] /FontName RE -
  findfont dup length dict begin
  {
    1 index /FID ne
    {def} {pop pop} ifelse
  } forall
  /Encoding exch def
  /FontName 1 index def
  currentdict definefont pop
  end
} bind def
%%EndResource
%%BeginResource: procset (Apache XML Graphics EPS ProcSet) 1.0 0
%%Version: 1.0 0
%%Copyright: (Copyright 2002-2003 The Apache Software Foundation. License terms: http://www.apache.org/licenses/LICENSE-2.0)
/BeginEPSF { %def
/b4_Inc_state save def         % Save state for cleanup
/dict_count countdictstack def % Count objects on dict stack
/op_count count 1 sub def      % Count objects on operand stack
userdict begin                 % Push userdict on dict stack
/showpage { } def              % Redefine showpage, { } = null proc
0 setgray 0 setlinecap         % Prepare graphics state
1 setlinewidth 0 setlinejoin
10 setmiterlimit [ ] 0 setdash newpath
/languagelevel where           % If level not equal to 1 then
{pop languagelevel             % set strokeadjust and
1 ne                           % overprint to their defaults.
{false setstrokeadjust false setoverprint
} if
} if
} bd
/EndEPSF { %def
count op_count sub {pop} repeat            % Clean up stacks
countdictstack dict_count sub {end} repeat
b4_Inc_state restore
} bd
%%EndResource
%FOPBeginFontDict
%%IncludeResource: font Courier-Oblique
%%IncludeResource: font Courier-BoldOblique
%%IncludeResource: font Courier-Bold
%%IncludeResource: font ZapfDingbats
%%IncludeResource: font Symbol
%%IncludeResource: font Helvetica
%%IncludeResource: font Helvetica-Oblique
%%IncludeResource: font Helvetica-Bold
%%IncludeResource: font Helvetica-BoldOblique
%%IncludeResource: font Times-Roman
%%IncludeResource: font Times-Italic
%%IncludeResource: font Times-Bold
%%IncludeResource: font Times-BoldItalic
%%IncludeResource: font Courier
%FOPEndFontDict
%%BeginResource: encoding WinAnsiEncoding
/WinAnsiEncoding [
/.notdef /.notdef /.notdef /.notdef /.notdef
/.notdef /.notdef /.notdef /.notdef /.notdef
/.notdef /.notdef /.notdef /.notdef /.notdef
/.notdef /.notdef /.notdef /.notdef /.notdef
/.notdef /.notdef /.notdef /.notdef /.notdef
/.notdef /.notdef /.notdef /.notdef /.notdef
/.notdef /.notdef /space /exclam /quotedbl
/numbersign /dollar /percent /ampersand /quotesingle
/parenleft /parenright /asterisk /plus /comma
/hyphen /period /slash /zero /one
/two /three /four /five /six
/seven /eight /nine /colon /semicolon
/less /equal /greater /question /at
/A /B /C /D /E
/F /G /H /I /J
/K /L /M /N /O
/P /Q /R /S /T
/U /V /W /X /Y
/Z /bracketleft /backslash /bracketright /asciicircum
/underscore /quoteleft /a /b /c
/d /e /f /g /h
/i /j /k /l /m
/n /o /p /q /r
/s /t /u /v /w
/x /y /z /braceleft /bar
/braceright /asciitilde /bullet /Euro /bullet
/quotesinglbase /florin /quotedblbase /ellipsis /dagger
/daggerdbl /circumflex /perthousand /Scaron /guilsinglleft
/OE /bullet /Zcaron /bullet /bullet
/quoteleft /quoteright /quotedblleft /quotedblright /bullet
/endash /emdash /asciitilde /trademark /scaron
/guilsinglright /oe /bullet /zcaron /Ydieresis
/space /exclamdown /cent /sterling /currency
/yen /brokenbar /section /dieresis /copyright
/ordfeminine /guillemotleft /logicalnot /sfthyphen /registered
/macron /degree /plusminus /twosuperior /threesuperior
/acute /mu /paragraph /middot /cedilla
/onesuperior /ordmasculine /guillemotright /onequarter /onehalf
/threequarters /questiondown /Agrave /Aacute /Acircumflex
/Atilde /Adieresis /Aring /AE /Ccedilla
/Egrave /Eacute /Ecircumflex /Edieresis /Igrave
/Iacute /Icircumflex /Idieresis /Eth /Ntilde
/Ograve /Oacute /Ocircumflex /Otilde /Odieresis
/multiply /Oslash /Ugrave /Uacute /Ucircumflex
/Udieresis /Yacute /Thorn /germandbls /agrave
/aacute /acircumflex /atilde /adieresis /aring
/ae /ccedilla /egrave /eacute /ecircumflex
/edieresis /igrave /iacute /icircumflex /idieresis
/eth /ntilde /ograve /oacute /ocircumflex
/otilde /odieresis /divide /oslash /ugrave
/uacute /ucircumflex /udieresis /yacute /thorn
/ydieresis
] def
%%EndResource
%FOPBeginFontReencode
/Courier-Oblique findfont
dup length dict begin
  {1 index /FID ne {def} {pop pop} ifelse} forall
  /Encoding WinAnsiEncoding def
  currentdict
end
/Courier-Oblique exch definefont pop
/Courier-BoldOblique findfont
dup length dict begin
  {1 index /FID ne {def} {pop pop} ifelse} forall
  /Encoding WinAnsiEncoding def
  currentdict
end
/Courier-BoldOblique exch definefont pop
/Courier-Bold findfont
dup length dict begin
  {1 index /FID ne {def} {pop pop} ifelse} forall
  /Encoding WinAnsiEncoding def
  currentdict
end
/Courier-Bold exch definefont pop
/Helvetica findfont
dup length dict begin
  {1 index /FID ne {def} {pop pop} ifelse} forall
  /Encoding WinAnsiEncoding def
  currentdict
end
/Helvetica exch definefont pop
/Helvetica-Oblique findfont
dup length dict begin
  {1 index /FID ne {def} {pop pop} ifelse} forall
  /Encoding WinAnsiEncoding def
  currentdict
end
/Helvetica-Oblique exch definefont pop
/Helvetica-Bold findfont
dup length dict begin
  {1 index /FID ne {def} {pop pop} ifelse} forall
  /Encoding WinAnsiEncoding def
  currentdict
end
/Helvetica-Bold exch definefont pop
/Helvetica-BoldOblique findfont
dup length dict begin
  {1 index /FID ne {def} {pop pop} ifelse} forall
  /Encoding WinAnsiEncoding def
  currentdict
end
/Helvetica-BoldOblique exch definefont pop
/Times-Roman findfont
dup length dict begin
  {1 index /FID ne {def} {pop pop} ifelse} forall
  /Encoding WinAnsiEncoding def
  currentdict
end
/Times-Roman exch definefont pop
/Times-Italic findfont
dup length dict begin
  {1 index /FID ne {def} {pop pop} ifelse} forall
  /Encoding WinAnsiEncoding def
  currentdict
end
/Times-Italic exch definefont pop
/Times-Bold findfont
dup length dict begin
  {1 index /FID ne {def} {pop pop} ifelse} forall
  /Encoding WinAnsiEncoding def
  currentdict
end
/Times-Bold exch definefont pop
/Times-BoldItalic findfont
dup length dict begin
  {1 index /FID ne {def} {pop pop} ifelse} forall
  /Encoding WinAnsiEncoding def
  currentdict
end
/Times-BoldItalic exch definefont pop
/Courier findfont
dup length dict begin
  {1 index /FID ne {def} {pop pop} ifelse} forall
  /Encoding WinAnsiEncoding def
  currentdict
end
/Courier exch definefont pop
%FOPEndFontReencode
%%EndProlog
%%Page: 1 1
%%PageBoundingBox: 0 0 420 345
%%BeginPageSetup
[1 0 0 -1 0 345] CT
%%EndPageSetup
GS
[0.75 0 0 0.75 0 0] CT
1 GC
N
0 0 560 460 re
f
GR
GS
[0.75 0 0 0.75 0 0] CT
1 GC
N
0 0 560 460 re
f
GR
GS
[0.75 0 0 0.75 0 0] CT
1 GC
N
73 409 M
507 409 L
507 34 L
73 34 L
cp
f
GR
GS
[0.75 0 0 0.75 0 0] CT
0.149 GC
2 setlinecap
1 LJ
0.667 LW
N
73 409 M
507 409 L
S
GR
GS
[0.75 0 0 0.75 0 0] CT
0.149 GC
2 setlinecap
1 LJ
0.667 LW
N
73 34 M
507 34 L
S
GR
GS
[0.75 0 0 0.75 0 0] CT
0.149 GC
2 setlinecap
1 LJ
0.667 LW
N
73 409 M
73 404.66 L
S
GR
GS
[0.75 0 0 0.75 0 0] CT
0.149 GC
2 setlinecap
1 LJ
0.667 LW
N
181.5 409 M
181.5 404.66 L
S
GR
GS
[0.75 0 0 0.75 0 0] CT
0.149 GC
2 setlinecap
1 LJ
0.667 LW
N
290 409 M
290 404.66 L
S
GR
GS
[0.75 0 0 0.75 0 0] CT
0.149 GC
2 setlinecap
1 LJ
0.667 LW
N
398.5 409 M
398.5 404.66 L
S
GR
GS
[0.75 0 0 0.75 0 0] CT
0.149 GC
2 setlinecap
1 LJ
0.667 LW
N
507 409 M
507 404.66 L
S
GR
GS
[0.75 0 0 0.75 0 0] CT
0.149 GC
2 setlinecap
1 LJ
0.667 LW
N
73 34 M
73 38.34 L
S
GR
GS
[0.75 0 0 0.75 0 0] CT
0.149 GC
2 setlinecap
1 LJ
0.667 LW
N
181.5 34 M
181.5 38.34 L
S
GR
GS
[0.75 0 0 0.75 0 0] CT
0.149 GC
2 setlinecap
1 LJ
0.667 LW
N
290 34 M
290 38.34 L
S
GR
GS
[0.75 0 0 0.75 0 0] CT
0.149 GC
2 setlinecap
1 LJ
0.667 LW
N
398.5 34 M
398.5 38.34 L
S
GR
GS
[0.75 0 0 0.75 0 0] CT
0.149 GC
2 setlinecap
1 LJ
0.667 LW
N
507 34 M
507 38.34 L
S
GR
GS
[0.75 0 0 0.75 54.75 310.74998] CT
0.149 GC
/Helvetica 13.333 F
GS
[1 0 0 1 0 0] CT
-8.5 13 moveto 
1 -1 scale
(10) t 
GR
GR
GS
[0.75 0 0 0.75 136.125 310.74998] CT
0.149 GC
/Helvetica 13.333 F
GS
[1 0 0 1 0 0] CT
-8.5 13 moveto 
1 -1 scale
(15) t 
GR
GR
GS
[0.75 0 0 0.75 217.5 310.74998] CT
0.149 GC
/Helvetica 13.333 F
GS
[1 0 0 1 0 0] CT
-8.5 13 moveto 
1 -1 scale
(20) t 
GR
GR
GS
[0.75 0 0 0.75 298.875 310.74998] CT
0.149 GC
/Helvetica 13.333 F
GS
[1 0 0 1 0 0] CT
-8.5 13 moveto 
1 -1 scale
(25) t 
GR
GR
GS
[0.75 0 0 0.75 380.25 310.74998] CT
0.149 GC
/Helvetica 13.333 F
GS
[1 0 0 1 0 0] CT
-8.5 13 moveto 
1 -1 scale
(30) t 
GR
GR
GS
[0.75 0 0 0.75 217.50016 324.49999] CT
0.149 GC
/Helvetica 14.667 F
GS
[1 0 0 1 0 0] CT
-30.5 14 moveto 
1 -1 scale
(Time [s]) t 
GR
GR
GS
[0.75 0 0 0.75 0 0] CT
0.149 GC
2 setlinecap
1 LJ
0.667 LW
N
73 409 M
73 34 L
S
GR
GS
[0.75 0 0 0.75 0 0] CT
0.149 GC
2 setlinecap
1 LJ
0.667 LW
N
507 409 M
507 34 L
S
GR
GS
[0.75 0 0 0.75 0 0] CT
0.149 GC
2 setlinecap
1 LJ
0.667 LW
N
73 409 M
77.34 409 L
S
GR
GS
[0.75 0 0 0.75 0 0] CT
0.149 GC
2 setlinecap
1 LJ
0.667 LW
N
73 367.333 M
77.34 367.333 L
S
GR
GS
[0.75 0 0 0.75 0 0] CT
0.149 GC
2 setlinecap
1 LJ
0.667 LW
N
73 325.667 M
77.34 325.667 L
S
GR
GS
[0.75 0 0 0.75 0 0] CT
0.149 GC
2 setlinecap
1 LJ
0.667 LW
N
73 284 M
77.34 284 L
S
GR
GS
[0.75 0 0 0.75 0 0] CT
0.149 GC
2 setlinecap
1 LJ
0.667 LW
N
73 242.333 M
77.34 242.333 L
S
GR
GS
[0.75 0 0 0.75 0 0] CT
0.149 GC
2 setlinecap
1 LJ
0.667 LW
N
73 200.667 M
77.34 200.667 L
S
GR
GS
[0.75 0 0 0.75 0 0] CT
0.149 GC
2 setlinecap
1 LJ
0.667 LW
N
73 159 M
77.34 159 L
S
GR
GS
[0.75 0 0 0.75 0 0] CT
0.149 GC
2 setlinecap
1 LJ
0.667 LW
N
73 117.333 M
77.34 117.333 L
S
GR
GS
[0.75 0 0 0.75 0 0] CT
0.149 GC
2 setlinecap
1 LJ
0.667 LW
N
73 75.667 M
77.34 75.667 L
S
GR
GS
[0.75 0 0 0.75 0 0] CT
0.149 GC
2 setlinecap
1 LJ
0.667 LW
N
73 34 M
77.34 34 L
S
GR
GS
[0.75 0 0 0.75 0 0] CT
0.149 GC
2 setlinecap
1 LJ
0.667 LW
N
507 409 M
502.66 409 L
S
GR
GS
[0.75 0 0 0.75 0 0] CT
0.149 GC
2 setlinecap
1 LJ
0.667 LW
N
507 367.333 M
502.66 367.333 L
S
GR
GS
[0.75 0 0 0.75 0 0] CT
0.149 GC
2 setlinecap
1 LJ
0.667 LW
N
507 325.667 M
502.66 325.667 L
S
GR
GS
[0.75 0 0 0.75 0 0] CT
0.149 GC
2 setlinecap
1 LJ
0.667 LW
N
507 284 M
502.66 284 L
S
GR
GS
[0.75 0 0 0.75 0 0] CT
0.149 GC
2 setlinecap
1 LJ
0.667 LW
N
507 242.333 M
502.66 242.333 L
S
GR
GS
[0.75 0 0 0.75 0 0] CT
0.149 GC
2 setlinecap
1 LJ
0.667 LW
N
507 200.667 M
502.66 200.667 L
S
GR
GS
[0.75 0 0 0.75 0 0] CT
0.149 GC
2 setlinecap
1 LJ
0.667 LW
N
507 159 M
502.66 159 L
S
GR
GS
[0.75 0 0 0.75 0 0] CT
0.149 GC
2 setlinecap
1 LJ
0.667 LW
N
507 117.333 M
502.66 117.333 L
S
GR
GS
[0.75 0 0 0.75 0 0] CT
0.149 GC
2 setlinecap
1 LJ
0.667 LW
N
507 75.667 M
502.66 75.667 L
S
GR
GS
[0.75 0 0 0.75 0 0] CT
0.149 GC
2 setlinecap
1 LJ
0.667 LW
N
507 34 M
502.66 34 L
S
GR
GS
[0.75 0 0 0.75 50.74999 306.75] CT
0.149 GC
/Helvetica 13.333 F
GS
[1 0 0 1 0 0] CT
-14 4.5 moveto 
1 -1 scale
(-7) t 
GR
GR
GS
[0.75 0 0 0.75 50.74999 275.50001] CT
0.149 GC
/Helvetica 13.333 F
GS
[1 0 0 1 0 0] CT
-14 4.5 moveto 
1 -1 scale
(-6) t 
GR
GR
GS
[0.75 0 0 0.75 50.74999 244.24999] CT
0.149 GC
/Helvetica 13.333 F
GS
[1 0 0 1 0 0] CT
-14 4.5 moveto 
1 -1 scale
(-5) t 
GR
GR
GS
[0.75 0 0 0.75 50.74999 213] CT
0.149 GC
/Helvetica 13.333 F
GS
[1 0 0 1 0 0] CT
-14 4.5 moveto 
1 -1 scale
(-4) t 
GR
GR
GS
[0.75 0 0 0.75 50.74999 181.75] CT
0.149 GC
/Helvetica 13.333 F
GS
[1 0 0 1 0 0] CT
-14 4.5 moveto 
1 -1 scale
(-3) t 
GR
GR
GS
[0.75 0 0 0.75 50.74999 150.5] CT
0.149 GC
/Helvetica 13.333 F
GS
[1 0 0 1 0 0] CT
-14 4.5 moveto 
1 -1 scale
(-2) t 
GR
GR
GS
[0.75 0 0 0.75 50.74999 119.25] CT
0.149 GC
/Helvetica 13.333 F
GS
[1 0 0 1 0 0] CT
-14 4.5 moveto 
1 -1 scale
(-1) t 
GR
GR
GS
[0.75 0 0 0.75 50.74999 88] CT
0.149 GC
/Helvetica 13.333 F
GS
[1 0 0 1 0 0] CT
-9 4.5 moveto 
1 -1 scale
(0) t 
GR
GR
GS
[0.75 0 0 0.75 50.74999 56.75] CT
0.149 GC
/Helvetica 13.333 F
GS
[1 0 0 1 0 0] CT
-9 4.5 moveto 
1 -1 scale
(1) t 
GR
GR
GS
[0.75 0 0 0.75 50.74999 25.5] CT
0.149 GC
/Helvetica 13.333 F
GS
[1 0 0 1 0 0] CT
-9 4.5 moveto 
1 -1 scale
(2) t 
GR
GR
GS
[0 -0.75 0.75 0 37.25 166.12486] CT
0.149 GC
/Helvetica 14.667 F
GS
[1 0 0 1 0 0] CT
-53.5 -4 moveto 
1 -1 scale
(Orientation [\260]) t 
GR
GR
GS
[0.75 0 0 0.75 217.50021 23.4375] CT
/Helvetica-Bold 14.667 F
GS
[1 0 0 1 0 0] CT
-157 -4 moveto 
1 -1 scale
(Pitch References and measured angle) t 
GR
GR
GS
[0.75 0 0 0.75 0 0] CT
0 0 1 RC
[10 6] 0 setdash
2 LJ
0.667 LW
N
73 129.984 M
74.085 129.951 L
75.17 129.907 L
76.255 129.896 L
77.34 129.904 L
78.425 129.886 L
79.51 129.871 L
80.595 129.913 L
81.68 129.884 L
82.765 129.922 L
83.85 129.89 L
84.935 129.848 L
86.02 129.872 L
87.105 129.88 L
88.19 129.845 L
89.275 129.868 L
90.36 129.868 L
91.445 129.803 L
92.53 129.827 L
93.615 129.861 L
94.7 129.832 L
95.785 129.845 L
96.87 129.837 L
97.955 129.899 L
99.04 129.934 L
100.125 129.934 L
101.21 129.903 L
102.295 129.842 L
103.38 129.843 L
104.465 129.824 L
105.55 129.851 L
106.635 129.901 L
107.72 129.94 L
108.805 129.945 L
109.89 129.945 L
110.975 129.938 L
112.06 129.931 L
113.145 129.853 L
114.23 129.871 L
115.315 129.899 L
116.4 129.889 L
117.485 129.903 L
118.57 129.99 L
119.655 130.009 L
120.74 129.87 L
121.825 129.905 L
122.91 129.793 L
123.995 129.895 L
125.08 130.113 L
126.165 129.949 L
127.25 129.412 L
128.335 129.633 L
129.42 129.353 L
130.505 128.926 L
131.59 128.744 L
132.675 127.898 L
133.76 129.057 L
134.845 127.727 L
135.93 127.865 L
137.015 128.452 L
138.1 129.853 L
139.185 125.847 L
140.27 126.906 L
141.355 126.674 L
142.44 126.697 L
143.525 126.164 L
144.61 125.484 L
145.695 125.203 L
146.78 126.464 L
147.865 126.083 L
148.95 125.316 L
150.035 126.127 L
151.12 127.922 L
152.205 123 L
153.29 117.164 L
154.375 115.583 L
155.46 118.692 L
156.545 119.04 L
157.63 115.566 L
158.715 107.648 L
159.8 104.529 L
160.885 100.273 L
161.97 89.653 L
163.055 81.445 L
164.14 66.871 L
165.225 71.881 L
166.31 87.187 L
167.395 100.712 L
168.48 113.678 L
169.565 111.033 L
170.65 88.955 L
171.735 78.63 L
172.82 97.699 L
173.905 133.47 L
174.99 169.695 L
176.075 188.184 L
177.16 189.644 L
178.245 194.61 L
179.33 208.024 L
180.415 231.851 L
181.5 250.187 L
182.585 254.228 L
183.67 249.78 L
184.755 235.324 L
185.84 225.956 L
186.925 226.395 L
188.01 228.623 L
189.095 230.121 L
190.18 230.777 L
191.265 221.807 L
192.35 204.403 L
193.435 178.903 L
194.52 168.161 L
195.605 172.56 L
196.69 181.51 L
197.775 180.996 L
198.86 166.256 L
199.945 156.879 L
201.03 170.071 L
202.115 190.214 L
203.2 195.679 L
204.285 181.224 L
205.37 158.332 L
206.455 147.416 L
207.54 146.841 L
208.625 145.929 L
209.71 141.033 L
210.795 135.486 L
211.88 131.909 L
212.965 133.081 L
214.05 137.502 L
215.135 139.288 L
216.22 136.529 L
217.305 134.222 L
218.39 133.763 L
219.475 134.312 L
220.56 133.959 L
221.645 134.538 L
222.73 135.295 L
223.815 138.099 L
224.9 139.066 L
225.985 134.416 L
227.07 130.08 L
228.155 119.325 L
229.24 114.142 L
230.325 120.1 L
231.41 130.234 L
232.495 144.357 L
233.58 155.741 L
234.665 156.699 L
235.75 153.519 L
236.835 149.377 L
237.92 145.976 L
239.005 144.877 L
240.09 143.627 L
241.175 139.563 L
242.26 129.404 L
243.345 127.857 L
244.43 137.998 L
245.515 150.818 L
246.6 151.055 L
247.685 143.908 L
248.77 135.093 L
249.855 131.102 L
250.94 127.446 L
252.025 126.045 L
253.11 128.909 L
254.195 127.119 L
255.28 116.608 L
256.365 105.86 L
257.45 108.616 L
258.535 127.593 L
259.62 147.218 L
260.705 154.077 L
261.79 148.334 L
262.875 145.938 L
263.96 151.658 L
265.045 163.603 L
266.13 179.224 L
267.215 195.454 L
268.3 209.008 L
269.385 218.965 L
270.47 228.989 L
271.555 237.898 L
272.64 244.989 L
273.725 253.418 L
274.81 259.996 L
275.895 261.19 L
276.98 249.389 L
278.065 242.114 L
279.15 244.906 L
280.235 247.779 L
281.32 246.35 L
282.405 235.416 L
283.49 212.661 L
284.575 189.329 L
285.66 175.217 L
286.745 167.361 L
287.83 165.013 L
288.915 163.272 L
290 161.689 L
291.085 160.48 L
292.17 157.087 L
293.255 153.772 L
294.34 149.342 L
295.425 145.216 L
296.51 144.195 L
297.595 145.574 L
298.68 144.834 L
299.765 139.796 L
300.85 128.602 L
301.935 120.521 L
303.02 121.077 L
304.105 124.289 L
305.19 128.372 L
306.275 129.624 L
307.36 123.23 L
308.445 112.581 L
309.53 107.501 L
310.615 114.001 L
311.7 125.094 L
312.785 128.904 L
313.87 121.167 L
314.955 109.057 L
316.04 103.517 L
317.125 108.236 L
318.21 116.822 L
319.295 119.818 L
320.38 116.018 L
321.465 114.46 L
322.55 123.371 L
323.635 131.546 L
324.72 132.847 L
325.805 127.807 L
326.89 124.771 L
327.975 128.409 L
329.06 133.389 L
330.145 132.478 L
331.23 124.909 L
332.315 119.131 L
333.4 124.354 L
334.485 133.121 L
335.57 138.561 L
336.655 134.213 L
337.74 131.958 L
338.825 133.007 L
339.91 138.589 L
340.995 150.09 L
342.08 163.838 L
343.165 176.364 L
344.25 182.477 L
345.335 180.867 L
346.42 181.974 L
347.505 185.427 L
348.59 188.568 L
349.675 190.675 L
350.76 197.819 L
351.845 202.449 L
352.93 201.423 L
354.015 190.939 L
355.1 189.653 L
356.185 200.456 L
357.27 218.005 L
358.355 233.398 L
359.44 234.499 L
360.525 226.908 L
361.61 223.813 L
362.695 231.337 L
363.78 245.285 L
364.865 257.619 L
365.95 258.208 L
367.035 256.116 L
368.12 249.379 L
369.205 241.907 L
370.29 231.688 L
371.375 214.945 L
372.46 202.444 L
373.545 196.676 L
374.63 194.755 L
375.715 190.054 L
376.8 181.582 L
377.885 173.308 L
378.97 171.652 L
380.055 173.773 L
381.14 172.239 L
382.225 161.289 L
383.31 145.587 L
384.395 131.374 L
385.48 121.725 L
386.565 108.475 L
387.65 101.843 L
388.735 100.781 L
389.82 100.107 L
390.905 97.064 L
391.99 93.943 L
393.075 99.076 L
394.16 109.391 L
395.245 123.588 L
396.33 164.231 L
397.415 159.464 L
398.5 114.503 L
399.585 83.484 L
400.67 87.936 L
401.755 104.139 L
402.84 110.204 L
403.925 98.902 L
405.01 85.014 L
406.095 88.188 L
407.18 102.336 L
408.265 115.305 L
409.35 116.483 L
410.435 116.325 L
411.52 121.778 L
412.605 131.288 L
413.69 139.799 L
414.775 155.408 L
415.86 189.614 L
416.945 186.471 L
418.03 184.235 L
419.115 189.23 L
420.2 202.946 L
421.285 223.544 L
422.37 243.723 L
423.455 255.929 L
424.54 262.208 L
425.625 266.464 L
426.71 270.056 L
427.795 271.153 L
428.88 273.382 L
429.965 274.141 L
431.05 274.24 L
432.135 268.186 L
433.22 254.579 L
434.305 237.26 L
435.39 219.003 L
436.475 198.21 L
437.56 178.431 L
438.645 162.738 L
439.73 152.13 L
440.815 143.519 L
441.9 135.484 L
442.985 129.238 L
444.07 124.936 L
445.155 117.237 L
446.24 113.561 L
447.325 110.088 L
448.41 110.436 L
449.495 114.49 L
450.58 118.598 L
451.665 119.55 L
452.75 116.837 L
453.835 111.736 L
454.92 106.521 L
456.005 105.45 L
457.09 107.619 L
458.175 108.369 L
459.26 107.838 L
460.345 108.596 L
461.43 108.601 L
462.515 104.926 L
463.6 101.205 L
464.685 99.229 L
465.77 97.205 L
466.855 94.135 L
467.94 99.452 L
469.025 105.874 L
470.11 106.381 L
471.195 99.544 L
472.28 92.64 L
473.365 95.243 L
474.45 109.681 L
475.535 130.074 L
476.62 154.603 L
477.705 182.896 L
478.79 207.312 L
479.875 221.154 L
480.96 226.417 L
482.045 233.397 L
483.13 246.266 L
484.215 256.362 L
485.3 260.42 L
486.385 257.907 L
487.47 259.575 L
488.555 263.068 L
489.64 263.186 L
490.725 255.214 L
491.81 241.588 L
492.895 220.377 L
493.98 198.119 L
495.065 180.416 L
496.15 169.015 L
497.235 162.538 L
498.32 160.837 L
499.405 162.868 L
500.49 160.016 L
501.575 155.491 L
502.66 151.48 L
503.745 154.023 L
504.83 159.32 L
505.915 170.448 L
507 175.639 L
S
GR
GS
[0.75 0 0 0.75 0 0] CT
0 0 1 RC
1 LJ
0.667 LW
N
73 131.917 M
74.085 131.917 L
75.17 134.001 L
76.255 131.917 L
77.34 131.917 L
78.425 131.917 L
79.51 131.917 L
80.595 129.834 L
81.68 131.917 L
82.765 131.917 L
83.85 134.001 L
84.935 131.917 L
86.02 131.917 L
87.105 131.917 L
88.19 131.917 L
89.275 131.917 L
90.36 131.917 L
91.445 131.917 L
92.53 131.917 L
93.615 131.917 L
94.7 131.917 L
95.785 131.917 L
96.87 131.917 L
97.955 131.917 L
99.04 131.917 L
100.125 131.917 L
101.21 131.917 L
102.295 129.834 L
103.38 131.917 L
104.465 131.917 L
105.55 131.917 L
106.635 129.834 L
107.72 131.917 L
108.805 131.917 L
109.89 131.917 L
110.975 131.917 L
112.06 131.917 L
113.145 129.834 L
114.23 131.917 L
115.315 131.917 L
116.4 131.917 L
117.485 131.917 L
118.57 131.917 L
119.655 131.917 L
120.74 131.917 L
121.825 131.917 L
122.91 131.917 L
123.995 131.917 L
125.08 131.917 L
126.165 131.917 L
127.25 131.917 L
128.335 131.917 L
129.42 131.917 L
130.505 131.917 L
131.59 131.917 L
132.675 131.917 L
133.76 131.917 L
134.845 131.917 L
135.93 131.917 L
137.015 131.917 L
138.1 131.917 L
139.185 131.917 L
140.27 131.917 L
141.355 131.917 L
142.44 131.917 L
143.525 131.917 L
144.61 131.917 L
145.695 131.917 L
146.78 131.917 L
147.865 131.917 L
148.95 127.75 L
150.035 131.917 L
151.12 131.917 L
152.205 131.917 L
153.29 131.917 L
154.375 131.917 L
155.46 131.917 L
156.545 131.917 L
157.63 131.917 L
158.715 134.001 L
159.8 134.001 L
160.885 134.001 L
161.97 131.917 L
163.055 131.917 L
164.14 129.834 L
165.225 134.001 L
166.31 131.917 L
167.395 131.917 L
168.48 131.917 L
169.565 163.169 L
170.65 204.837 L
171.735 259.006 L
172.82 300.674 L
173.905 300.674 L
174.99 309.008 L
176.075 313.175 L
177.16 313.175 L
178.245 313.175 L
179.33 313.175 L
180.415 300.674 L
181.5 281.923 L
182.585 281.923 L
183.67 281.923 L
184.755 275.673 L
185.84 259.006 L
186.925 229.838 L
188.01 209.004 L
189.095 190.253 L
190.18 167.335 L
191.265 156.918 L
192.35 150.668 L
193.435 152.751 L
194.52 144.418 L
195.605 144.418 L
196.69 136.084 L
197.775 136.084 L
198.86 136.084 L
199.945 136.084 L
201.03 136.084 L
202.115 136.084 L
203.2 136.084 L
204.285 136.084 L
205.37 136.084 L
206.455 136.084 L
207.54 136.084 L
208.625 136.084 L
209.71 136.084 L
210.795 136.084 L
211.88 136.084 L
212.965 136.084 L
214.05 136.084 L
215.135 134.001 L
216.22 136.084 L
217.305 136.084 L
218.39 134.001 L
219.475 136.084 L
220.56 136.084 L
221.645 136.084 L
222.73 136.084 L
223.815 136.084 L
224.9 136.084 L
225.985 134.001 L
227.07 136.084 L
228.155 136.084 L
229.24 136.084 L
230.325 136.084 L
231.41 134.001 L
232.495 136.084 L
233.58 136.084 L
234.665 136.084 L
235.75 136.084 L
236.835 134.001 L
237.92 136.084 L
239.005 136.084 L
240.09 136.084 L
241.175 136.084 L
242.26 136.084 L
243.345 136.084 L
244.43 136.084 L
245.515 136.084 L
246.6 136.084 L
247.685 134.001 L
248.77 136.084 L
249.855 136.084 L
250.94 136.084 L
252.025 136.084 L
253.11 134.001 L
254.195 136.084 L
255.28 136.084 L
256.365 136.084 L
257.45 134.001 L
258.535 136.084 L
259.62 136.084 L
260.705 136.084 L
261.79 136.084 L
262.875 148.585 L
263.96 184.003 L
265.045 240.255 L
266.13 265.256 L
267.215 279.84 L
268.3 279.84 L
269.385 279.84 L
270.47 279.84 L
271.555 279.84 L
272.64 271.506 L
273.725 271.506 L
274.81 267.339 L
275.895 269.423 L
276.98 259.006 L
278.065 240.255 L
279.15 225.671 L
280.235 211.087 L
281.32 179.836 L
282.405 159.002 L
283.49 136.084 L
284.575 136.084 L
285.66 136.084 L
286.745 136.084 L
287.83 136.084 L
288.915 136.084 L
290 136.084 L
291.085 136.084 L
292.17 127.75 L
293.255 127.75 L
294.34 129.834 L
295.425 129.834 L
296.51 127.75 L
297.595 127.75 L
298.68 127.75 L
299.765 129.834 L
300.85 129.834 L
301.935 127.75 L
303.02 129.834 L
304.105 129.834 L
305.19 127.75 L
306.275 127.75 L
307.36 127.75 L
308.445 127.75 L
309.53 127.75 L
310.615 127.75 L
311.7 127.75 L
312.785 127.75 L
313.87 129.834 L
314.955 127.75 L
316.04 127.75 L
317.125 127.75 L
318.21 127.75 L
319.295 129.834 L
320.38 129.834 L
321.465 129.834 L
322.55 129.834 L
323.635 129.834 L
324.72 129.834 L
325.805 129.834 L
326.89 127.75 L
327.975 127.75 L
329.06 127.75 L
330.145 127.75 L
331.23 127.75 L
332.315 127.75 L
333.4 127.75 L
334.485 127.75 L
335.57 127.75 L
336.655 127.75 L
337.74 129.834 L
338.825 127.75 L
339.91 127.75 L
340.995 129.834 L
342.08 127.75 L
343.165 129.834 L
344.25 129.834 L
345.335 138.168 L
346.42 136.084 L
347.505 136.084 L
348.59 136.084 L
349.675 136.084 L
350.76 136.084 L
351.845 142.334 L
352.93 152.751 L
354.015 186.086 L
355.1 211.087 L
356.185 215.254 L
357.27 227.754 L
358.355 234.005 L
359.44 234.005 L
360.525 227.754 L
361.61 225.671 L
362.695 221.504 L
363.78 223.588 L
364.865 198.587 L
365.95 188.17 L
367.035 184.003 L
368.12 169.419 L
369.205 148.585 L
370.29 148.585 L
371.375 150.668 L
372.46 150.668 L
373.545 136.084 L
374.63 136.084 L
375.715 136.084 L
376.8 136.084 L
377.885 136.084 L
378.97 136.084 L
380.055 136.084 L
381.14 136.084 L
382.225 138.168 L
383.31 136.084 L
384.395 136.084 L
385.48 136.084 L
386.565 136.084 L
387.65 136.084 L
388.735 127.75 L
389.82 127.75 L
390.905 127.75 L
391.99 127.75 L
393.075 127.75 L
394.16 127.75 L
395.245 127.75 L
396.33 127.75 L
397.415 127.75 L
398.5 127.75 L
399.585 127.75 L
400.67 127.75 L
401.755 131.917 L
402.84 127.75 L
403.925 127.75 L
405.01 127.75 L
406.095 127.75 L
407.18 129.834 L
408.265 138.168 L
409.35 159.002 L
410.435 167.335 L
411.52 184.003 L
412.605 190.253 L
413.69 200.67 L
414.775 209.004 L
415.86 234.005 L
416.945 242.338 L
418.03 248.589 L
419.115 273.59 L
420.2 302.758 L
421.285 302.758 L
422.37 302.758 L
423.455 302.758 L
424.54 309.008 L
425.625 323.592 L
426.71 329.842 L
427.795 327.759 L
428.88 313.175 L
429.965 279.84 L
431.05 261.089 L
432.135 240.255 L
433.22 221.504 L
434.305 184.003 L
435.39 154.835 L
436.475 134.001 L
437.56 134.001 L
438.645 134.001 L
439.73 134.001 L
440.815 134.001 L
441.9 134.001 L
442.985 134.001 L
444.07 134.001 L
445.155 134.001 L
446.24 134.001 L
447.325 134.001 L
448.41 134.001 L
449.495 134.001 L
450.58 134.001 L
451.665 134.001 L
452.75 134.001 L
453.835 134.001 L
454.92 134.001 L
456.005 134.001 L
457.09 134.001 L
458.175 134.001 L
459.26 134.001 L
460.345 134.001 L
461.43 134.001 L
462.515 134.001 L
463.6 134.001 L
464.685 134.001 L
465.77 134.001 L
466.855 134.001 L
467.94 134.001 L
469.025 134.001 L
470.11 134.001 L
471.195 134.001 L
472.28 148.585 L
473.365 209.004 L
474.45 294.424 L
475.535 325.675 L
476.62 338.176 L
477.705 348.593 L
478.79 359.01 L
479.875 373.594 L
480.96 375.677 L
482.045 367.343 L
483.13 359.01 L
484.215 354.843 L
485.3 354.843 L
486.385 354.843 L
487.47 346.509 L
488.555 338.176 L
489.64 321.508 L
490.725 265.256 L
491.81 229.838 L
492.895 200.67 L
493.98 184.003 L
495.065 179.836 L
496.15 179.836 L
497.235 184.003 L
498.32 184.003 L
499.405 179.836 L
500.49 177.752 L
501.575 200.67 L
502.66 215.254 L
503.745 227.754 L
504.83 242.338 L
505.915 221.504 L
507 200.67 L
S
GR
GS
[0.75 0 0 0.75 0 0] CT
1 GC
N
496 79 M
496 45 L
342 45 L
342 79 L
cp
f
GR
GS
[0.75 0 0 0.75 291.75 40.77174] CT
/Helvetica 12 F
GS
[1 0 0 1 0 0] CT
0 4.5 moveto 
1 -1 scale
(pitch - measured) t 
GR
GR
GS
[0.75 0 0 0.75 0 0] CT
0 0 1 RC
[10 6] 0 setdash
2 LJ
0.667 LW
N
346 54.362 M
386 54.362 L
S
GR
GS
[0.75 0 0 0.75 291.75 52.22826] CT
/Helvetica 12 F
GS
[1 0 0 1 0 0] CT
0 4.5 moveto 
1 -1 scale
(pitch - reference) t 
GR
GR
GS
[0.75 0 0 0.75 0 0] CT
0 0 1 RC
1 LJ
0.667 LW
N
346 69.638 M
386 69.638 L
S
GR
GS
[0.75 0 0 0.75 0 0] CT
0.149 GC
10.0 ML
0.667 LW
N
342 79 M
342 45 L
496 45 L
496 79 L
cp
S
GR
%%Trailer
%%Pages: 1
%%EOF
