%!PS-Adobe-3.0 EPSF-3.0
%%Creator: (MATLAB, The Mathworks, Inc. Version 9.4.0.813654 \(R2018a\). Operating System: Linux)
%%Title: /home/elgarbe/ws_gise/MatlabScripts/Roll_01.eps
%%CreationDate: 2018-08-10T13:16:20
%%Pages: (atend)
%%BoundingBox: 0 0 420 345
%%LanguageLevel: 3
%%EndComments
%%BeginProlog
%%BeginResource: procset (Apache XML Graphics Std ProcSet) 1.2 0
%%Version: 1.2 0
%%Copyright: (Copyright 2001-2003,2010 The Apache Software Foundation. License terms: http://www.apache.org/licenses/LICENSE-2.0)
/bd{bind def}bind def
/ld{load def}bd
/GR/grestore ld
/GS/gsave ld
/RM/rmoveto ld
/C/curveto ld
/t/show ld
/L/lineto ld
/ML/setmiterlimit ld
/CT/concat ld
/f/fill ld
/N/newpath ld
/S/stroke ld
/CC/setcmykcolor ld
/A/ashow ld
/cp/closepath ld
/RC/setrgbcolor ld
/LJ/setlinejoin ld
/GC/setgray ld
/LW/setlinewidth ld
/M/moveto ld
/re {4 2 roll M
1 index 0 rlineto
0 exch rlineto
neg 0 rlineto
cp } bd
/_ctm matrix def
/_tm matrix def
/BT { _ctm currentmatrix pop matrix _tm copy pop 0 0 moveto } bd
/ET { _ctm setmatrix } bd
/iTm { _ctm setmatrix _tm concat } bd
/Tm { _tm astore pop iTm 0 0 moveto } bd
/ux 0.0 def
/uy 0.0 def
/F {
  /Tp exch def
  /Tf exch def
  Tf findfont Tp scalefont setfont
  /cf Tf def  /cs Tp def
} bd
/ULS {currentpoint /uy exch def /ux exch def} bd
/ULE {
  /Tcx currentpoint pop def
  gsave
  newpath
  cf findfont cs scalefont dup
  /FontMatrix get 0 get /Ts exch def /FontInfo get dup
  /UnderlinePosition get Ts mul /To exch def
  /UnderlineThickness get Ts mul /Tt exch def
  ux uy To add moveto  Tcx uy To add lineto
  Tt setlinewidth stroke
  grestore
} bd
/OLE {
  /Tcx currentpoint pop def
  gsave
  newpath
  cf findfont cs scalefont dup
  /FontMatrix get 0 get /Ts exch def /FontInfo get dup
  /UnderlinePosition get Ts mul /To exch def
  /UnderlineThickness get Ts mul /Tt exch def
  ux uy To add cs add moveto Tcx uy To add cs add lineto
  Tt setlinewidth stroke
  grestore
} bd
/SOE {
  /Tcx currentpoint pop def
  gsave
  newpath
  cf findfont cs scalefont dup
  /FontMatrix get 0 get /Ts exch def /FontInfo get dup
  /UnderlinePosition get Ts mul /To exch def
  /UnderlineThickness get Ts mul /Tt exch def
  ux uy To add cs 10 mul 26 idiv add moveto Tcx uy To add cs 10 mul 26 idiv add lineto
  Tt setlinewidth stroke
  grestore
} bd
/QT {
/Y22 exch store
/X22 exch store
/Y21 exch store
/X21 exch store
currentpoint
/Y21 load 2 mul add 3 div exch
/X21 load 2 mul add 3 div exch
/X21 load 2 mul /X22 load add 3 div
/Y21 load 2 mul /Y22 load add 3 div
/X22 load /Y22 load curveto
} bd
/SSPD {
dup length /d exch dict def
{
/v exch def
/k exch def
currentpagedevice k known {
/cpdv currentpagedevice k get def
v cpdv ne {
/upd false def
/nullv v type /nulltype eq def
/nullcpdv cpdv type /nulltype eq def
nullv nullcpdv or
{
/upd true def
} {
/sametype v type cpdv type eq def
sametype {
v type /arraytype eq {
/vlen v length def
/cpdvlen cpdv length def
vlen cpdvlen eq {
0 1 vlen 1 sub {
/i exch def
/obj v i get def
/cpdobj cpdv i get def
obj cpdobj ne {
/upd true def
exit
} if
} for
} {
/upd true def
} ifelse
} {
v type /dicttype eq {
v {
/dv exch def
/dk exch def
/cpddv cpdv dk get def
dv cpddv ne {
/upd true def
exit
} if
} forall
} {
/upd true def
} ifelse
} ifelse
} if
} ifelse
upd true eq {
d k v put
} if
} if
} if
} forall
d length 0 gt {
d setpagedevice
} if
} bd
/RE { % /NewFontName [NewEncodingArray] /FontName RE -
  findfont dup length dict begin
  {
    1 index /FID ne
    {def} {pop pop} ifelse
  } forall
  /Encoding exch def
  /FontName 1 index def
  currentdict definefont pop
  end
} bind def
%%EndResource
%%BeginResource: procset (Apache XML Graphics EPS ProcSet) 1.0 0
%%Version: 1.0 0
%%Copyright: (Copyright 2002-2003 The Apache Software Foundation. License terms: http://www.apache.org/licenses/LICENSE-2.0)
/BeginEPSF { %def
/b4_Inc_state save def         % Save state for cleanup
/dict_count countdictstack def % Count objects on dict stack
/op_count count 1 sub def      % Count objects on operand stack
userdict begin                 % Push userdict on dict stack
/showpage { } def              % Redefine showpage, { } = null proc
0 setgray 0 setlinecap         % Prepare graphics state
1 setlinewidth 0 setlinejoin
10 setmiterlimit [ ] 0 setdash newpath
/languagelevel where           % If level not equal to 1 then
{pop languagelevel             % set strokeadjust and
1 ne                           % overprint to their defaults.
{false setstrokeadjust false setoverprint
} if
} if
} bd
/EndEPSF { %def
count op_count sub {pop} repeat            % Clean up stacks
countdictstack dict_count sub {end} repeat
b4_Inc_state restore
} bd
%%EndResource
%FOPBeginFontDict
%%IncludeResource: font Courier-Oblique
%%IncludeResource: font Courier-BoldOblique
%%IncludeResource: font Courier-Bold
%%IncludeResource: font ZapfDingbats
%%IncludeResource: font Symbol
%%IncludeResource: font Helvetica
%%IncludeResource: font Helvetica-Oblique
%%IncludeResource: font Helvetica-Bold
%%IncludeResource: font Helvetica-BoldOblique
%%IncludeResource: font Times-Roman
%%IncludeResource: font Times-Italic
%%IncludeResource: font Times-Bold
%%IncludeResource: font Times-BoldItalic
%%IncludeResource: font Courier
%FOPEndFontDict
%%BeginResource: encoding WinAnsiEncoding
/WinAnsiEncoding [
/.notdef /.notdef /.notdef /.notdef /.notdef
/.notdef /.notdef /.notdef /.notdef /.notdef
/.notdef /.notdef /.notdef /.notdef /.notdef
/.notdef /.notdef /.notdef /.notdef /.notdef
/.notdef /.notdef /.notdef /.notdef /.notdef
/.notdef /.notdef /.notdef /.notdef /.notdef
/.notdef /.notdef /space /exclam /quotedbl
/numbersign /dollar /percent /ampersand /quotesingle
/parenleft /parenright /asterisk /plus /comma
/hyphen /period /slash /zero /one
/two /three /four /five /six
/seven /eight /nine /colon /semicolon
/less /equal /greater /question /at
/A /B /C /D /E
/F /G /H /I /J
/K /L /M /N /O
/P /Q /R /S /T
/U /V /W /X /Y
/Z /bracketleft /backslash /bracketright /asciicircum
/underscore /quoteleft /a /b /c
/d /e /f /g /h
/i /j /k /l /m
/n /o /p /q /r
/s /t /u /v /w
/x /y /z /braceleft /bar
/braceright /asciitilde /bullet /Euro /bullet
/quotesinglbase /florin /quotedblbase /ellipsis /dagger
/daggerdbl /circumflex /perthousand /Scaron /guilsinglleft
/OE /bullet /Zcaron /bullet /bullet
/quoteleft /quoteright /quotedblleft /quotedblright /bullet
/endash /emdash /asciitilde /trademark /scaron
/guilsinglright /oe /bullet /zcaron /Ydieresis
/space /exclamdown /cent /sterling /currency
/yen /brokenbar /section /dieresis /copyright
/ordfeminine /guillemotleft /logicalnot /sfthyphen /registered
/macron /degree /plusminus /twosuperior /threesuperior
/acute /mu /paragraph /middot /cedilla
/onesuperior /ordmasculine /guillemotright /onequarter /onehalf
/threequarters /questiondown /Agrave /Aacute /Acircumflex
/Atilde /Adieresis /Aring /AE /Ccedilla
/Egrave /Eacute /Ecircumflex /Edieresis /Igrave
/Iacute /Icircumflex /Idieresis /Eth /Ntilde
/Ograve /Oacute /Ocircumflex /Otilde /Odieresis
/multiply /Oslash /Ugrave /Uacute /Ucircumflex
/Udieresis /Yacute /Thorn /germandbls /agrave
/aacute /acircumflex /atilde /adieresis /aring
/ae /ccedilla /egrave /eacute /ecircumflex
/edieresis /igrave /iacute /icircumflex /idieresis
/eth /ntilde /ograve /oacute /ocircumflex
/otilde /odieresis /divide /oslash /ugrave
/uacute /ucircumflex /udieresis /yacute /thorn
/ydieresis
] def
%%EndResource
%FOPBeginFontReencode
/Courier-Oblique findfont
dup length dict begin
  {1 index /FID ne {def} {pop pop} ifelse} forall
  /Encoding WinAnsiEncoding def
  currentdict
end
/Courier-Oblique exch definefont pop
/Courier-BoldOblique findfont
dup length dict begin
  {1 index /FID ne {def} {pop pop} ifelse} forall
  /Encoding WinAnsiEncoding def
  currentdict
end
/Courier-BoldOblique exch definefont pop
/Courier-Bold findfont
dup length dict begin
  {1 index /FID ne {def} {pop pop} ifelse} forall
  /Encoding WinAnsiEncoding def
  currentdict
end
/Courier-Bold exch definefont pop
/Helvetica findfont
dup length dict begin
  {1 index /FID ne {def} {pop pop} ifelse} forall
  /Encoding WinAnsiEncoding def
  currentdict
end
/Helvetica exch definefont pop
/Helvetica-Oblique findfont
dup length dict begin
  {1 index /FID ne {def} {pop pop} ifelse} forall
  /Encoding WinAnsiEncoding def
  currentdict
end
/Helvetica-Oblique exch definefont pop
/Helvetica-Bold findfont
dup length dict begin
  {1 index /FID ne {def} {pop pop} ifelse} forall
  /Encoding WinAnsiEncoding def
  currentdict
end
/Helvetica-Bold exch definefont pop
/Helvetica-BoldOblique findfont
dup length dict begin
  {1 index /FID ne {def} {pop pop} ifelse} forall
  /Encoding WinAnsiEncoding def
  currentdict
end
/Helvetica-BoldOblique exch definefont pop
/Times-Roman findfont
dup length dict begin
  {1 index /FID ne {def} {pop pop} ifelse} forall
  /Encoding WinAnsiEncoding def
  currentdict
end
/Times-Roman exch definefont pop
/Times-Italic findfont
dup length dict begin
  {1 index /FID ne {def} {pop pop} ifelse} forall
  /Encoding WinAnsiEncoding def
  currentdict
end
/Times-Italic exch definefont pop
/Times-Bold findfont
dup length dict begin
  {1 index /FID ne {def} {pop pop} ifelse} forall
  /Encoding WinAnsiEncoding def
  currentdict
end
/Times-Bold exch definefont pop
/Times-BoldItalic findfont
dup length dict begin
  {1 index /FID ne {def} {pop pop} ifelse} forall
  /Encoding WinAnsiEncoding def
  currentdict
end
/Times-BoldItalic exch definefont pop
/Courier findfont
dup length dict begin
  {1 index /FID ne {def} {pop pop} ifelse} forall
  /Encoding WinAnsiEncoding def
  currentdict
end
/Courier exch definefont pop
%FOPEndFontReencode
%%EndProlog
%%Page: 1 1
%%PageBoundingBox: 0 0 420 345
%%BeginPageSetup
[1 0 0 -1 0 345] CT
%%EndPageSetup
GS
[0.75 0 0 0.75 0 0] CT
1 GC
N
0 0 560 460 re
f
GR
GS
[0.75 0 0 0.75 0 0] CT
1 GC
N
0 0 560 460 re
f
GR
GS
[0.75 0 0 0.75 0 0] CT
1 GC
N
73 409 M
507 409 L
507 34 L
73 34 L
cp
f
GR
GS
[0.75 0 0 0.75 0 0] CT
0.149 GC
2 setlinecap
1 LJ
0.667 LW
N
73 409 M
507 409 L
S
GR
GS
[0.75 0 0 0.75 0 0] CT
0.149 GC
2 setlinecap
1 LJ
0.667 LW
N
73 34 M
507 34 L
S
GR
GS
[0.75 0 0 0.75 0 0] CT
0.149 GC
2 setlinecap
1 LJ
0.667 LW
N
73 409 M
73 404.66 L
S
GR
GS
[0.75 0 0 0.75 0 0] CT
0.149 GC
2 setlinecap
1 LJ
0.667 LW
N
181.5 409 M
181.5 404.66 L
S
GR
GS
[0.75 0 0 0.75 0 0] CT
0.149 GC
2 setlinecap
1 LJ
0.667 LW
N
290 409 M
290 404.66 L
S
GR
GS
[0.75 0 0 0.75 0 0] CT
0.149 GC
2 setlinecap
1 LJ
0.667 LW
N
398.5 409 M
398.5 404.66 L
S
GR
GS
[0.75 0 0 0.75 0 0] CT
0.149 GC
2 setlinecap
1 LJ
0.667 LW
N
507 409 M
507 404.66 L
S
GR
GS
[0.75 0 0 0.75 0 0] CT
0.149 GC
2 setlinecap
1 LJ
0.667 LW
N
73 34 M
73 38.34 L
S
GR
GS
[0.75 0 0 0.75 0 0] CT
0.149 GC
2 setlinecap
1 LJ
0.667 LW
N
181.5 34 M
181.5 38.34 L
S
GR
GS
[0.75 0 0 0.75 0 0] CT
0.149 GC
2 setlinecap
1 LJ
0.667 LW
N
290 34 M
290 38.34 L
S
GR
GS
[0.75 0 0 0.75 0 0] CT
0.149 GC
2 setlinecap
1 LJ
0.667 LW
N
398.5 34 M
398.5 38.34 L
S
GR
GS
[0.75 0 0 0.75 0 0] CT
0.149 GC
2 setlinecap
1 LJ
0.667 LW
N
507 34 M
507 38.34 L
S
GR
GS
[0.75 0 0 0.75 54.75 310.75001] CT
0.149 GC
/Helvetica 13.333 F
GS
[1 0 0 1 0 0] CT
-8.5 13 moveto 
1 -1 scale
(15) t 
GR
GR
GS
[0.75 0 0 0.75 136.125 310.75001] CT
0.149 GC
/Helvetica 13.333 F
GS
[1 0 0 1 0 0] CT
-8.5 13 moveto 
1 -1 scale
(20) t 
GR
GR
GS
[0.75 0 0 0.75 217.5 310.75001] CT
0.149 GC
/Helvetica 13.333 F
GS
[1 0 0 1 0 0] CT
-8.5 13 moveto 
1 -1 scale
(25) t 
GR
GR
GS
[0.75 0 0 0.75 298.875 310.75001] CT
0.149 GC
/Helvetica 13.333 F
GS
[1 0 0 1 0 0] CT
-8.5 13 moveto 
1 -1 scale
(30) t 
GR
GR
GS
[0.75 0 0 0.75 380.25 310.75001] CT
0.149 GC
/Helvetica 13.333 F
GS
[1 0 0 1 0 0] CT
-8.5 13 moveto 
1 -1 scale
(35) t 
GR
GR
GS
[0.75 0 0 0.75 217.50016 324.49999] CT
0.149 GC
/Helvetica 14.667 F
GS
[1 0 0 1 0 0] CT
-30.5 14 moveto 
1 -1 scale
(Time [s]) t 
GR
GR
GS
[0.75 0 0 0.75 0 0] CT
0.149 GC
2 setlinecap
1 LJ
0.667 LW
N
73 409 M
73 34 L
S
GR
GS
[0.75 0 0 0.75 0 0] CT
0.149 GC
2 setlinecap
1 LJ
0.667 LW
N
507 409 M
507 34 L
S
GR
GS
[0.75 0 0 0.75 0 0] CT
0.149 GC
2 setlinecap
1 LJ
0.667 LW
N
73 409 M
77.34 409 L
S
GR
GS
[0.75 0 0 0.75 0 0] CT
0.149 GC
2 setlinecap
1 LJ
0.667 LW
N
73 355.429 M
77.34 355.429 L
S
GR
GS
[0.75 0 0 0.75 0 0] CT
0.149 GC
2 setlinecap
1 LJ
0.667 LW
N
73 301.857 M
77.34 301.857 L
S
GR
GS
[0.75 0 0 0.75 0 0] CT
0.149 GC
2 setlinecap
1 LJ
0.667 LW
N
73 248.286 M
77.34 248.286 L
S
GR
GS
[0.75 0 0 0.75 0 0] CT
0.149 GC
2 setlinecap
1 LJ
0.667 LW
N
73 194.714 M
77.34 194.714 L
S
GR
GS
[0.75 0 0 0.75 0 0] CT
0.149 GC
2 setlinecap
1 LJ
0.667 LW
N
73 141.143 M
77.34 141.143 L
S
GR
GS
[0.75 0 0 0.75 0 0] CT
0.149 GC
2 setlinecap
1 LJ
0.667 LW
N
73 87.571 M
77.34 87.571 L
S
GR
GS
[0.75 0 0 0.75 0 0] CT
0.149 GC
2 setlinecap
1 LJ
0.667 LW
N
73 34 M
77.34 34 L
S
GR
GS
[0.75 0 0 0.75 0 0] CT
0.149 GC
2 setlinecap
1 LJ
0.667 LW
N
507 409 M
502.66 409 L
S
GR
GS
[0.75 0 0 0.75 0 0] CT
0.149 GC
2 setlinecap
1 LJ
0.667 LW
N
507 355.429 M
502.66 355.429 L
S
GR
GS
[0.75 0 0 0.75 0 0] CT
0.149 GC
2 setlinecap
1 LJ
0.667 LW
N
507 301.857 M
502.66 301.857 L
S
GR
GS
[0.75 0 0 0.75 0 0] CT
0.149 GC
2 setlinecap
1 LJ
0.667 LW
N
507 248.286 M
502.66 248.286 L
S
GR
GS
[0.75 0 0 0.75 0 0] CT
0.149 GC
2 setlinecap
1 LJ
0.667 LW
N
507 194.714 M
502.66 194.714 L
S
GR
GS
[0.75 0 0 0.75 0 0] CT
0.149 GC
2 setlinecap
1 LJ
0.667 LW
N
507 141.143 M
502.66 141.143 L
S
GR
GS
[0.75 0 0 0.75 0 0] CT
0.149 GC
2 setlinecap
1 LJ
0.667 LW
N
507 87.571 M
502.66 87.571 L
S
GR
GS
[0.75 0 0 0.75 0 0] CT
0.149 GC
2 setlinecap
1 LJ
0.667 LW
N
507 34 M
502.66 34 L
S
GR
GS
[0.75 0 0 0.75 50.74999 306.75] CT
0.149 GC
/Helvetica 13.333 F
GS
[1 0 0 1 0 0] CT
-14 4.5 moveto 
1 -1 scale
(-8) t 
GR
GR
GS
[0.75 0 0 0.75 50.74999 266.57142] CT
0.149 GC
/Helvetica 13.333 F
GS
[1 0 0 1 0 0] CT
-14 4.5 moveto 
1 -1 scale
(-6) t 
GR
GR
GS
[0.75 0 0 0.75 50.74999 226.39286] CT
0.149 GC
/Helvetica 13.333 F
GS
[1 0 0 1 0 0] CT
-14 4.5 moveto 
1 -1 scale
(-4) t 
GR
GR
GS
[0.75 0 0 0.75 50.74999 186.21429] CT
0.149 GC
/Helvetica 13.333 F
GS
[1 0 0 1 0 0] CT
-14 4.5 moveto 
1 -1 scale
(-2) t 
GR
GR
GS
[0.75 0 0 0.75 50.74999 146.03571] CT
0.149 GC
/Helvetica 13.333 F
GS
[1 0 0 1 0 0] CT
-9 4.5 moveto 
1 -1 scale
(0) t 
GR
GR
GS
[0.75 0 0 0.75 50.74999 105.85714] CT
0.149 GC
/Helvetica 13.333 F
GS
[1 0 0 1 0 0] CT
-9 4.5 moveto 
1 -1 scale
(2) t 
GR
GR
GS
[0.75 0 0 0.75 50.74999 65.67857] CT
0.149 GC
/Helvetica 13.333 F
GS
[1 0 0 1 0 0] CT
-9 4.5 moveto 
1 -1 scale
(4) t 
GR
GR
GS
[0.75 0 0 0.75 50.74999 25.5] CT
0.149 GC
/Helvetica 13.333 F
GS
[1 0 0 1 0 0] CT
-9 4.5 moveto 
1 -1 scale
(6) t 
GR
GR
GS
[0 -0.75 0.75 0 37.25 166.12486] CT
0.149 GC
/Helvetica 14.667 F
GS
[1 0 0 1 0 0] CT
-53.5 -4 moveto 
1 -1 scale
(Orientation [\260]) t 
GR
GR
GS
[0.75 0 0 0.75 217.50021 23.4375] CT
/Helvetica-Bold 14.667 F
GS
[1 0 0 1 0 0] CT
-151.5 -4 moveto 
1 -1 scale
(Roll References and measured angle) t 
GR
GR
GS
[0.75 0 0 0.75 0 0] CT
0 0 1 RC
[10 6] 0 setdash
2 LJ
0.667 LW
N
73 228.679 M
74.085 236.24 L
75.17 240.731 L
76.255 243.39 L
77.34 246.213 L
78.425 241.1 L
79.51 232.642 L
80.595 226.135 L
81.68 227.51 L
82.765 231.713 L
83.85 233.294 L
84.935 233.833 L
86.02 230.88 L
87.105 228.37 L
88.19 229.847 L
89.275 234.224 L
90.36 238.594 L
91.445 240.124 L
92.53 235.107 L
93.615 226.694 L
94.7 218.551 L
95.785 212.283 L
96.87 213.085 L
97.955 216.814 L
99.04 216.801 L
100.125 214.62 L
101.21 212.819 L
102.295 213.861 L
103.38 216.287 L
104.465 218.852 L
105.55 218.25 L
106.635 215.871 L
107.72 212.195 L
108.805 205.634 L
109.89 202.431 L
110.975 207.541 L
112.06 217.357 L
113.145 227.13 L
114.23 229.269 L
115.315 223.535 L
116.4 221.621 L
117.485 226.309 L
118.57 234.055 L
119.655 235.82 L
120.74 232.087 L
121.825 230.428 L
122.91 235.268 L
123.995 240.617 L
125.08 242.626 L
126.165 240.335 L
127.25 236.604 L
128.335 233.843 L
129.42 232.895 L
130.505 225.92 L
131.59 216.085 L
132.675 209.574 L
133.76 215.403 L
134.845 224.551 L
135.93 228.555 L
137.015 227.716 L
138.1 225.943 L
139.185 223.302 L
140.27 223.641 L
141.355 226.544 L
142.44 229.985 L
143.525 232.234 L
144.61 232.414 L
145.695 223.739 L
146.78 222.801 L
147.865 226.741 L
148.95 231.524 L
150.035 232.958 L
151.12 233.005 L
152.205 236.262 L
153.29 240.276 L
154.375 240.482 L
155.46 237.716 L
156.545 237.438 L
157.63 241.087 L
158.715 246.592 L
159.8 248.317 L
160.885 245.302 L
161.97 242.422 L
163.055 245.388 L
164.14 253.544 L
165.225 259.263 L
166.31 259.762 L
167.395 257.104 L
168.48 256.875 L
169.565 255.653 L
170.65 253.66 L
171.735 254.446 L
172.82 258.128 L
173.905 263.169 L
174.99 265.331 L
176.075 262.408 L
177.16 257.488 L
178.245 255.32 L
179.33 255.127 L
180.415 255.094 L
181.5 251.281 L
182.585 245.678 L
183.67 241.487 L
184.755 239.968 L
185.84 241.2 L
186.925 243.723 L
188.01 244.633 L
189.095 241.672 L
190.18 232.482 L
191.265 220.196 L
192.35 208.515 L
193.435 197.005 L
194.52 185.994 L
195.605 174.378 L
196.69 159.028 L
197.775 142.471 L
198.86 130.165 L
199.945 124.533 L
201.03 123.358 L
202.115 120.67 L
203.2 114.08 L
204.285 108.451 L
205.37 108.847 L
206.455 114.379 L
207.54 122.313 L
208.625 129.537 L
209.71 133.816 L
210.795 136.31 L
211.88 141.048 L
212.965 153.139 L
214.05 155.809 L
215.135 156.398 L
216.22 157.276 L
217.305 157.472 L
218.39 157.458 L
219.475 158.067 L
220.56 160.383 L
221.645 164.305 L
222.73 167.21 L
223.815 169.343 L
224.9 172.71 L
225.985 178.07 L
227.07 183.17 L
228.155 186.012 L
229.24 189.444 L
230.325 196.24 L
231.41 207.439 L
232.495 223.991 L
233.58 246.188 L
234.665 266.567 L
235.75 280.717 L
236.835 285.581 L
237.92 285.528 L
239.005 287.507 L
240.09 293.117 L
241.175 302.917 L
242.26 311.642 L
243.345 317.043 L
244.43 318.834 L
245.515 318.838 L
246.6 323.976 L
247.685 332.12 L
248.77 341.824 L
249.855 344.492 L
250.94 344.681 L
252.025 340.501 L
253.11 339.531 L
254.195 345.772 L
255.28 354.999 L
256.365 352.177 L
257.45 333.295 L
258.535 312.561 L
259.62 281.728 L
260.705 274.817 L
261.79 268.007 L
262.875 253.906 L
263.96 232.056 L
265.045 211.547 L
266.13 199.488 L
267.215 197.166 L
268.3 201.154 L
269.385 204.951 L
270.47 204.958 L
271.555 203.842 L
272.64 202.47 L
273.725 202.343 L
274.81 201.712 L
275.895 199.303 L
276.98 197.034 L
278.065 200.62 L
279.15 201.95 L
280.235 199.607 L
281.32 194.003 L
282.405 193.53 L
283.49 197.336 L
284.575 203.988 L
285.66 205.931 L
286.745 202.986 L
287.83 204.763 L
288.915 205.695 L
290 219.167 L
291.085 234.103 L
292.17 234.787 L
293.255 221.562 L
294.34 205.278 L
295.425 199.959 L
296.51 206.36 L
297.595 213.474 L
298.68 214.426 L
299.765 210.865 L
300.85 204.928 L
301.935 197.865 L
303.02 186.774 L
304.105 172.483 L
305.19 159.941 L
306.275 152.892 L
307.36 147.71 L
308.445 140.965 L
309.53 135.379 L
310.615 131.404 L
311.7 131.956 L
312.785 132.108 L
313.87 130.824 L
314.955 131.085 L
316.04 134.025 L
317.125 138.604 L
318.21 143.087 L
319.295 149.458 L
320.38 157.492 L
321.465 168.261 L
322.55 181.676 L
323.635 198.971 L
324.72 214.473 L
325.805 222.579 L
326.89 224.833 L
327.975 229.36 L
329.06 237.322 L
330.145 245.879 L
331.23 249.95 L
332.315 251.746 L
333.4 253.445 L
334.485 254.999 L
335.57 255.641 L
336.655 251.399 L
337.74 250.134 L
338.825 251.192 L
339.91 252.865 L
340.995 254.76 L
342.08 255.613 L
343.165 255.692 L
344.25 251.652 L
345.335 246.796 L
346.42 241.758 L
347.505 235.666 L
348.59 230.625 L
349.675 227.546 L
350.76 227.401 L
351.845 227.987 L
352.93 225.277 L
354.015 219.135 L
355.1 212.979 L
356.185 211.96 L
357.27 217.911 L
358.355 227.791 L
359.44 222.217 L
360.525 216.684 L
361.61 216.705 L
362.695 222.416 L
363.78 228.935 L
364.865 231.925 L
365.95 231.062 L
367.035 230.686 L
368.12 231.41 L
369.205 231.948 L
370.29 233.497 L
371.375 234.641 L
372.46 231.502 L
373.545 226.421 L
374.63 225.185 L
375.715 231.101 L
376.8 238.736 L
377.885 241.986 L
378.97 239.6 L
380.055 237.657 L
381.14 237.691 L
382.225 236.866 L
383.31 236.452 L
384.395 239.917 L
385.48 244.305 L
386.565 244.68 L
387.65 243.224 L
388.735 244.034 L
389.82 245.801 L
390.905 250.679 L
391.99 257.405 L
393.075 262.49 L
394.16 265.069 L
395.245 265.553 L
396.33 264.395 L
397.415 274.726 L
398.5 272.934 L
399.585 267.394 L
400.67 260.504 L
401.755 255.325 L
402.84 251.463 L
403.925 250.226 L
405.01 248.938 L
406.095 248.5 L
407.18 246.51 L
408.265 243.975 L
409.35 242.954 L
410.435 240.136 L
411.52 240.22 L
412.605 242.043 L
413.69 244.052 L
414.775 243.091 L
415.86 238.191 L
416.945 232.858 L
418.03 227.28 L
419.115 222.46 L
420.2 216.931 L
421.285 208.875 L
422.37 196.636 L
423.455 180.876 L
424.54 165.915 L
425.625 154.843 L
426.71 154.815 L
427.795 153.626 L
428.88 157.198 L
429.965 165.434 L
431.05 177.178 L
432.135 189.778 L
433.22 202.38 L
434.305 212.645 L
435.39 215.91 L
436.475 211.707 L
437.56 211.26 L
438.645 219.858 L
439.73 231.864 L
440.815 237.562 L
441.9 237.528 L
442.985 236.594 L
444.07 233.001 L
445.155 231.953 L
446.24 231.519 L
447.325 228.693 L
448.41 225.247 L
449.495 222.318 L
450.58 225.852 L
451.665 233.696 L
452.75 247.161 L
453.835 246.646 L
454.92 245.233 L
456.005 244.572 L
457.09 242.536 L
458.175 240.911 L
459.26 238.418 L
460.345 235.585 L
461.43 234.711 L
462.515 236.018 L
463.6 238.361 L
464.685 239.774 L
465.77 241.392 L
466.855 243.116 L
467.94 244.967 L
469.025 245.682 L
470.11 243.405 L
471.195 239.205 L
472.28 233.628 L
473.365 229.961 L
474.45 227.586 L
475.535 226.977 L
476.62 228.373 L
477.705 230.735 L
478.79 230.921 L
479.875 229.499 L
480.96 227.444 L
482.045 225.187 L
483.13 223.634 L
484.215 223.809 L
485.3 224.585 L
486.385 224.591 L
487.47 223.667 L
488.555 223.686 L
489.64 225.676 L
490.725 228.529 L
491.81 228.769 L
492.895 225.678 L
493.98 222.665 L
495.065 223.754 L
496.15 228.062 L
497.235 230.13 L
498.32 227.841 L
499.405 223.809 L
500.49 219.166 L
501.575 219.97 L
502.66 224.595 L
503.745 231.636 L
504.83 231.625 L
505.915 219.896 L
507 201.596 L
S
GR
GS
[0.75 0 0 0.75 0 0] CT
0 0 1 RC
1 LJ
0.667 LW
N
73 244.27 M
74.085 238.913 L
75.17 238.913 L
76.255 238.913 L
77.34 238.913 L
78.425 238.913 L
79.51 238.913 L
80.595 238.913 L
81.68 237.573 L
82.765 238.913 L
83.85 238.913 L
84.935 238.913 L
86.02 238.913 L
87.105 238.913 L
88.19 238.913 L
89.275 238.913 L
90.36 238.913 L
91.445 238.913 L
92.53 237.573 L
93.615 237.573 L
94.7 238.913 L
95.785 238.913 L
96.87 238.913 L
97.955 238.913 L
99.04 238.913 L
100.125 238.913 L
101.21 238.913 L
102.295 238.913 L
103.38 238.913 L
104.465 238.913 L
105.55 238.913 L
106.635 237.573 L
107.72 238.913 L
108.805 238.913 L
109.89 237.573 L
110.975 238.913 L
112.06 238.913 L
113.145 238.913 L
114.23 238.913 L
115.315 238.913 L
116.4 238.913 L
117.485 237.573 L
118.57 238.913 L
119.655 238.913 L
120.74 238.913 L
121.825 238.913 L
122.91 237.573 L
123.995 238.913 L
125.08 238.913 L
126.165 238.913 L
127.25 238.913 L
128.335 237.573 L
129.42 238.913 L
130.505 238.913 L
131.59 238.913 L
132.675 238.913 L
133.76 237.573 L
134.845 238.913 L
135.93 238.913 L
137.015 238.913 L
138.1 238.913 L
139.185 237.573 L
140.27 238.913 L
141.355 242.931 L
142.44 246.949 L
143.525 246.949 L
144.61 245.609 L
145.695 246.949 L
146.78 246.949 L
147.865 244.27 L
148.95 242.931 L
150.035 238.913 L
151.12 240.252 L
152.205 240.252 L
153.29 240.252 L
154.375 240.252 L
155.46 240.252 L
156.545 238.913 L
157.63 240.252 L
158.715 238.913 L
159.8 238.913 L
160.885 238.913 L
161.97 240.252 L
163.055 240.252 L
164.14 238.913 L
165.225 238.913 L
166.31 238.913 L
167.395 238.913 L
168.48 238.913 L
169.565 238.913 L
170.65 238.913 L
171.735 238.913 L
172.82 238.913 L
173.905 238.913 L
174.99 238.913 L
176.075 238.913 L
177.16 240.252 L
178.245 238.913 L
179.33 240.252 L
180.415 240.252 L
181.5 238.913 L
182.585 238.913 L
183.67 238.913 L
184.755 238.913 L
185.84 238.913 L
186.925 240.252 L
188.01 228.198 L
189.095 200.072 L
190.18 182.66 L
191.265 158.552 L
192.35 138.462 L
193.435 123.729 L
194.52 98.282 L
195.605 86.228 L
196.69 80.87 L
197.775 80.87 L
198.86 80.87 L
199.945 80.87 L
201.03 80.87 L
202.115 80.87 L
203.2 80.87 L
204.285 86.228 L
205.37 99.621 L
206.455 107.657 L
207.54 111.675 L
208.625 115.693 L
209.71 127.747 L
210.795 131.765 L
211.88 131.765 L
212.965 131.765 L
214.05 131.765 L
215.135 131.765 L
216.22 131.765 L
217.305 131.765 L
218.39 130.426 L
219.475 130.426 L
220.56 130.426 L
221.645 135.783 L
222.73 135.783 L
223.815 138.462 L
224.9 138.462 L
225.985 138.462 L
227.07 138.462 L
228.155 142.48 L
229.24 162.57 L
230.325 193.375 L
231.41 221.501 L
232.495 236.234 L
233.58 242.931 L
234.665 254.985 L
235.75 265.699 L
236.835 271.057 L
237.92 281.771 L
239.005 285.789 L
240.09 288.468 L
241.175 288.468 L
242.26 300.522 L
243.345 304.54 L
244.43 313.916 L
245.515 331.327 L
246.6 335.345 L
247.685 340.702 L
248.77 342.042 L
249.855 346.06 L
250.94 350.078 L
252.025 355.435 L
253.11 358.114 L
254.195 358.114 L
255.28 352.756 L
256.365 325.97 L
257.45 304.54 L
258.535 289.807 L
259.62 237.573 L
260.705 214.804 L
261.79 188.018 L
262.875 184 L
263.96 184 L
265.045 193.375 L
266.13 205.429 L
267.215 213.465 L
268.3 218.822 L
269.385 226.858 L
270.47 232.216 L
271.555 236.234 L
272.64 236.234 L
273.725 236.234 L
274.81 236.234 L
275.895 236.234 L
276.98 238.913 L
278.065 237.573 L
279.15 236.234 L
280.235 236.234 L
281.32 236.234 L
282.405 236.234 L
283.49 236.234 L
284.575 236.234 L
285.66 236.234 L
286.745 236.234 L
287.83 236.234 L
288.915 236.234 L
290 236.234 L
291.085 236.234 L
292.17 236.234 L
293.255 238.913 L
294.34 236.234 L
295.425 236.234 L
296.51 236.234 L
297.595 222.84 L
298.68 200.072 L
299.765 167.927 L
300.85 130.426 L
301.935 115.693 L
303.02 98.282 L
304.105 98.282 L
305.19 98.282 L
306.275 103.639 L
307.36 87.567 L
308.445 87.567 L
309.53 87.567 L
310.615 87.567 L
311.7 87.567 L
312.785 92.924 L
313.87 103.639 L
314.955 123.729 L
316.04 131.765 L
317.125 145.159 L
318.21 155.873 L
319.295 171.946 L
320.38 204.09 L
321.465 232.216 L
322.55 236.234 L
323.635 234.894 L
324.72 236.234 L
325.805 242.931 L
326.89 242.931 L
327.975 242.931 L
329.06 237.573 L
330.145 238.913 L
331.23 237.573 L
332.315 237.573 L
333.4 238.913 L
334.485 237.573 L
335.57 237.573 L
336.655 238.913 L
337.74 237.573 L
338.825 237.573 L
339.91 238.913 L
340.995 237.573 L
342.08 238.913 L
343.165 237.573 L
344.25 237.573 L
345.335 237.573 L
346.42 238.913 L
347.505 238.913 L
348.59 237.573 L
349.675 237.573 L
350.76 237.573 L
351.845 238.913 L
352.93 237.573 L
354.015 237.573 L
355.1 238.913 L
356.185 238.913 L
357.27 236.234 L
358.355 237.573 L
359.44 238.913 L
360.525 237.573 L
361.61 237.573 L
362.695 238.913 L
363.78 238.913 L
364.865 238.913 L
365.95 237.573 L
367.035 238.913 L
368.12 237.573 L
369.205 237.573 L
370.29 238.913 L
371.375 237.573 L
372.46 238.913 L
373.545 237.573 L
374.63 237.573 L
375.715 237.573 L
376.8 237.573 L
377.885 237.573 L
378.97 237.573 L
380.055 237.573 L
381.14 245.609 L
382.225 254.985 L
383.31 254.985 L
384.395 254.985 L
385.48 254.985 L
386.565 268.378 L
387.65 277.753 L
388.735 284.45 L
389.82 289.807 L
390.905 292.486 L
391.99 292.486 L
393.075 293.825 L
394.16 293.825 L
395.245 293.825 L
396.33 293.825 L
397.415 271.057 L
398.5 254.985 L
399.585 246.949 L
400.67 242.931 L
401.755 242.931 L
402.84 242.931 L
403.925 242.931 L
405.01 242.931 L
406.095 242.931 L
407.18 242.931 L
408.265 242.931 L
409.35 242.931 L
410.435 242.931 L
411.52 237.573 L
412.605 237.573 L
413.69 237.573 L
414.775 237.573 L
415.86 232.216 L
416.945 204.09 L
418.03 185.339 L
419.115 155.873 L
420.2 131.765 L
421.285 117.033 L
422.37 106.318 L
423.455 104.979 L
424.54 104.979 L
425.625 139.801 L
426.71 138.462 L
427.795 186.678 L
428.88 210.786 L
429.965 217.483 L
431.05 225.519 L
432.135 232.216 L
433.22 236.234 L
434.305 237.573 L
435.39 237.573 L
436.475 236.234 L
437.56 236.234 L
438.645 237.573 L
439.73 237.573 L
440.815 236.234 L
441.9 236.234 L
442.985 237.573 L
444.07 236.234 L
445.155 237.573 L
446.24 236.234 L
447.325 237.573 L
448.41 237.573 L
449.495 237.573 L
450.58 237.573 L
451.665 237.573 L
452.75 237.573 L
453.835 237.573 L
454.92 237.573 L
456.005 236.234 L
457.09 237.573 L
458.175 237.573 L
459.26 237.573 L
460.345 236.234 L
461.43 237.573 L
462.515 237.573 L
463.6 246.949 L
464.685 248.288 L
465.77 248.288 L
466.855 248.288 L
467.94 248.288 L
469.025 241.591 L
470.11 240.252 L
471.195 240.252 L
472.28 240.252 L
473.365 240.252 L
474.45 240.252 L
475.535 241.591 L
476.62 240.252 L
477.705 242.931 L
478.79 240.252 L
479.875 240.252 L
480.96 240.252 L
482.045 240.252 L
483.13 240.252 L
484.215 240.252 L
485.3 241.591 L
486.385 240.252 L
487.47 241.591 L
488.555 240.252 L
489.64 240.252 L
490.725 241.591 L
491.81 240.252 L
492.895 240.252 L
493.98 241.591 L
495.065 240.252 L
496.15 240.252 L
497.235 240.252 L
498.32 240.252 L
499.405 241.591 L
500.49 240.252 L
501.575 241.591 L
502.66 230.876 L
503.745 209.447 L
504.83 159.891 L
505.915 133.105 L
507 127.747 L
S
GR
GS
[0.75 0 0 0.75 0 0] CT
1 GC
N
496 79 M
496 45 L
353 45 L
353 79 L
cp
f
GR
GS
[0.75 0 0 0.75 300 40.77174] CT
/Helvetica 12 F
GS
[1 0 0 1 0 0] CT
0 4.5 moveto 
1 -1 scale
(roll - measured) t 
GR
GR
GS
[0.75 0 0 0.75 0 0] CT
0 0 1 RC
[10 6] 0 setdash
2 LJ
0.667 LW
N
357 54.362 M
397 54.362 L
S
GR
GS
[0.75 0 0 0.75 300 52.22826] CT
/Helvetica 12 F
GS
[1 0 0 1 0 0] CT
0 4.5 moveto 
1 -1 scale
(roll - reference) t 
GR
GR
GS
[0.75 0 0 0.75 0 0] CT
0 0 1 RC
1 LJ
0.667 LW
N
357 69.638 M
397 69.638 L
S
GR
GS
[0.75 0 0 0.75 0 0] CT
0.149 GC
10.0 ML
0.667 LW
N
353 79 M
353 45 L
496 45 L
496 79 L
cp
S
GR
%%Trailer
%%Pages: 1
%%EOF
