%!PS-Adobe-3.0 EPSF-3.0
%%Creator: (MATLAB, The Mathworks, Inc. Version 9.4.0.813654 \(R2018a\). Operating System: Linux)
%%Title: /home/elgarbe/ws_gise/MatlabScripts/Roll_Dist.eps
%%CreationDate: 2018-08-10T19:50:01
%%Pages: (atend)
%%BoundingBox: 0 0 420 345
%%LanguageLevel: 3
%%EndComments
%%BeginProlog
%%BeginResource: procset (Apache XML Graphics Std ProcSet) 1.2 0
%%Version: 1.2 0
%%Copyright: (Copyright 2001-2003,2010 The Apache Software Foundation. License terms: http://www.apache.org/licenses/LICENSE-2.0)
/bd{bind def}bind def
/ld{load def}bd
/GR/grestore ld
/GS/gsave ld
/RM/rmoveto ld
/C/curveto ld
/t/show ld
/L/lineto ld
/ML/setmiterlimit ld
/CT/concat ld
/f/fill ld
/N/newpath ld
/S/stroke ld
/CC/setcmykcolor ld
/A/ashow ld
/cp/closepath ld
/RC/setrgbcolor ld
/LJ/setlinejoin ld
/GC/setgray ld
/LW/setlinewidth ld
/M/moveto ld
/re {4 2 roll M
1 index 0 rlineto
0 exch rlineto
neg 0 rlineto
cp } bd
/_ctm matrix def
/_tm matrix def
/BT { _ctm currentmatrix pop matrix _tm copy pop 0 0 moveto } bd
/ET { _ctm setmatrix } bd
/iTm { _ctm setmatrix _tm concat } bd
/Tm { _tm astore pop iTm 0 0 moveto } bd
/ux 0.0 def
/uy 0.0 def
/F {
  /Tp exch def
  /Tf exch def
  Tf findfont Tp scalefont setfont
  /cf Tf def  /cs Tp def
} bd
/ULS {currentpoint /uy exch def /ux exch def} bd
/ULE {
  /Tcx currentpoint pop def
  gsave
  newpath
  cf findfont cs scalefont dup
  /FontMatrix get 0 get /Ts exch def /FontInfo get dup
  /UnderlinePosition get Ts mul /To exch def
  /UnderlineThickness get Ts mul /Tt exch def
  ux uy To add moveto  Tcx uy To add lineto
  Tt setlinewidth stroke
  grestore
} bd
/OLE {
  /Tcx currentpoint pop def
  gsave
  newpath
  cf findfont cs scalefont dup
  /FontMatrix get 0 get /Ts exch def /FontInfo get dup
  /UnderlinePosition get Ts mul /To exch def
  /UnderlineThickness get Ts mul /Tt exch def
  ux uy To add cs add moveto Tcx uy To add cs add lineto
  Tt setlinewidth stroke
  grestore
} bd
/SOE {
  /Tcx currentpoint pop def
  gsave
  newpath
  cf findfont cs scalefont dup
  /FontMatrix get 0 get /Ts exch def /FontInfo get dup
  /UnderlinePosition get Ts mul /To exch def
  /UnderlineThickness get Ts mul /Tt exch def
  ux uy To add cs 10 mul 26 idiv add moveto Tcx uy To add cs 10 mul 26 idiv add lineto
  Tt setlinewidth stroke
  grestore
} bd
/QT {
/Y22 exch store
/X22 exch store
/Y21 exch store
/X21 exch store
currentpoint
/Y21 load 2 mul add 3 div exch
/X21 load 2 mul add 3 div exch
/X21 load 2 mul /X22 load add 3 div
/Y21 load 2 mul /Y22 load add 3 div
/X22 load /Y22 load curveto
} bd
/SSPD {
dup length /d exch dict def
{
/v exch def
/k exch def
currentpagedevice k known {
/cpdv currentpagedevice k get def
v cpdv ne {
/upd false def
/nullv v type /nulltype eq def
/nullcpdv cpdv type /nulltype eq def
nullv nullcpdv or
{
/upd true def
} {
/sametype v type cpdv type eq def
sametype {
v type /arraytype eq {
/vlen v length def
/cpdvlen cpdv length def
vlen cpdvlen eq {
0 1 vlen 1 sub {
/i exch def
/obj v i get def
/cpdobj cpdv i get def
obj cpdobj ne {
/upd true def
exit
} if
} for
} {
/upd true def
} ifelse
} {
v type /dicttype eq {
v {
/dv exch def
/dk exch def
/cpddv cpdv dk get def
dv cpddv ne {
/upd true def
exit
} if
} forall
} {
/upd true def
} ifelse
} ifelse
} if
} ifelse
upd true eq {
d k v put
} if
} if
} if
} forall
d length 0 gt {
d setpagedevice
} if
} bd
/RE { % /NewFontName [NewEncodingArray] /FontName RE -
  findfont dup length dict begin
  {
    1 index /FID ne
    {def} {pop pop} ifelse
  } forall
  /Encoding exch def
  /FontName 1 index def
  currentdict definefont pop
  end
} bind def
%%EndResource
%%BeginResource: procset (Apache XML Graphics EPS ProcSet) 1.0 0
%%Version: 1.0 0
%%Copyright: (Copyright 2002-2003 The Apache Software Foundation. License terms: http://www.apache.org/licenses/LICENSE-2.0)
/BeginEPSF { %def
/b4_Inc_state save def         % Save state for cleanup
/dict_count countdictstack def % Count objects on dict stack
/op_count count 1 sub def      % Count objects on operand stack
userdict begin                 % Push userdict on dict stack
/showpage { } def              % Redefine showpage, { } = null proc
0 setgray 0 setlinecap         % Prepare graphics state
1 setlinewidth 0 setlinejoin
10 setmiterlimit [ ] 0 setdash newpath
/languagelevel where           % If level not equal to 1 then
{pop languagelevel             % set strokeadjust and
1 ne                           % overprint to their defaults.
{false setstrokeadjust false setoverprint
} if
} if
} bd
/EndEPSF { %def
count op_count sub {pop} repeat            % Clean up stacks
countdictstack dict_count sub {end} repeat
b4_Inc_state restore
} bd
%%EndResource
%FOPBeginFontDict
%%IncludeResource: font Courier-Oblique
%%IncludeResource: font Courier-BoldOblique
%%IncludeResource: font Courier-Bold
%%IncludeResource: font ZapfDingbats
%%IncludeResource: font Symbol
%%IncludeResource: font Helvetica
%%IncludeResource: font Helvetica-Oblique
%%IncludeResource: font Helvetica-Bold
%%IncludeResource: font Helvetica-BoldOblique
%%IncludeResource: font Times-Roman
%%IncludeResource: font Times-Italic
%%IncludeResource: font Times-Bold
%%IncludeResource: font Times-BoldItalic
%%IncludeResource: font Courier
%FOPEndFontDict
%%BeginResource: encoding WinAnsiEncoding
/WinAnsiEncoding [
/.notdef /.notdef /.notdef /.notdef /.notdef
/.notdef /.notdef /.notdef /.notdef /.notdef
/.notdef /.notdef /.notdef /.notdef /.notdef
/.notdef /.notdef /.notdef /.notdef /.notdef
/.notdef /.notdef /.notdef /.notdef /.notdef
/.notdef /.notdef /.notdef /.notdef /.notdef
/.notdef /.notdef /space /exclam /quotedbl
/numbersign /dollar /percent /ampersand /quotesingle
/parenleft /parenright /asterisk /plus /comma
/hyphen /period /slash /zero /one
/two /three /four /five /six
/seven /eight /nine /colon /semicolon
/less /equal /greater /question /at
/A /B /C /D /E
/F /G /H /I /J
/K /L /M /N /O
/P /Q /R /S /T
/U /V /W /X /Y
/Z /bracketleft /backslash /bracketright /asciicircum
/underscore /quoteleft /a /b /c
/d /e /f /g /h
/i /j /k /l /m
/n /o /p /q /r
/s /t /u /v /w
/x /y /z /braceleft /bar
/braceright /asciitilde /bullet /Euro /bullet
/quotesinglbase /florin /quotedblbase /ellipsis /dagger
/daggerdbl /circumflex /perthousand /Scaron /guilsinglleft
/OE /bullet /Zcaron /bullet /bullet
/quoteleft /quoteright /quotedblleft /quotedblright /bullet
/endash /emdash /asciitilde /trademark /scaron
/guilsinglright /oe /bullet /zcaron /Ydieresis
/space /exclamdown /cent /sterling /currency
/yen /brokenbar /section /dieresis /copyright
/ordfeminine /guillemotleft /logicalnot /sfthyphen /registered
/macron /degree /plusminus /twosuperior /threesuperior
/acute /mu /paragraph /middot /cedilla
/onesuperior /ordmasculine /guillemotright /onequarter /onehalf
/threequarters /questiondown /Agrave /Aacute /Acircumflex
/Atilde /Adieresis /Aring /AE /Ccedilla
/Egrave /Eacute /Ecircumflex /Edieresis /Igrave
/Iacute /Icircumflex /Idieresis /Eth /Ntilde
/Ograve /Oacute /Ocircumflex /Otilde /Odieresis
/multiply /Oslash /Ugrave /Uacute /Ucircumflex
/Udieresis /Yacute /Thorn /germandbls /agrave
/aacute /acircumflex /atilde /adieresis /aring
/ae /ccedilla /egrave /eacute /ecircumflex
/edieresis /igrave /iacute /icircumflex /idieresis
/eth /ntilde /ograve /oacute /ocircumflex
/otilde /odieresis /divide /oslash /ugrave
/uacute /ucircumflex /udieresis /yacute /thorn
/ydieresis
] def
%%EndResource
%FOPBeginFontReencode
/Courier-Oblique findfont
dup length dict begin
  {1 index /FID ne {def} {pop pop} ifelse} forall
  /Encoding WinAnsiEncoding def
  currentdict
end
/Courier-Oblique exch definefont pop
/Courier-BoldOblique findfont
dup length dict begin
  {1 index /FID ne {def} {pop pop} ifelse} forall
  /Encoding WinAnsiEncoding def
  currentdict
end
/Courier-BoldOblique exch definefont pop
/Courier-Bold findfont
dup length dict begin
  {1 index /FID ne {def} {pop pop} ifelse} forall
  /Encoding WinAnsiEncoding def
  currentdict
end
/Courier-Bold exch definefont pop
/Helvetica findfont
dup length dict begin
  {1 index /FID ne {def} {pop pop} ifelse} forall
  /Encoding WinAnsiEncoding def
  currentdict
end
/Helvetica exch definefont pop
/Helvetica-Oblique findfont
dup length dict begin
  {1 index /FID ne {def} {pop pop} ifelse} forall
  /Encoding WinAnsiEncoding def
  currentdict
end
/Helvetica-Oblique exch definefont pop
/Helvetica-Bold findfont
dup length dict begin
  {1 index /FID ne {def} {pop pop} ifelse} forall
  /Encoding WinAnsiEncoding def
  currentdict
end
/Helvetica-Bold exch definefont pop
/Helvetica-BoldOblique findfont
dup length dict begin
  {1 index /FID ne {def} {pop pop} ifelse} forall
  /Encoding WinAnsiEncoding def
  currentdict
end
/Helvetica-BoldOblique exch definefont pop
/Times-Roman findfont
dup length dict begin
  {1 index /FID ne {def} {pop pop} ifelse} forall
  /Encoding WinAnsiEncoding def
  currentdict
end
/Times-Roman exch definefont pop
/Times-Italic findfont
dup length dict begin
  {1 index /FID ne {def} {pop pop} ifelse} forall
  /Encoding WinAnsiEncoding def
  currentdict
end
/Times-Italic exch definefont pop
/Times-Bold findfont
dup length dict begin
  {1 index /FID ne {def} {pop pop} ifelse} forall
  /Encoding WinAnsiEncoding def
  currentdict
end
/Times-Bold exch definefont pop
/Times-BoldItalic findfont
dup length dict begin
  {1 index /FID ne {def} {pop pop} ifelse} forall
  /Encoding WinAnsiEncoding def
  currentdict
end
/Times-BoldItalic exch definefont pop
/Courier findfont
dup length dict begin
  {1 index /FID ne {def} {pop pop} ifelse} forall
  /Encoding WinAnsiEncoding def
  currentdict
end
/Courier exch definefont pop
%FOPEndFontReencode
%%EndProlog
%%Page: 1 1
%%PageBoundingBox: 0 0 420 345
%%BeginPageSetup
[1 0 0 -1 0 345] CT
%%EndPageSetup
GS
[0.75 0 0 0.75 0 0] CT
1 GC
N
0 0 560 460 re
f
GR
GS
[0.75 0 0 0.75 0 0] CT
1 GC
N
0 0 560 460 re
f
GR
GS
[0.75 0 0 0.75 0 0] CT
1 GC
N
73 409 M
507 409 L
507 34 L
73 34 L
cp
f
GR
GS
[0.75 0 0 0.75 0 0] CT
0.149 GC
2 setlinecap
1 LJ
0.667 LW
N
73 409 M
507 409 L
S
GR
GS
[0.75 0 0 0.75 0 0] CT
0.149 GC
2 setlinecap
1 LJ
0.667 LW
N
73 34 M
507 34 L
S
GR
GS
[0.75 0 0 0.75 0 0] CT
0.149 GC
2 setlinecap
1 LJ
0.667 LW
N
73 409 M
73 404.66 L
S
GR
GS
[0.75 0 0 0.75 0 0] CT
0.149 GC
2 setlinecap
1 LJ
0.667 LW
N
127.25 409 M
127.25 404.66 L
S
GR
GS
[0.75 0 0 0.75 0 0] CT
0.149 GC
2 setlinecap
1 LJ
0.667 LW
N
181.5 409 M
181.5 404.66 L
S
GR
GS
[0.75 0 0 0.75 0 0] CT
0.149 GC
2 setlinecap
1 LJ
0.667 LW
N
235.75 409 M
235.75 404.66 L
S
GR
GS
[0.75 0 0 0.75 0 0] CT
0.149 GC
2 setlinecap
1 LJ
0.667 LW
N
290 409 M
290 404.66 L
S
GR
GS
[0.75 0 0 0.75 0 0] CT
0.149 GC
2 setlinecap
1 LJ
0.667 LW
N
344.25 409 M
344.25 404.66 L
S
GR
GS
[0.75 0 0 0.75 0 0] CT
0.149 GC
2 setlinecap
1 LJ
0.667 LW
N
398.5 409 M
398.5 404.66 L
S
GR
GS
[0.75 0 0 0.75 0 0] CT
0.149 GC
2 setlinecap
1 LJ
0.667 LW
N
452.75 409 M
452.75 404.66 L
S
GR
GS
[0.75 0 0 0.75 0 0] CT
0.149 GC
2 setlinecap
1 LJ
0.667 LW
N
507 409 M
507 404.66 L
S
GR
GS
[0.75 0 0 0.75 0 0] CT
0.149 GC
2 setlinecap
1 LJ
0.667 LW
N
73 34 M
73 38.34 L
S
GR
GS
[0.75 0 0 0.75 0 0] CT
0.149 GC
2 setlinecap
1 LJ
0.667 LW
N
127.25 34 M
127.25 38.34 L
S
GR
GS
[0.75 0 0 0.75 0 0] CT
0.149 GC
2 setlinecap
1 LJ
0.667 LW
N
181.5 34 M
181.5 38.34 L
S
GR
GS
[0.75 0 0 0.75 0 0] CT
0.149 GC
2 setlinecap
1 LJ
0.667 LW
N
235.75 34 M
235.75 38.34 L
S
GR
GS
[0.75 0 0 0.75 0 0] CT
0.149 GC
2 setlinecap
1 LJ
0.667 LW
N
290 34 M
290 38.34 L
S
GR
GS
[0.75 0 0 0.75 0 0] CT
0.149 GC
2 setlinecap
1 LJ
0.667 LW
N
344.25 34 M
344.25 38.34 L
S
GR
GS
[0.75 0 0 0.75 0 0] CT
0.149 GC
2 setlinecap
1 LJ
0.667 LW
N
398.5 34 M
398.5 38.34 L
S
GR
GS
[0.75 0 0 0.75 0 0] CT
0.149 GC
2 setlinecap
1 LJ
0.667 LW
N
452.75 34 M
452.75 38.34 L
S
GR
GS
[0.75 0 0 0.75 0 0] CT
0.149 GC
2 setlinecap
1 LJ
0.667 LW
N
507 34 M
507 38.34 L
S
GR
GS
[0.75 0 0 0.75 54.75 310.75001] CT
0.149 GC
/Helvetica 13.333 F
GS
[1 0 0 1 0 0] CT
-8.5 13 moveto 
1 -1 scale
(50) t 
GR
GR
GS
[0.75 0 0 0.75 95.4375 310.75001] CT
0.149 GC
/Helvetica 13.333 F
GS
[1 0 0 1 0 0] CT
-8.5 13 moveto 
1 -1 scale
(55) t 
GR
GR
GS
[0.75 0 0 0.75 136.125 310.75001] CT
0.149 GC
/Helvetica 13.333 F
GS
[1 0 0 1 0 0] CT
-8.5 13 moveto 
1 -1 scale
(60) t 
GR
GR
GS
[0.75 0 0 0.75 176.8125 310.75001] CT
0.149 GC
/Helvetica 13.333 F
GS
[1 0 0 1 0 0] CT
-8.5 13 moveto 
1 -1 scale
(65) t 
GR
GR
GS
[0.75 0 0 0.75 217.5 310.75001] CT
0.149 GC
/Helvetica 13.333 F
GS
[1 0 0 1 0 0] CT
-8.5 13 moveto 
1 -1 scale
(70) t 
GR
GR
GS
[0.75 0 0 0.75 258.1875 310.75001] CT
0.149 GC
/Helvetica 13.333 F
GS
[1 0 0 1 0 0] CT
-8.5 13 moveto 
1 -1 scale
(75) t 
GR
GR
GS
[0.75 0 0 0.75 298.875 310.75001] CT
0.149 GC
/Helvetica 13.333 F
GS
[1 0 0 1 0 0] CT
-8.5 13 moveto 
1 -1 scale
(80) t 
GR
GR
GS
[0.75 0 0 0.75 339.5625 310.75001] CT
0.149 GC
/Helvetica 13.333 F
GS
[1 0 0 1 0 0] CT
-8.5 13 moveto 
1 -1 scale
(85) t 
GR
GR
GS
[0.75 0 0 0.75 380.25 310.75001] CT
0.149 GC
/Helvetica 13.333 F
GS
[1 0 0 1 0 0] CT
-8.5 13 moveto 
1 -1 scale
(90) t 
GR
GR
GS
[0.75 0 0 0.75 217.50011 324.49999] CT
0.149 GC
/Helvetica 14.667 F
GS
[1 0 0 1 0 0] CT
-30.5 14 moveto 
1 -1 scale
(Time [s]) t 
GR
GR
GS
[0.75 0 0 0.75 0 0] CT
0.149 GC
2 setlinecap
1 LJ
0.667 LW
N
73 409 M
73 34 L
S
GR
GS
[0.75 0 0 0.75 0 0] CT
0.149 GC
2 setlinecap
1 LJ
0.667 LW
N
507 409 M
507 34 L
S
GR
GS
[0.75 0 0 0.75 0 0] CT
0.149 GC
2 setlinecap
1 LJ
0.667 LW
N
73 409 M
77.34 409 L
S
GR
GS
[0.75 0 0 0.75 0 0] CT
0.149 GC
2 setlinecap
1 LJ
0.667 LW
N
73 367.333 M
77.34 367.333 L
S
GR
GS
[0.75 0 0 0.75 0 0] CT
0.149 GC
2 setlinecap
1 LJ
0.667 LW
N
73 325.667 M
77.34 325.667 L
S
GR
GS
[0.75 0 0 0.75 0 0] CT
0.149 GC
2 setlinecap
1 LJ
0.667 LW
N
73 284 M
77.34 284 L
S
GR
GS
[0.75 0 0 0.75 0 0] CT
0.149 GC
2 setlinecap
1 LJ
0.667 LW
N
73 242.333 M
77.34 242.333 L
S
GR
GS
[0.75 0 0 0.75 0 0] CT
0.149 GC
2 setlinecap
1 LJ
0.667 LW
N
73 200.667 M
77.34 200.667 L
S
GR
GS
[0.75 0 0 0.75 0 0] CT
0.149 GC
2 setlinecap
1 LJ
0.667 LW
N
73 159 M
77.34 159 L
S
GR
GS
[0.75 0 0 0.75 0 0] CT
0.149 GC
2 setlinecap
1 LJ
0.667 LW
N
73 117.333 M
77.34 117.333 L
S
GR
GS
[0.75 0 0 0.75 0 0] CT
0.149 GC
2 setlinecap
1 LJ
0.667 LW
N
73 75.667 M
77.34 75.667 L
S
GR
GS
[0.75 0 0 0.75 0 0] CT
0.149 GC
2 setlinecap
1 LJ
0.667 LW
N
73 34 M
77.34 34 L
S
GR
GS
[0.75 0 0 0.75 0 0] CT
0.149 GC
2 setlinecap
1 LJ
0.667 LW
N
507 409 M
502.66 409 L
S
GR
GS
[0.75 0 0 0.75 0 0] CT
0.149 GC
2 setlinecap
1 LJ
0.667 LW
N
507 367.333 M
502.66 367.333 L
S
GR
GS
[0.75 0 0 0.75 0 0] CT
0.149 GC
2 setlinecap
1 LJ
0.667 LW
N
507 325.667 M
502.66 325.667 L
S
GR
GS
[0.75 0 0 0.75 0 0] CT
0.149 GC
2 setlinecap
1 LJ
0.667 LW
N
507 284 M
502.66 284 L
S
GR
GS
[0.75 0 0 0.75 0 0] CT
0.149 GC
2 setlinecap
1 LJ
0.667 LW
N
507 242.333 M
502.66 242.333 L
S
GR
GS
[0.75 0 0 0.75 0 0] CT
0.149 GC
2 setlinecap
1 LJ
0.667 LW
N
507 200.667 M
502.66 200.667 L
S
GR
GS
[0.75 0 0 0.75 0 0] CT
0.149 GC
2 setlinecap
1 LJ
0.667 LW
N
507 159 M
502.66 159 L
S
GR
GS
[0.75 0 0 0.75 0 0] CT
0.149 GC
2 setlinecap
1 LJ
0.667 LW
N
507 117.333 M
502.66 117.333 L
S
GR
GS
[0.75 0 0 0.75 0 0] CT
0.149 GC
2 setlinecap
1 LJ
0.667 LW
N
507 75.667 M
502.66 75.667 L
S
GR
GS
[0.75 0 0 0.75 0 0] CT
0.149 GC
2 setlinecap
1 LJ
0.667 LW
N
507 34 M
502.66 34 L
S
GR
GS
[0.75 0 0 0.75 50.75001 306.75] CT
0.149 GC
/Helvetica 13.333 F
GS
[1 0 0 1 0 0] CT
-14 4.5 moveto 
1 -1 scale
(-4) t 
GR
GR
GS
[0.75 0 0 0.75 50.75001 275.50001] CT
0.149 GC
/Helvetica 13.333 F
GS
[1 0 0 1 0 0] CT
-26 4.5 moveto 
1 -1 scale
(-3.5) t 
GR
GR
GS
[0.75 0 0 0.75 50.75001 244.24999] CT
0.149 GC
/Helvetica 13.333 F
GS
[1 0 0 1 0 0] CT
-14 4.5 moveto 
1 -1 scale
(-3) t 
GR
GR
GS
[0.75 0 0 0.75 50.75001 213] CT
0.149 GC
/Helvetica 13.333 F
GS
[1 0 0 1 0 0] CT
-26 4.5 moveto 
1 -1 scale
(-2.5) t 
GR
GR
GS
[0.75 0 0 0.75 50.75001 181.75] CT
0.149 GC
/Helvetica 13.333 F
GS
[1 0 0 1 0 0] CT
-14 4.5 moveto 
1 -1 scale
(-2) t 
GR
GR
GS
[0.75 0 0 0.75 50.75001 150.5] CT
0.149 GC
/Helvetica 13.333 F
GS
[1 0 0 1 0 0] CT
-26 4.5 moveto 
1 -1 scale
(-1.5) t 
GR
GR
GS
[0.75 0 0 0.75 50.75001 119.25] CT
0.149 GC
/Helvetica 13.333 F
GS
[1 0 0 1 0 0] CT
-14 4.5 moveto 
1 -1 scale
(-1) t 
GR
GR
GS
[0.75 0 0 0.75 50.75001 88] CT
0.149 GC
/Helvetica 13.333 F
GS
[1 0 0 1 0 0] CT
-26 4.5 moveto 
1 -1 scale
(-0.5) t 
GR
GR
GS
[0.75 0 0 0.75 50.75001 56.75] CT
0.149 GC
/Helvetica 13.333 F
GS
[1 0 0 1 0 0] CT
-9 4.5 moveto 
1 -1 scale
(0) t 
GR
GR
GS
[0.75 0 0 0.75 50.75001 25.5] CT
0.149 GC
/Helvetica 13.333 F
GS
[1 0 0 1 0 0] CT
-22 4.5 moveto 
1 -1 scale
(0.5) t 
GR
GR
GS
[0 -0.75 0.75 0 28.25001 166.12486] CT
0.149 GC
/Helvetica 14.667 F
GS
[1 0 0 1 0 0] CT
-53.5 -4 moveto 
1 -1 scale
(Orientation [\260]) t 
GR
GR
GS
[0.75 0 0 0.75 217.50018 23.4375] CT
/Helvetica-Bold 14.667 F
GS
[1 0 0 1 0 0] CT
-107 -4 moveto 
1 -1 scale
(Roll disturbance rejection) t 
GR
GR
GS
[0.75 0 0 0.75 0 0] CT
0 0 1 RC
[10 6] 0 setdash
2 LJ
0.667 LW
N
73 116.627 M
73.542 117.551 L
74.085 118.317 L
74.628 118.443 L
75.17 117.609 L
75.713 116.593 L
76.255 113.65 L
76.797 112.31 L
77.34 116.242 L
77.883 119.32 L
78.425 117.919 L
78.967 114.598 L
79.51 111.877 L
80.053 111.536 L
80.595 113.479 L
81.137 112.935 L
81.68 110.677 L
82.222 108.605 L
82.765 105.952 L
83.308 106.738 L
83.85 109.141 L
84.392 109.417 L
84.935 107.28 L
85.478 110.518 L
86.02 110.516 L
86.563 111.429 L
87.105 111.421 L
87.647 109.361 L
88.19 108.278 L
88.733 110.054 L
89.275 111.421 L
89.817 110.069 L
90.36 106.312 L
90.903 106.243 L
91.445 108.536 L
91.988 111.489 L
92.53 111.382 L
93.072 110.825 L
93.615 111.842 L
94.158 112.062 L
94.7 108.649 L
95.242 104.198 L
95.785 102.732 L
96.328 103.035 L
96.87 105.902 L
97.412 105.822 L
97.955 99.998 L
98.497 89.904 L
99.04 93.469 L
99.583 99.676 L
100.125 101.194 L
100.667 97.292 L
101.21 94.495 L
101.753 96.745 L
102.295 101.653 L
102.838 105.916 L
103.38 106.57 L
103.922 103.882 L
104.465 100.249 L
105.008 97.867 L
105.55 96.811 L
106.092 97.066 L
106.635 98.368 L
107.178 99.509 L
107.72 98.796 L
108.262 95.122 L
108.805 92.626 L
109.347 94.162 L
109.89 95.041 L
110.433 94.607 L
110.975 95.481 L
111.517 99.616 L
112.06 103.211 L
112.603 102.48 L
113.145 98.348 L
113.688 95.525 L
114.23 98.889 L
114.772 100.385 L
115.315 99.005 L
115.858 96.702 L
116.4 95.809 L
116.942 97.185 L
117.485 100.155 L
118.028 102.625 L
118.57 104.395 L
119.113 104.57 L
119.655 103.744 L
120.197 102.675 L
120.74 102.494 L
121.283 103.107 L
121.825 103.384 L
122.367 105.147 L
122.91 106.027 L
123.453 107.858 L
123.995 109.864 L
124.537 111.214 L
125.08 110.768 L
125.622 109.639 L
126.165 109.718 L
126.708 110.96 L
127.25 111.582 L
127.792 113 L
128.335 115.559 L
128.878 117.444 L
129.42 115.767 L
129.962 111.711 L
130.505 110.327 L
131.047 112.627 L
131.59 114.27 L
132.133 116.184 L
132.675 116.579 L
133.217 112.433 L
133.76 107.174 L
134.303 104.708 L
134.845 106.094 L
135.387 108.206 L
135.93 108.822 L
136.472 108.178 L
137.015 107.084 L
137.558 106.693 L
138.1 105.206 L
138.642 105.119 L
139.185 107.516 L
139.728 108.564 L
140.27 108.858 L
140.813 109.734 L
141.355 114.003 L
141.897 117.801 L
142.44 118.896 L
142.983 118.639 L
143.525 119.48 L
144.067 121.133 L
144.61 121.309 L
145.153 119.824 L
145.695 119.548 L
146.238 119.996 L
146.78 118.67 L
147.322 118.844 L
147.865 121.954 L
148.408 125.649 L
148.95 126.642 L
149.492 122.596 L
150.035 117.389 L
150.578 115.035 L
151.12 117.372 L
151.663 118.845 L
152.205 115.615 L
152.747 108.374 L
153.29 101.467 L
153.833 99.49 L
154.375 103.372 L
154.917 110.078 L
155.46 91.49 L
156.003 90.244 L
156.545 96.585 L
157.087 102.286 L
157.63 104.016 L
158.172 103.705 L
158.715 104.883 L
159.258 109.095 L
159.8 110.995 L
160.342 110.813 L
160.885 111.028 L
161.428 111.294 L
161.97 111.608 L
162.512 111.438 L
163.055 110.529 L
163.597 109.677 L
164.14 110.856 L
164.683 113.377 L
165.225 114.156 L
165.767 110.945 L
166.31 110.183 L
166.853 114.755 L
167.395 119.337 L
167.938 114.976 L
168.48 116.895 L
169.022 117.754 L
169.565 118.977 L
170.108 119.187 L
170.65 116.727 L
171.192 114.911 L
171.735 113.815 L
172.278 114.038 L
172.82 116.054 L
173.363 114.577 L
173.905 109.997 L
174.447 106.034 L
174.99 105.625 L
175.533 107.286 L
176.075 108.319 L
176.617 110.911 L
177.16 112.47 L
177.703 109.506 L
178.245 108.252 L
178.788 108.78 L
179.33 108.384 L
179.872 106.264 L
180.415 101.895 L
180.958 98.978 L
181.5 96.969 L
182.042 100.64 L
182.585 105.257 L
183.128 105.038 L
183.67 101.849 L
184.212 98.562 L
184.755 98.813 L
185.297 103.69 L
185.84 108.045 L
186.383 107.216 L
186.925 104.71 L
187.467 102.915 L
188.01 101.691 L
188.553 101.437 L
189.095 102.847 L
189.637 102.036 L
190.18 101.459 L
190.722 101.065 L
191.265 101.702 L
191.808 103.112 L
192.35 106.778 L
192.892 109.546 L
193.435 106.664 L
193.978 105.325 L
194.52 108.359 L
195.063 114.934 L
195.605 117.712 L
196.147 115.035 L
196.69 117.365 L
197.233 117.748 L
197.775 117.553 L
198.317 119.639 L
198.86 114.664 L
199.403 116.069 L
199.945 117.643 L
200.488 119.88 L
201.03 124.848 L
201.572 124.473 L
202.115 124.404 L
202.658 126.379 L
203.2 123.055 L
203.742 120.9 L
204.285 123.393 L
204.828 120.957 L
205.37 121.025 L
205.913 117.013 L
206.455 111.376 L
206.997 114.376 L
207.54 119.018 L
208.083 117.154 L
208.625 114.591 L
209.167 111.098 L
209.71 107.093 L
210.253 111.741 L
210.795 109.639 L
211.337 108.386 L
211.88 108.71 L
212.422 104.196 L
212.965 103.816 L
213.508 104.151 L
214.05 102.907 L
214.592 101.935 L
215.135 106.229 L
215.678 101.389 L
216.22 99.763 L
216.762 100.722 L
217.305 100.648 L
217.847 98.72 L
218.39 97.368 L
218.933 93.56 L
219.475 89.928 L
220.017 92.754 L
220.56 93.464 L
221.103 91.234 L
221.645 90.269 L
222.188 88.397 L
222.73 85.316 L
223.272 83.575 L
223.815 90.027 L
224.358 90.846 L
224.9 85.068 L
225.443 69.001 L
225.985 55.409 L
226.528 59.65 L
227.07 69.02 L
227.613 67.384 L
228.155 62.3 L
228.697 62.248 L
229.24 64.886 L
229.782 70.577 L
230.325 72.154 L
230.868 69.048 L
231.41 60.577 L
231.953 67.943 L
232.495 76.772 L
233.038 79.329 L
233.58 72.7 L
234.122 62.3 L
234.665 59.835 L
235.207 60.849 L
235.75 62.713 L
236.293 61.709 L
236.835 60.114 L
237.378 65.835 L
237.92 70.252 L
238.462 76.674 L
239.005 80.965 L
239.547 85.489 L
240.09 87.09 L
240.632 87.113 L
241.175 88.358 L
241.718 88.34 L
242.26 87.383 L
242.803 86.225 L
243.345 88.11 L
243.887 88.702 L
244.43 89.895 L
244.972 88.021 L
245.515 86.899 L
246.057 87.825 L
246.6 89.965 L
247.143 94.379 L
247.685 95.039 L
248.228 93.879 L
248.77 91.929 L
249.313 90.786 L
249.855 93.228 L
250.397 91.031 L
250.94 90.129 L
251.482 89.185 L
252.025 85.944 L
252.568 87.337 L
253.11 88.102 L
253.653 88.684 L
254.195 86.959 L
254.738 85.896 L
255.28 91.848 L
255.822 94.807 L
256.365 92.946 L
256.907 88.744 L
257.45 85.142 L
257.993 86.735 L
258.535 85.523 L
259.078 86.341 L
259.62 84.793 L
260.163 87.2 L
260.705 91.152 L
261.247 90.371 L
261.79 89.858 L
262.332 86.885 L
262.875 88.426 L
263.418 86.967 L
263.96 88.439 L
264.503 93.977 L
265.045 103.507 L
265.587 109.693 L
266.13 107.391 L
266.672 103.122 L
267.215 100.166 L
267.757 103.207 L
268.3 109.115 L
268.843 112.604 L
269.385 115.149 L
269.928 115.118 L
270.47 114.814 L
271.013 112.621 L
271.555 114.893 L
272.097 119.496 L
272.64 120.833 L
273.182 120.088 L
273.725 116.645 L
274.268 115.41 L
274.81 118.946 L
275.353 120.428 L
275.895 120.608 L
276.438 118.086 L
276.98 115.159 L
277.522 117.322 L
278.065 118.196 L
278.607 118.984 L
279.15 117.439 L
279.693 112.565 L
280.235 108.985 L
280.778 105.894 L
281.32 106.544 L
281.862 109.024 L
282.405 110.005 L
282.947 112.634 L
283.49 113.502 L
284.032 110.973 L
284.575 107.448 L
285.118 102.602 L
285.66 102.643 L
286.203 105.81 L
286.745 112.441 L
287.288 119.822 L
287.83 122.23 L
288.372 120.091 L
288.915 116.487 L
289.457 118.718 L
290 119.259 L
290.543 119.901 L
291.085 120.471 L
291.628 121.931 L
292.17 121.593 L
292.712 118.13 L
293.255 118.916 L
293.797 120.657 L
294.34 121.75 L
294.882 119.853 L
295.425 115.614 L
295.968 116.387 L
296.51 118.058 L
297.053 119.677 L
297.595 119.072 L
298.138 120.615 L
298.68 124.907 L
299.222 128.102 L
299.765 129.902 L
300.307 130.19 L
300.85 129.731 L
301.393 127.934 L
301.935 126.584 L
302.478 129.53 L
303.02 135.889 L
303.563 139.998 L
304.105 137.454 L
304.647 130.33 L
305.19 128.366 L
305.732 133.224 L
306.275 141.619 L
306.818 146.361 L
307.36 140.486 L
307.903 130.896 L
308.445 124.952 L
308.987 125.989 L
309.53 131.515 L
310.072 131.578 L
310.615 125.248 L
311.157 117.818 L
311.7 115.004 L
312.243 118.788 L
312.785 121.863 L
313.328 122.089 L
313.87 120.916 L
314.413 124.244 L
314.955 127.456 L
315.497 129.302 L
316.04 127.622 L
316.582 127.384 L
317.125 129.385 L
317.668 132.128 L
318.21 136.011 L
318.753 134.621 L
319.295 130.974 L
319.837 129.814 L
320.38 130.234 L
320.922 132.45 L
321.465 131.709 L
322.007 131.213 L
322.55 132.397 L
323.093 132.714 L
323.635 131.82 L
324.178 130.297 L
324.72 133.564 L
325.263 139.533 L
325.805 142.53 L
326.347 138.123 L
326.89 129.636 L
327.432 130.072 L
327.975 137.15 L
328.518 143.349 L
329.06 147.213 L
329.603 144.873 L
330.145 140.732 L
330.688 140.11 L
331.23 141.347 L
331.772 143.58 L
332.315 143.565 L
332.857 141.038 L
333.4 138.813 L
333.943 138.9 L
334.485 141.641 L
335.028 145.226 L
335.57 143.19 L
336.112 140.936 L
336.655 143.169 L
337.197 146.301 L
337.74 142.757 L
338.282 142.435 L
338.825 141.209 L
339.368 141.086 L
339.91 142.306 L
340.453 142.152 L
340.995 141.728 L
341.538 139.894 L
342.08 138.384 L
342.622 139.31 L
343.165 138.814 L
343.707 135.785 L
344.25 136.405 L
344.793 137.653 L
345.335 133.605 L
345.878 132.151 L
346.42 137.319 L
346.962 139.909 L
347.505 131.049 L
348.047 128.875 L
348.59 129.303 L
349.132 128.53 L
349.675 126.825 L
350.218 124.625 L
350.76 123.026 L
351.303 119.476 L
351.845 120.487 L
352.388 118.967 L
352.93 118.454 L
353.472 117.243 L
354.015 117.355 L
354.557 119.713 L
355.1 122.675 L
355.643 124.666 L
356.185 122.975 L
356.728 121.291 L
357.27 129.628 L
357.813 128.951 L
358.355 126.887 L
358.897 127.916 L
359.44 132.477 L
359.982 135.783 L
360.525 133.718 L
361.068 129.49 L
361.61 125.636 L
362.153 125.665 L
362.695 131.113 L
363.237 135.357 L
363.78 139.899 L
364.322 143.573 L
364.865 144.517 L
365.407 146.274 L
365.95 146.649 L
366.493 147.462 L
367.035 150.598 L
367.578 154.736 L
368.12 158.173 L
368.663 162.799 L
369.205 168.529 L
369.747 189.238 L
370.29 214.368 L
370.832 227.298 L
371.375 224.783 L
371.918 224.502 L
372.46 244.523 L
373.003 287.661 L
373.545 341.374 L
374.087 382.858 L
374.63 403.961 L
375.172 400.343 L
375.715 387.671 L
376.257 379.067 L
376.8 370.785 L
377.343 359.82 L
377.885 345.008 L
378.428 322.753 L
378.97 306.918 L
379.513 281.445 L
380.055 223.298 L
380.597 199.348 L
381.14 176.448 L
381.682 162.382 L
382.225 154.099 L
382.768 141.834 L
383.31 131.689 L
383.853 119.613 L
384.395 109.997 L
384.938 104.801 L
385.48 94.333 L
386.022 97.643 L
386.565 95.901 L
387.107 99.251 L
387.65 98.931 L
388.193 98.276 L
388.735 99.759 L
389.278 105.702 L
389.82 113.44 L
390.362 120.765 L
390.905 121.989 L
391.447 127.87 L
391.99 129.646 L
392.532 130.468 L
393.075 136.746 L
393.618 139.882 L
394.16 143.969 L
394.703 149.057 L
395.245 143.78 L
395.788 142.767 L
396.33 143.071 L
396.872 141.957 L
397.415 143.662 L
397.957 141.412 L
398.5 137.443 L
399.043 127.28 L
399.585 118.698 L
400.128 113.943 L
400.67 107.792 L
401.212 108.428 L
401.755 103.381 L
402.297 102.151 L
402.84 93.303 L
403.382 90.324 L
403.925 87.301 L
404.468 84.202 L
405.01 84.618 L
405.553 83.274 L
406.095 86.37 L
406.638 87.124 L
407.18 81.421 L
407.722 82.092 L
408.265 81.388 L
408.807 91.753 L
409.35 93.354 L
409.893 96.363 L
410.435 89.51 L
410.978 88.646 L
411.52 85.47 L
412.063 86.422 L
412.605 90.723 L
413.147 90.859 L
413.69 92.945 L
414.232 88.855 L
414.775 90.976 L
415.318 91.658 L
415.86 100.226 L
416.403 99.843 L
416.945 104.248 L
417.487 99.279 L
418.03 101.694 L
418.572 98.095 L
419.115 101.166 L
419.657 97.563 L
420.2 98.07 L
420.743 97.253 L
421.285 99.055 L
421.828 97.157 L
422.37 95.644 L
422.913 92.626 L
423.455 91.694 L
423.997 92.375 L
424.54 90.75 L
425.082 88.502 L
425.625 81.591 L
426.168 80.253 L
426.71 77.573 L
427.253 78.187 L
427.795 75.745 L
428.337 74.359 L
428.88 77.504 L
429.422 79.19 L
429.965 81.925 L
430.507 77.498 L
431.05 75.698 L
431.593 76.531 L
432.135 74.929 L
432.678 79.131 L
433.22 77.814 L
433.763 81.966 L
434.305 80.82 L
434.847 83.159 L
435.39 89.206 L
435.932 89.46 L
436.475 93.389 L
437.018 90.044 L
437.56 95.238 L
438.103 96.288 L
438.645 102.073 L
439.188 99.3 L
439.73 101.133 L
440.272 101.325 L
440.815 101.305 L
441.357 104.287 L
441.9 102.954 L
442.443 106.567 L
442.985 104.663 L
443.528 109.408 L
444.07 105.152 L
444.612 109.353 L
445.155 115.984 L
445.697 115.199 L
446.24 114.682 L
446.782 112.067 L
447.325 111.911 L
447.868 113 L
448.41 109.166 L
448.953 108.87 L
449.495 104.582 L
450.038 104.321 L
450.58 101.634 L
451.122 96.156 L
451.665 96.137 L
452.207 93.654 L
452.75 96.06 L
453.293 94.334 L
453.835 96.144 L
454.378 95.672 L
454.92 99.076 L
455.462 98.381 L
456.005 98.158 L
456.547 99.982 L
457.09 101.188 L
457.632 102.134 L
458.175 99.523 L
458.718 101.083 L
459.26 98.981 L
459.803 100.907 L
460.345 98.318 L
460.888 98.551 L
461.43 95.367 L
461.972 95.188 L
462.515 97.476 L
463.057 94.207 L
463.6 90.328 L
464.143 84.626 L
464.685 84.457 L
465.228 85.109 L
465.77 86.984 L
466.313 89.281 L
466.855 87.015 L
467.397 85.939 L
467.94 83.452 L
468.482 81.597 L
469.025 84.891 L
469.568 85.266 L
470.11 88.286 L
470.653 84.273 L
471.195 81.735 L
471.737 83.799 L
472.28 86.621 L
472.822 93.567 L
473.365 93.449 L
473.907 95.953 L
474.45 95.53 L
474.993 98.722 L
475.535 99.168 L
476.078 104.703 L
476.62 109.865 L
477.163 113.024 L
477.705 111.212 L
478.247 109.851 L
478.79 110.554 L
479.332 107.27 L
479.875 106.136 L
480.418 106.135 L
480.96 107.99 L
481.503 106.065 L
482.045 107.081 L
482.587 105.165 L
483.13 106.911 L
483.672 105.246 L
484.215 103.715 L
484.757 106.287 L
485.3 106.746 L
485.843 109.37 L
486.385 105.824 L
486.928 103.529 L
487.47 99.555 L
488.013 102.545 L
488.555 101.828 L
489.097 105.555 L
489.64 104.359 L
490.182 106.992 L
490.725 104.542 L
491.268 105.506 L
491.81 105.042 L
492.353 104.35 L
492.895 102.738 L
493.438 101.39 L
493.98 103.421 L
494.522 103.224 L
495.065 104.892 L
495.607 101.185 L
496.15 95.158 L
496.693 90.214 L
497.235 85.356 L
497.778 92.368 L
498.32 97.48 L
498.862 99.596 L
499.405 95.849 L
499.947 95.263 L
500.49 96.47 L
501.032 96.112 L
501.575 99.255 L
502.118 99.273 L
502.66 100.027 L
503.203 95.052 L
503.745 90.02 L
504.288 91.973 L
504.83 91.544 L
505.372 94.224 L
505.915 91.037 L
506.457 83.789 L
507 79.097 L
S
GR
GS
[0.75 0 0 0.75 0 0] CT
0 0 1 RC
1 LJ
0.667 LW
N
73 96.501 M
73.542 96.501 L
74.085 96.501 L
74.628 96.501 L
75.17 96.501 L
75.713 96.501 L
76.255 92.334 L
76.797 96.501 L
77.34 96.501 L
77.883 96.501 L
78.425 96.501 L
78.967 96.501 L
79.51 96.501 L
80.053 100.668 L
80.595 96.501 L
81.137 96.501 L
81.68 96.501 L
82.222 96.501 L
82.765 104.835 L
83.308 104.835 L
83.85 104.835 L
84.392 100.668 L
84.935 100.668 L
85.478 100.668 L
86.02 104.835 L
86.563 100.668 L
87.105 100.668 L
87.647 100.668 L
88.19 100.668 L
88.733 100.668 L
89.275 100.668 L
89.817 100.668 L
90.36 100.668 L
90.903 100.668 L
91.445 100.668 L
91.988 100.668 L
92.53 100.668 L
93.072 100.668 L
93.615 100.668 L
94.158 104.835 L
94.7 104.835 L
95.242 104.835 L
95.785 104.835 L
96.328 96.501 L
96.87 96.501 L
97.412 96.501 L
97.955 96.501 L
98.497 96.501 L
99.04 96.501 L
99.583 100.668 L
100.125 96.501 L
100.667 96.501 L
101.21 96.501 L
101.753 96.501 L
102.295 96.501 L
102.838 96.501 L
103.38 96.501 L
103.922 96.501 L
104.465 96.501 L
105.008 96.501 L
105.55 96.501 L
106.092 96.501 L
106.635 96.501 L
107.178 96.501 L
107.72 96.501 L
108.262 96.501 L
108.805 96.501 L
109.347 96.501 L
109.89 96.501 L
110.433 92.334 L
110.975 96.501 L
111.517 96.501 L
112.06 96.501 L
112.603 96.501 L
113.145 96.501 L
113.688 96.501 L
114.23 96.501 L
114.772 96.501 L
115.315 96.501 L
115.858 96.501 L
116.4 92.334 L
116.942 96.501 L
117.485 96.501 L
118.028 96.501 L
118.57 96.501 L
119.113 96.501 L
119.655 96.501 L
120.197 96.501 L
120.74 96.501 L
121.283 96.501 L
121.825 96.501 L
122.367 96.501 L
122.91 96.501 L
123.453 96.501 L
123.995 96.501 L
124.537 96.501 L
125.08 96.501 L
125.622 92.334 L
126.165 96.501 L
126.708 96.501 L
127.25 96.501 L
127.792 96.501 L
128.335 96.501 L
128.878 92.334 L
129.42 96.501 L
129.962 96.501 L
130.505 96.501 L
131.047 96.501 L
131.59 100.668 L
132.133 96.501 L
132.675 96.501 L
133.217 96.501 L
133.76 96.501 L
134.303 96.501 L
134.845 96.501 L
135.387 96.501 L
135.93 96.501 L
136.472 96.501 L
137.015 96.501 L
137.558 96.501 L
138.1 96.501 L
138.642 96.501 L
139.185 96.501 L
139.728 96.501 L
140.27 96.501 L
140.813 96.501 L
141.355 96.501 L
141.897 96.501 L
142.44 100.668 L
142.983 96.501 L
143.525 96.501 L
144.067 96.501 L
144.61 96.501 L
145.153 96.501 L
145.695 96.501 L
146.238 96.501 L
146.78 96.501 L
147.322 96.501 L
147.865 96.501 L
148.408 96.501 L
148.95 96.501 L
149.492 96.501 L
150.035 96.501 L
150.578 96.501 L
151.12 96.501 L
151.663 96.501 L
152.205 96.501 L
152.747 96.501 L
153.29 92.334 L
153.833 96.501 L
154.375 96.501 L
154.917 96.501 L
155.46 96.501 L
156.003 96.501 L
156.545 96.501 L
157.087 96.501 L
157.63 96.501 L
158.172 96.501 L
158.715 96.501 L
159.258 96.501 L
159.8 100.668 L
160.342 100.668 L
160.885 96.501 L
161.428 96.501 L
161.97 96.501 L
162.512 96.501 L
163.055 96.501 L
163.597 96.501 L
164.14 96.501 L
164.683 96.501 L
165.225 96.501 L
165.767 96.501 L
166.31 96.501 L
166.853 96.501 L
167.395 96.501 L
167.938 96.501 L
168.48 96.501 L
169.022 92.334 L
169.565 96.501 L
170.108 96.501 L
170.65 96.501 L
171.192 100.668 L
171.735 96.501 L
172.278 96.501 L
172.82 96.501 L
173.363 96.501 L
173.905 96.501 L
174.447 96.501 L
174.99 96.501 L
175.533 96.501 L
176.075 96.501 L
176.617 100.668 L
177.16 96.501 L
177.703 96.501 L
178.245 92.334 L
178.788 96.501 L
179.33 96.501 L
179.872 96.501 L
180.415 96.501 L
180.958 104.835 L
181.5 100.668 L
182.042 100.668 L
182.585 100.668 L
183.128 104.835 L
183.67 104.835 L
184.212 100.668 L
184.755 100.668 L
185.297 100.668 L
185.84 104.835 L
186.383 104.835 L
186.925 104.835 L
187.467 100.668 L
188.01 100.668 L
188.553 104.835 L
189.095 104.835 L
189.637 100.668 L
190.18 100.668 L
190.722 100.668 L
191.265 104.835 L
191.808 104.835 L
192.35 100.668 L
192.892 100.668 L
193.435 100.668 L
193.978 104.835 L
194.52 100.668 L
195.063 100.668 L
195.605 104.835 L
196.147 104.835 L
196.69 100.668 L
197.233 100.668 L
197.775 100.668 L
198.317 100.668 L
198.86 104.835 L
199.403 104.835 L
199.945 100.668 L
200.488 100.668 L
201.03 100.668 L
201.572 104.835 L
202.115 104.835 L
202.658 104.835 L
203.2 100.668 L
203.742 100.668 L
204.285 100.668 L
204.828 100.668 L
205.37 100.668 L
205.913 104.835 L
206.455 104.835 L
206.997 100.668 L
207.54 100.668 L
208.083 100.668 L
208.625 100.668 L
209.167 104.835 L
209.71 104.835 L
210.253 104.835 L
210.795 100.668 L
211.337 100.668 L
211.88 100.668 L
212.422 104.835 L
212.965 104.835 L
213.508 104.835 L
214.05 104.835 L
214.592 100.668 L
215.135 100.668 L
215.678 100.668 L
216.22 100.668 L
216.762 100.668 L
217.305 104.835 L
217.847 100.668 L
218.39 100.668 L
218.933 100.668 L
219.475 104.835 L
220.017 104.835 L
220.56 104.835 L
221.103 104.835 L
221.645 104.835 L
222.188 100.668 L
222.73 104.835 L
223.272 104.835 L
223.815 100.668 L
224.358 100.668 L
224.9 100.668 L
225.443 100.668 L
225.985 100.668 L
226.528 104.835 L
227.07 104.835 L
227.613 100.668 L
228.155 100.668 L
228.697 100.668 L
229.24 100.668 L
229.782 100.668 L
230.325 104.835 L
230.868 104.835 L
231.41 104.835 L
231.953 100.668 L
232.495 100.668 L
233.038 104.835 L
233.58 104.835 L
234.122 104.835 L
234.665 100.668 L
235.207 100.668 L
235.75 104.835 L
236.293 104.835 L
236.835 104.835 L
237.378 100.668 L
237.92 100.668 L
238.462 100.668 L
239.005 104.835 L
239.547 104.835 L
240.09 100.668 L
240.632 100.668 L
241.175 104.835 L
241.718 104.835 L
242.26 104.835 L
242.803 104.835 L
243.345 100.668 L
243.887 100.668 L
244.43 104.835 L
244.972 104.835 L
245.515 104.835 L
246.057 104.835 L
246.6 100.668 L
247.143 100.668 L
247.685 100.668 L
248.228 104.835 L
248.77 100.668 L
249.313 100.668 L
249.855 104.835 L
250.397 104.835 L
250.94 104.835 L
251.482 104.835 L
252.025 100.668 L
252.568 100.668 L
253.11 104.835 L
253.653 100.668 L
254.195 104.835 L
254.738 104.835 L
255.28 104.835 L
255.822 100.668 L
256.365 100.668 L
256.907 100.668 L
257.45 104.835 L
257.993 100.668 L
258.535 100.668 L
259.078 100.668 L
259.62 104.835 L
260.163 104.835 L
260.705 104.835 L
261.247 100.668 L
261.79 100.668 L
262.332 100.668 L
262.875 104.835 L
263.418 104.835 L
263.96 100.668 L
264.503 100.668 L
265.045 104.835 L
265.587 104.835 L
266.13 104.835 L
266.672 100.668 L
267.215 100.668 L
267.757 104.835 L
268.3 104.835 L
268.843 100.668 L
269.385 100.668 L
269.928 104.835 L
270.47 104.835 L
271.013 100.668 L
271.555 100.668 L
272.097 100.668 L
272.64 104.835 L
273.182 104.835 L
273.725 100.668 L
274.268 100.668 L
274.81 100.668 L
275.353 104.835 L
275.895 104.835 L
276.438 100.668 L
276.98 100.668 L
277.522 104.835 L
278.065 104.835 L
278.607 104.835 L
279.15 100.668 L
279.693 100.668 L
280.235 104.835 L
280.778 104.835 L
281.32 104.835 L
281.862 100.668 L
282.405 100.668 L
282.947 104.835 L
283.49 104.835 L
284.032 100.668 L
284.575 100.668 L
285.118 104.835 L
285.66 104.835 L
286.203 100.668 L
286.745 100.668 L
287.288 104.835 L
287.83 104.835 L
288.372 100.668 L
288.915 100.668 L
289.457 104.835 L
290 100.668 L
290.543 100.668 L
291.085 100.668 L
291.628 104.835 L
292.17 104.835 L
292.712 100.668 L
293.255 100.668 L
293.797 100.668 L
294.34 104.835 L
294.882 100.668 L
295.425 100.668 L
295.968 100.668 L
296.51 104.835 L
297.053 104.835 L
297.595 100.668 L
298.138 100.668 L
298.68 104.835 L
299.222 104.835 L
299.765 100.668 L
300.307 100.668 L
300.85 104.835 L
301.393 104.835 L
301.935 100.668 L
302.478 100.668 L
303.02 104.835 L
303.563 104.835 L
304.105 100.668 L
304.647 100.668 L
305.19 104.835 L
305.732 104.835 L
306.275 100.668 L
306.818 100.668 L
307.36 104.835 L
307.903 109.001 L
308.445 100.668 L
308.987 100.668 L
309.53 104.835 L
310.072 104.835 L
310.615 100.668 L
311.157 104.835 L
311.7 100.668 L
312.243 104.835 L
312.785 100.668 L
313.328 100.668 L
313.87 104.835 L
314.413 100.668 L
314.955 100.668 L
315.497 104.835 L
316.04 104.835 L
316.582 100.668 L
317.125 100.668 L
317.668 104.835 L
318.21 104.835 L
318.753 100.668 L
319.295 100.668 L
319.837 104.835 L
320.38 100.668 L
320.922 100.668 L
321.465 104.835 L
322.007 104.835 L
322.55 100.668 L
323.093 100.668 L
323.635 104.835 L
324.178 104.835 L
324.72 100.668 L
325.263 100.668 L
325.805 104.835 L
326.347 104.835 L
326.89 100.668 L
327.432 100.668 L
327.975 104.835 L
328.518 100.668 L
329.06 100.668 L
329.603 100.668 L
330.145 104.835 L
330.688 104.835 L
331.23 100.668 L
331.772 100.668 L
332.315 104.835 L
332.857 100.668 L
333.4 100.668 L
333.943 100.668 L
334.485 104.835 L
335.028 100.668 L
335.57 104.835 L
336.112 104.835 L
336.655 100.668 L
337.197 100.668 L
337.74 100.668 L
338.282 100.668 L
338.825 104.835 L
339.368 104.835 L
339.91 100.668 L
340.453 100.668 L
340.995 104.835 L
341.538 104.835 L
342.08 100.668 L
342.622 104.835 L
343.165 104.835 L
343.707 100.668 L
344.25 100.668 L
344.793 104.835 L
345.335 104.835 L
345.878 100.668 L
346.42 104.835 L
346.962 100.668 L
347.505 104.835 L
348.047 104.835 L
348.59 100.668 L
349.132 104.835 L
349.675 104.835 L
350.218 100.668 L
350.76 100.668 L
351.303 100.668 L
351.845 104.835 L
352.388 104.835 L
352.93 100.668 L
353.472 100.668 L
354.015 104.835 L
354.557 100.668 L
355.1 100.668 L
355.643 104.835 L
356.185 104.835 L
356.728 100.668 L
357.27 100.668 L
357.813 100.668 L
358.355 104.835 L
358.897 100.668 L
359.44 100.668 L
359.982 104.835 L
360.525 104.835 L
361.068 100.668 L
361.61 100.668 L
362.153 104.835 L
362.695 100.668 L
363.237 100.668 L
363.78 104.835 L
364.322 100.668 L
364.865 100.668 L
365.407 104.835 L
365.95 100.668 L
366.493 104.835 L
367.035 104.835 L
367.578 104.835 L
368.12 100.668 L
368.663 104.835 L
369.205 104.835 L
369.747 100.668 L
370.29 100.668 L
370.832 104.835 L
371.375 100.668 L
371.918 100.668 L
372.46 104.835 L
373.003 100.668 L
373.545 100.668 L
374.087 104.835 L
374.63 104.835 L
375.172 100.668 L
375.715 104.835 L
376.257 104.835 L
376.8 100.668 L
377.343 104.835 L
377.885 104.835 L
378.428 100.668 L
378.97 100.668 L
379.513 104.835 L
380.055 104.835 L
380.597 100.668 L
381.14 100.668 L
381.682 104.835 L
382.225 100.668 L
382.768 100.668 L
383.31 104.835 L
383.853 100.668 L
384.395 104.835 L
384.938 104.835 L
385.48 104.835 L
386.022 100.668 L
386.565 104.835 L
387.107 100.668 L
387.65 100.668 L
388.193 100.668 L
388.735 104.835 L
389.278 100.668 L
389.82 104.835 L
390.362 104.835 L
390.905 104.835 L
391.447 100.668 L
391.99 104.835 L
392.532 100.668 L
393.075 100.668 L
393.618 104.835 L
394.16 100.668 L
394.703 104.835 L
395.245 104.835 L
395.788 100.668 L
396.33 100.668 L
396.872 104.835 L
397.415 100.668 L
397.957 100.668 L
398.5 104.835 L
399.043 100.668 L
399.585 104.835 L
400.128 104.835 L
400.67 100.668 L
401.212 104.835 L
401.755 104.835 L
402.297 100.668 L
402.84 100.668 L
403.382 104.835 L
403.925 100.668 L
404.468 104.835 L
405.01 104.835 L
405.553 100.668 L
406.095 104.835 L
406.638 104.835 L
407.18 100.668 L
407.722 100.668 L
408.265 104.835 L
408.807 100.668 L
409.35 104.835 L
409.893 104.835 L
410.435 100.668 L
410.978 104.835 L
411.52 104.835 L
412.063 100.668 L
412.605 104.835 L
413.147 104.835 L
413.69 100.668 L
414.232 104.835 L
414.775 104.835 L
415.318 100.668 L
415.86 104.835 L
416.403 100.668 L
416.945 100.668 L
417.487 104.835 L
418.03 100.668 L
418.572 104.835 L
419.115 104.835 L
419.657 100.668 L
420.2 104.835 L
420.743 104.835 L
421.285 100.668 L
421.828 100.668 L
422.37 104.835 L
422.913 100.668 L
423.455 104.835 L
423.997 104.835 L
424.54 100.668 L
425.082 104.835 L
425.625 100.668 L
426.168 100.668 L
426.71 104.835 L
427.253 104.835 L
427.795 100.668 L
428.337 104.835 L
428.88 104.835 L
429.422 104.835 L
429.965 104.835 L
430.507 100.668 L
431.05 100.668 L
431.593 104.835 L
432.135 100.668 L
432.678 104.835 L
433.22 100.668 L
433.763 104.835 L
434.305 104.835 L
434.847 100.668 L
435.39 104.835 L
435.932 104.835 L
436.475 100.668 L
437.018 104.835 L
437.56 100.668 L
438.103 100.668 L
438.645 104.835 L
439.188 100.668 L
439.73 100.668 L
440.272 104.835 L
440.815 100.668 L
441.357 100.668 L
441.9 104.835 L
442.443 100.668 L
442.985 104.835 L
443.528 100.668 L
444.07 104.835 L
444.612 104.835 L
445.155 104.835 L
445.697 104.835 L
446.24 100.668 L
446.782 104.835 L
447.325 100.668 L
447.868 104.835 L
448.41 104.835 L
448.953 100.668 L
449.495 104.835 L
450.038 100.668 L
450.58 100.668 L
451.122 104.835 L
451.665 100.668 L
452.207 104.835 L
452.75 100.668 L
453.293 100.668 L
453.835 104.835 L
454.378 100.668 L
454.92 100.668 L
455.462 104.835 L
456.005 100.668 L
456.547 100.668 L
457.09 100.668 L
457.632 104.835 L
458.175 104.835 L
458.718 100.668 L
459.26 104.835 L
459.803 100.668 L
460.345 100.668 L
460.888 104.835 L
461.43 100.668 L
461.972 104.835 L
462.515 104.835 L
463.057 100.668 L
463.6 104.835 L
464.143 100.668 L
464.685 104.835 L
465.228 104.835 L
465.77 100.668 L
466.313 104.835 L
466.855 100.668 L
467.397 104.835 L
467.94 104.835 L
468.482 100.668 L
469.025 104.835 L
469.568 100.668 L
470.11 100.668 L
470.653 104.835 L
471.195 100.668 L
471.737 104.835 L
472.28 100.668 L
472.822 104.835 L
473.365 104.835 L
473.907 100.668 L
474.45 104.835 L
474.993 100.668 L
475.535 100.668 L
476.078 104.835 L
476.62 100.668 L
477.163 104.835 L
477.705 100.668 L
478.247 100.668 L
478.79 104.835 L
479.332 100.668 L
479.875 100.668 L
480.418 100.668 L
480.96 104.835 L
481.503 104.835 L
482.045 100.668 L
482.587 104.835 L
483.13 100.668 L
483.672 100.668 L
484.215 104.835 L
484.757 100.668 L
485.3 104.835 L
485.843 100.668 L
486.385 104.835 L
486.928 100.668 L
487.47 100.668 L
488.013 104.835 L
488.555 100.668 L
489.097 104.835 L
489.64 104.835 L
490.182 104.835 L
490.725 104.835 L
491.268 100.668 L
491.81 104.835 L
492.353 100.668 L
492.895 100.668 L
493.438 104.835 L
493.98 100.668 L
494.522 104.835 L
495.065 100.668 L
495.607 104.835 L
496.15 104.835 L
496.693 100.668 L
497.235 104.835 L
497.778 100.668 L
498.32 104.835 L
498.862 100.668 L
499.405 100.668 L
499.947 100.668 L
500.49 100.668 L
501.032 104.835 L
501.575 100.668 L
502.118 104.835 L
502.66 100.668 L
503.203 104.835 L
503.745 104.835 L
504.288 100.668 L
504.83 104.835 L
505.372 100.668 L
505.915 104.835 L
506.457 100.668 L
507 104.835 L
S
GR
GS
[0.75 0 0 0.75 0 0] CT
1 GC
N
496 79 M
496 45 L
353 45 L
353 79 L
cp
f
GR
GS
[0.75 0 0 0.75 300 40.77174] CT
/Helvetica 12 F
GS
[1 0 0 1 0 0] CT
0 4.5 moveto 
1 -1 scale
(roll - measured) t 
GR
GR
GS
[0.75 0 0 0.75 0 0] CT
0 0 1 RC
[10 6] 0 setdash
2 LJ
0.667 LW
N
357 54.362 M
397 54.362 L
S
GR
GS
[0.75 0 0 0.75 300 52.22826] CT
/Helvetica 12 F
GS
[1 0 0 1 0 0] CT
0 4.5 moveto 
1 -1 scale
(roll - reference) t 
GR
GR
GS
[0.75 0 0 0.75 0 0] CT
0 0 1 RC
1 LJ
0.667 LW
N
357 69.638 M
397 69.638 L
S
GR
GS
[0.75 0 0 0.75 0 0] CT
0.149 GC
10.0 ML
0.667 LW
N
353 79 M
353 45 L
496 45 L
496 79 L
cp
S
GR
%%Trailer
%%Pages: 1
%%EOF
