%!PS-Adobe-3.0 EPSF-3.0
%%Creator: (MATLAB, The Mathworks, Inc. Version 9.4.0.813654 \(R2018a\). Operating System: Linux)
%%Title: /home/elgarbe/ws_gise/MatlabScripts/untitled.eps
%%CreationDate: 2018-08-09T20:57:11
%%Pages: (atend)
%%BoundingBox: 0 0 979 517
%%LanguageLevel: 3
%%EndComments
%%BeginProlog
%%BeginResource: procset (Apache XML Graphics Std ProcSet) 1.2 0
%%Version: 1.2 0
%%Copyright: (Copyright 2001-2003,2010 The Apache Software Foundation. License terms: http://www.apache.org/licenses/LICENSE-2.0)
/bd{bind def}bind def
/ld{load def}bd
/GR/grestore ld
/GS/gsave ld
/RM/rmoveto ld
/C/curveto ld
/t/show ld
/L/lineto ld
/ML/setmiterlimit ld
/CT/concat ld
/f/fill ld
/N/newpath ld
/S/stroke ld
/CC/setcmykcolor ld
/A/ashow ld
/cp/closepath ld
/RC/setrgbcolor ld
/LJ/setlinejoin ld
/GC/setgray ld
/LW/setlinewidth ld
/M/moveto ld
/re {4 2 roll M
1 index 0 rlineto
0 exch rlineto
neg 0 rlineto
cp } bd
/_ctm matrix def
/_tm matrix def
/BT { _ctm currentmatrix pop matrix _tm copy pop 0 0 moveto } bd
/ET { _ctm setmatrix } bd
/iTm { _ctm setmatrix _tm concat } bd
/Tm { _tm astore pop iTm 0 0 moveto } bd
/ux 0.0 def
/uy 0.0 def
/F {
  /Tp exch def
  /Tf exch def
  Tf findfont Tp scalefont setfont
  /cf Tf def  /cs Tp def
} bd
/ULS {currentpoint /uy exch def /ux exch def} bd
/ULE {
  /Tcx currentpoint pop def
  gsave
  newpath
  cf findfont cs scalefont dup
  /FontMatrix get 0 get /Ts exch def /FontInfo get dup
  /UnderlinePosition get Ts mul /To exch def
  /UnderlineThickness get Ts mul /Tt exch def
  ux uy To add moveto  Tcx uy To add lineto
  Tt setlinewidth stroke
  grestore
} bd
/OLE {
  /Tcx currentpoint pop def
  gsave
  newpath
  cf findfont cs scalefont dup
  /FontMatrix get 0 get /Ts exch def /FontInfo get dup
  /UnderlinePosition get Ts mul /To exch def
  /UnderlineThickness get Ts mul /Tt exch def
  ux uy To add cs add moveto Tcx uy To add cs add lineto
  Tt setlinewidth stroke
  grestore
} bd
/SOE {
  /Tcx currentpoint pop def
  gsave
  newpath
  cf findfont cs scalefont dup
  /FontMatrix get 0 get /Ts exch def /FontInfo get dup
  /UnderlinePosition get Ts mul /To exch def
  /UnderlineThickness get Ts mul /Tt exch def
  ux uy To add cs 10 mul 26 idiv add moveto Tcx uy To add cs 10 mul 26 idiv add lineto
  Tt setlinewidth stroke
  grestore
} bd
/QT {
/Y22 exch store
/X22 exch store
/Y21 exch store
/X21 exch store
currentpoint
/Y21 load 2 mul add 3 div exch
/X21 load 2 mul add 3 div exch
/X21 load 2 mul /X22 load add 3 div
/Y21 load 2 mul /Y22 load add 3 div
/X22 load /Y22 load curveto
} bd
/SSPD {
dup length /d exch dict def
{
/v exch def
/k exch def
currentpagedevice k known {
/cpdv currentpagedevice k get def
v cpdv ne {
/upd false def
/nullv v type /nulltype eq def
/nullcpdv cpdv type /nulltype eq def
nullv nullcpdv or
{
/upd true def
} {
/sametype v type cpdv type eq def
sametype {
v type /arraytype eq {
/vlen v length def
/cpdvlen cpdv length def
vlen cpdvlen eq {
0 1 vlen 1 sub {
/i exch def
/obj v i get def
/cpdobj cpdv i get def
obj cpdobj ne {
/upd true def
exit
} if
} for
} {
/upd true def
} ifelse
} {
v type /dicttype eq {
v {
/dv exch def
/dk exch def
/cpddv cpdv dk get def
dv cpddv ne {
/upd true def
exit
} if
} forall
} {
/upd true def
} ifelse
} ifelse
} if
} ifelse
upd true eq {
d k v put
} if
} if
} if
} forall
d length 0 gt {
d setpagedevice
} if
} bd
/RE { % /NewFontName [NewEncodingArray] /FontName RE -
  findfont dup length dict begin
  {
    1 index /FID ne
    {def} {pop pop} ifelse
  } forall
  /Encoding exch def
  /FontName 1 index def
  currentdict definefont pop
  end
} bind def
%%EndResource
%%BeginResource: procset (Apache XML Graphics EPS ProcSet) 1.0 0
%%Version: 1.0 0
%%Copyright: (Copyright 2002-2003 The Apache Software Foundation. License terms: http://www.apache.org/licenses/LICENSE-2.0)
/BeginEPSF { %def
/b4_Inc_state save def         % Save state for cleanup
/dict_count countdictstack def % Count objects on dict stack
/op_count count 1 sub def      % Count objects on operand stack
userdict begin                 % Push userdict on dict stack
/showpage { } def              % Redefine showpage, { } = null proc
0 setgray 0 setlinecap         % Prepare graphics state
1 setlinewidth 0 setlinejoin
10 setmiterlimit [ ] 0 setdash newpath
/languagelevel where           % If level not equal to 1 then
{pop languagelevel             % set strokeadjust and
1 ne                           % overprint to their defaults.
{false setstrokeadjust false setoverprint
} if
} if
} bd
/EndEPSF { %def
count op_count sub {pop} repeat            % Clean up stacks
countdictstack dict_count sub {end} repeat
b4_Inc_state restore
} bd
%%EndResource
%FOPBeginFontDict
%%IncludeResource: font Courier-Oblique
%%IncludeResource: font Courier-BoldOblique
%%IncludeResource: font Courier-Bold
%%IncludeResource: font ZapfDingbats
%%IncludeResource: font Symbol
%%IncludeResource: font Helvetica
%%IncludeResource: font Helvetica-Oblique
%%IncludeResource: font Helvetica-Bold
%%IncludeResource: font Helvetica-BoldOblique
%%IncludeResource: font Times-Roman
%%IncludeResource: font Times-Italic
%%IncludeResource: font Times-Bold
%%IncludeResource: font Times-BoldItalic
%%IncludeResource: font Courier
%FOPEndFontDict
%%BeginResource: encoding WinAnsiEncoding
/WinAnsiEncoding [
/.notdef /.notdef /.notdef /.notdef /.notdef
/.notdef /.notdef /.notdef /.notdef /.notdef
/.notdef /.notdef /.notdef /.notdef /.notdef
/.notdef /.notdef /.notdef /.notdef /.notdef
/.notdef /.notdef /.notdef /.notdef /.notdef
/.notdef /.notdef /.notdef /.notdef /.notdef
/.notdef /.notdef /space /exclam /quotedbl
/numbersign /dollar /percent /ampersand /quotesingle
/parenleft /parenright /asterisk /plus /comma
/hyphen /period /slash /zero /one
/two /three /four /five /six
/seven /eight /nine /colon /semicolon
/less /equal /greater /question /at
/A /B /C /D /E
/F /G /H /I /J
/K /L /M /N /O
/P /Q /R /S /T
/U /V /W /X /Y
/Z /bracketleft /backslash /bracketright /asciicircum
/underscore /quoteleft /a /b /c
/d /e /f /g /h
/i /j /k /l /m
/n /o /p /q /r
/s /t /u /v /w
/x /y /z /braceleft /bar
/braceright /asciitilde /bullet /Euro /bullet
/quotesinglbase /florin /quotedblbase /ellipsis /dagger
/daggerdbl /circumflex /perthousand /Scaron /guilsinglleft
/OE /bullet /Zcaron /bullet /bullet
/quoteleft /quoteright /quotedblleft /quotedblright /bullet
/endash /emdash /asciitilde /trademark /scaron
/guilsinglright /oe /bullet /zcaron /Ydieresis
/space /exclamdown /cent /sterling /currency
/yen /brokenbar /section /dieresis /copyright
/ordfeminine /guillemotleft /logicalnot /sfthyphen /registered
/macron /degree /plusminus /twosuperior /threesuperior
/acute /mu /paragraph /middot /cedilla
/onesuperior /ordmasculine /guillemotright /onequarter /onehalf
/threequarters /questiondown /Agrave /Aacute /Acircumflex
/Atilde /Adieresis /Aring /AE /Ccedilla
/Egrave /Eacute /Ecircumflex /Edieresis /Igrave
/Iacute /Icircumflex /Idieresis /Eth /Ntilde
/Ograve /Oacute /Ocircumflex /Otilde /Odieresis
/multiply /Oslash /Ugrave /Uacute /Ucircumflex
/Udieresis /Yacute /Thorn /germandbls /agrave
/aacute /acircumflex /atilde /adieresis /aring
/ae /ccedilla /egrave /eacute /ecircumflex
/edieresis /igrave /iacute /icircumflex /idieresis
/eth /ntilde /ograve /oacute /ocircumflex
/otilde /odieresis /divide /oslash /ugrave
/uacute /ucircumflex /udieresis /yacute /thorn
/ydieresis
] def
%%EndResource
%FOPBeginFontReencode
/Courier-Oblique findfont
dup length dict begin
  {1 index /FID ne {def} {pop pop} ifelse} forall
  /Encoding WinAnsiEncoding def
  currentdict
end
/Courier-Oblique exch definefont pop
/Courier-BoldOblique findfont
dup length dict begin
  {1 index /FID ne {def} {pop pop} ifelse} forall
  /Encoding WinAnsiEncoding def
  currentdict
end
/Courier-BoldOblique exch definefont pop
/Courier-Bold findfont
dup length dict begin
  {1 index /FID ne {def} {pop pop} ifelse} forall
  /Encoding WinAnsiEncoding def
  currentdict
end
/Courier-Bold exch definefont pop
/Helvetica findfont
dup length dict begin
  {1 index /FID ne {def} {pop pop} ifelse} forall
  /Encoding WinAnsiEncoding def
  currentdict
end
/Helvetica exch definefont pop
/Helvetica-Oblique findfont
dup length dict begin
  {1 index /FID ne {def} {pop pop} ifelse} forall
  /Encoding WinAnsiEncoding def
  currentdict
end
/Helvetica-Oblique exch definefont pop
/Helvetica-Bold findfont
dup length dict begin
  {1 index /FID ne {def} {pop pop} ifelse} forall
  /Encoding WinAnsiEncoding def
  currentdict
end
/Helvetica-Bold exch definefont pop
/Helvetica-BoldOblique findfont
dup length dict begin
  {1 index /FID ne {def} {pop pop} ifelse} forall
  /Encoding WinAnsiEncoding def
  currentdict
end
/Helvetica-BoldOblique exch definefont pop
/Times-Roman findfont
dup length dict begin
  {1 index /FID ne {def} {pop pop} ifelse} forall
  /Encoding WinAnsiEncoding def
  currentdict
end
/Times-Roman exch definefont pop
/Times-Italic findfont
dup length dict begin
  {1 index /FID ne {def} {pop pop} ifelse} forall
  /Encoding WinAnsiEncoding def
  currentdict
end
/Times-Italic exch definefont pop
/Times-Bold findfont
dup length dict begin
  {1 index /FID ne {def} {pop pop} ifelse} forall
  /Encoding WinAnsiEncoding def
  currentdict
end
/Times-Bold exch definefont pop
/Times-BoldItalic findfont
dup length dict begin
  {1 index /FID ne {def} {pop pop} ifelse} forall
  /Encoding WinAnsiEncoding def
  currentdict
end
/Times-BoldItalic exch definefont pop
/Courier findfont
dup length dict begin
  {1 index /FID ne {def} {pop pop} ifelse} forall
  /Encoding WinAnsiEncoding def
  currentdict
end
/Courier exch definefont pop
%FOPEndFontReencode
%%EndProlog
%%Page: 1 1
%%PageBoundingBox: 0 0 979 517
%%BeginPageSetup
[1 0 0 -1 0 517] CT
%%EndPageSetup
GS
[0.75 0 0 0.75 0 0.25] CT
N
0 0 M
1305 0 L
1305 689 L
0 689 L
0 0 L
cp
clip
1 GC
N
0 0 1305 689 re
f
GR
GS
[0.75 0 0 0.75 0 0.25] CT
1 GC
N
0 0 1305 689 re
f
GR
GS
[0.75 0 0 0.75 0 0.25] CT
1 GC
N
170 613 M
1181 613 L
1181 52 L
170 52 L
cp
f
GR
GS
[0.75 0 0 0.75 0 0.25] CT
0.149 GC
2 setlinecap
1 LJ
0.667 LW
N
170 613 M
1181 613 L
S
GR
GS
[0.75 0 0 0.75 0 0.25] CT
0.149 GC
2 setlinecap
1 LJ
0.667 LW
N
170 52 M
1181 52 L
S
GR
GS
[0.75 0 0 0.75 0 0.25] CT
0.149 GC
2 setlinecap
1 LJ
0.667 LW
N
170 613 M
170 602.89 L
S
GR
GS
[0.75 0 0 0.75 0 0.25] CT
0.149 GC
2 setlinecap
1 LJ
0.667 LW
N
338.5 613 M
338.5 602.89 L
S
GR
GS
[0.75 0 0 0.75 0 0.25] CT
0.149 GC
2 setlinecap
1 LJ
0.667 LW
N
507 613 M
507 602.89 L
S
GR
GS
[0.75 0 0 0.75 0 0.25] CT
0.149 GC
2 setlinecap
1 LJ
0.667 LW
N
675.5 613 M
675.5 602.89 L
S
GR
GS
[0.75 0 0 0.75 0 0.25] CT
0.149 GC
2 setlinecap
1 LJ
0.667 LW
N
844 613 M
844 602.89 L
S
GR
GS
[0.75 0 0 0.75 0 0.25] CT
0.149 GC
2 setlinecap
1 LJ
0.667 LW
N
1012.5 613 M
1012.5 602.89 L
S
GR
GS
[0.75 0 0 0.75 0 0.25] CT
0.149 GC
2 setlinecap
1 LJ
0.667 LW
N
1181 613 M
1181 602.89 L
S
GR
GS
[0.75 0 0 0.75 0 0.25] CT
0.149 GC
2 setlinecap
1 LJ
0.667 LW
N
170 52 M
170 62.11 L
S
GR
GS
[0.75 0 0 0.75 0 0.25] CT
0.149 GC
2 setlinecap
1 LJ
0.667 LW
N
338.5 52 M
338.5 62.11 L
S
GR
GS
[0.75 0 0 0.75 0 0.25] CT
0.149 GC
2 setlinecap
1 LJ
0.667 LW
N
507 52 M
507 62.11 L
S
GR
GS
[0.75 0 0 0.75 0 0.25] CT
0.149 GC
2 setlinecap
1 LJ
0.667 LW
N
675.5 52 M
675.5 62.11 L
S
GR
GS
[0.75 0 0 0.75 0 0.25] CT
0.149 GC
2 setlinecap
1 LJ
0.667 LW
N
844 52 M
844 62.11 L
S
GR
GS
[0.75 0 0 0.75 0 0.25] CT
0.149 GC
2 setlinecap
1 LJ
0.667 LW
N
1012.5 52 M
1012.5 62.11 L
S
GR
GS
[0.75 0 0 0.75 0 0.25] CT
0.149 GC
2 setlinecap
1 LJ
0.667 LW
N
1181 52 M
1181 62.11 L
S
GR
GS
[0.75 0 0 0.75 127.5 463.99998] CT
0.149 GC
/Helvetica 13.333 F
GS
[1 0 0 1 0 0] CT
-8.5 13 moveto 
1 -1 scale
(10) t 
GR
GR
GS
[0.75 0 0 0.75 253.875 463.99998] CT
0.149 GC
/Helvetica 13.333 F
GS
[1 0 0 1 0 0] CT
-8.5 13 moveto 
1 -1 scale
(15) t 
GR
GR
GS
[0.75 0 0 0.75 380.25 463.99998] CT
0.149 GC
/Helvetica 13.333 F
GS
[1 0 0 1 0 0] CT
-8.5 13 moveto 
1 -1 scale
(20) t 
GR
GR
GS
[0.75 0 0 0.75 506.625 463.99998] CT
0.149 GC
/Helvetica 13.333 F
GS
[1 0 0 1 0 0] CT
-8.5 13 moveto 
1 -1 scale
(25) t 
GR
GR
GS
[0.75 0 0 0.75 633 463.99998] CT
0.149 GC
/Helvetica 13.333 F
GS
[1 0 0 1 0 0] CT
-8.5 13 moveto 
1 -1 scale
(30) t 
GR
GR
GS
[0.75 0 0 0.75 759.375 463.99998] CT
0.149 GC
/Helvetica 13.333 F
GS
[1 0 0 1 0 0] CT
-8.5 13 moveto 
1 -1 scale
(35) t 
GR
GR
GS
[0.75 0 0 0.75 885.75 463.99998] CT
0.149 GC
/Helvetica 13.333 F
GS
[1 0 0 1 0 0] CT
-8.5 13 moveto 
1 -1 scale
(40) t 
GR
GR
GS
[0.75 0 0 0.75 506.62532 477.75002] CT
0.149 GC
/Helvetica 14.667 F
GS
[1 0 0 1 0 0] CT
-30.5 14 moveto 
1 -1 scale
(Time [s]) t 
GR
GR
GS
[0.75 0 0 0.75 0 0.25] CT
0.149 GC
2 setlinecap
1 LJ
0.667 LW
N
170 613 M
170 52 L
S
GR
GS
[0.75 0 0 0.75 0 0.25] CT
0.149 GC
2 setlinecap
1 LJ
0.667 LW
N
1181 613 M
1181 52 L
S
GR
GS
[0.75 0 0 0.75 0 0.25] CT
0.149 GC
2 setlinecap
1 LJ
0.667 LW
N
170 613 M
180.11 613 L
S
GR
GS
[0.75 0 0 0.75 0 0.25] CT
0.149 GC
2 setlinecap
1 LJ
0.667 LW
N
170 550.667 M
180.11 550.667 L
S
GR
GS
[0.75 0 0 0.75 0 0.25] CT
0.149 GC
2 setlinecap
1 LJ
0.667 LW
N
170 488.333 M
180.11 488.333 L
S
GR
GS
[0.75 0 0 0.75 0 0.25] CT
0.149 GC
2 setlinecap
1 LJ
0.667 LW
N
170 426 M
180.11 426 L
S
GR
GS
[0.75 0 0 0.75 0 0.25] CT
0.149 GC
2 setlinecap
1 LJ
0.667 LW
N
170 363.667 M
180.11 363.667 L
S
GR
GS
[0.75 0 0 0.75 0 0.25] CT
0.149 GC
2 setlinecap
1 LJ
0.667 LW
N
170 301.333 M
180.11 301.333 L
S
GR
GS
[0.75 0 0 0.75 0 0.25] CT
0.149 GC
2 setlinecap
1 LJ
0.667 LW
N
170 239 M
180.11 239 L
S
GR
GS
[0.75 0 0 0.75 0 0.25] CT
0.149 GC
2 setlinecap
1 LJ
0.667 LW
N
170 176.667 M
180.11 176.667 L
S
GR
GS
[0.75 0 0 0.75 0 0.25] CT
0.149 GC
2 setlinecap
1 LJ
0.667 LW
N
170 114.333 M
180.11 114.333 L
S
GR
GS
[0.75 0 0 0.75 0 0.25] CT
0.149 GC
2 setlinecap
1 LJ
0.667 LW
N
170 52 M
180.11 52 L
S
GR
GS
[0.75 0 0 0.75 0 0.25] CT
0.149 GC
2 setlinecap
1 LJ
0.667 LW
N
1181 613 M
1170.89 613 L
S
GR
GS
[0.75 0 0 0.75 0 0.25] CT
0.149 GC
2 setlinecap
1 LJ
0.667 LW
N
1181 550.667 M
1170.89 550.667 L
S
GR
GS
[0.75 0 0 0.75 0 0.25] CT
0.149 GC
2 setlinecap
1 LJ
0.667 LW
N
1181 488.333 M
1170.89 488.333 L
S
GR
GS
[0.75 0 0 0.75 0 0.25] CT
0.149 GC
2 setlinecap
1 LJ
0.667 LW
N
1181 426 M
1170.89 426 L
S
GR
GS
[0.75 0 0 0.75 0 0.25] CT
0.149 GC
2 setlinecap
1 LJ
0.667 LW
N
1181 363.667 M
1170.89 363.667 L
S
GR
GS
[0.75 0 0 0.75 0 0.25] CT
0.149 GC
2 setlinecap
1 LJ
0.667 LW
N
1181 301.333 M
1170.89 301.333 L
S
GR
GS
[0.75 0 0 0.75 0 0.25] CT
0.149 GC
2 setlinecap
1 LJ
0.667 LW
N
1181 239 M
1170.89 239 L
S
GR
GS
[0.75 0 0 0.75 0 0.25] CT
0.149 GC
2 setlinecap
1 LJ
0.667 LW
N
1181 176.667 M
1170.89 176.667 L
S
GR
GS
[0.75 0 0 0.75 0 0.25] CT
0.149 GC
2 setlinecap
1 LJ
0.667 LW
N
1181 114.333 M
1170.89 114.333 L
S
GR
GS
[0.75 0 0 0.75 0 0.25] CT
0.149 GC
2 setlinecap
1 LJ
0.667 LW
N
1181 52 M
1170.89 52 L
S
GR
GS
[0.75 0 0 0.75 123.49999 460] CT
0.149 GC
/Helvetica 13.333 F
GS
[1 0 0 1 0 0] CT
-14 4.5 moveto 
1 -1 scale
(-7) t 
GR
GR
GS
[0.75 0 0 0.75 123.49999 413.25002] CT
0.149 GC
/Helvetica 13.333 F
GS
[1 0 0 1 0 0] CT
-14 4.5 moveto 
1 -1 scale
(-6) t 
GR
GR
GS
[0.75 0 0 0.75 123.49999 366.50001] CT
0.149 GC
/Helvetica 13.333 F
GS
[1 0 0 1 0 0] CT
-14 4.5 moveto 
1 -1 scale
(-5) t 
GR
GR
GS
[0.75 0 0 0.75 123.49999 319.75] CT
0.149 GC
/Helvetica 13.333 F
GS
[1 0 0 1 0 0] CT
-14 4.5 moveto 
1 -1 scale
(-4) t 
GR
GR
GS
[0.75 0 0 0.75 123.49999 272.99999] CT
0.149 GC
/Helvetica 13.333 F
GS
[1 0 0 1 0 0] CT
-14 4.5 moveto 
1 -1 scale
(-3) t 
GR
GR
GS
[0.75 0 0 0.75 123.49999 226.25001] CT
0.149 GC
/Helvetica 13.333 F
GS
[1 0 0 1 0 0] CT
-14 4.5 moveto 
1 -1 scale
(-2) t 
GR
GR
GS
[0.75 0 0 0.75 123.49999 179.5] CT
0.149 GC
/Helvetica 13.333 F
GS
[1 0 0 1 0 0] CT
-14 4.5 moveto 
1 -1 scale
(-1) t 
GR
GR
GS
[0.75 0 0 0.75 123.49999 132.75] CT
0.149 GC
/Helvetica 13.333 F
GS
[1 0 0 1 0 0] CT
-9 4.5 moveto 
1 -1 scale
(0) t 
GR
GR
GS
[0.75 0 0 0.75 123.49999 86] CT
0.149 GC
/Helvetica 13.333 F
GS
[1 0 0 1 0 0] CT
-9 4.5 moveto 
1 -1 scale
(1) t 
GR
GR
GS
[0.75 0 0 0.75 123.49999 39.25] CT
0.149 GC
/Helvetica 13.333 F
GS
[1 0 0 1 0 0] CT
-9 4.5 moveto 
1 -1 scale
(2) t 
GR
GR
GS
[0 -0.75 0.75 0 110 249.62479] CT
0.149 GC
/Helvetica 14.667 F
GS
[1 0 0 1 0 0] CT
-53.5 -4 moveto 
1 -1 scale
(Orientation [\260]) t 
GR
GR
GS
[0.75 0 0 0.75 506.6255 37.1875] CT
/Helvetica-Bold 14.667 F
GS
[1 0 0 1 0 0] CT
-157 -4 moveto 
1 -1 scale
(Pitch References and measured angle) t 
GR
GR
GS
[0.75 0 0 0.75 0 0.25] CT
0 0.447 0.741 RC
1 LJ
0.667 LW
N
170 195.593 M
171.685 195.543 L
173.37 195.477 L
175.055 195.46 L
176.74 195.473 L
178.425 195.446 L
180.11 195.423 L
181.795 195.486 L
183.48 195.442 L
185.165 195.5 L
186.85 195.452 L
188.535 195.388 L
190.22 195.425 L
191.905 195.437 L
193.59 195.384 L
195.275 195.419 L
196.96 195.418 L
198.645 195.322 L
200.33 195.357 L
202.015 195.409 L
203.7 195.365 L
205.385 195.384 L
207.07 195.372 L
208.755 195.466 L
210.44 195.518 L
212.125 195.517 L
213.81 195.472 L
215.495 195.38 L
217.18 195.381 L
218.865 195.353 L
220.55 195.393 L
222.235 195.468 L
223.92 195.527 L
225.605 195.533 L
227.29 195.533 L
228.975 195.523 L
230.66 195.512 L
232.345 195.397 L
234.03 195.423 L
235.715 195.464 L
237.4 195.449 L
239.085 195.47 L
240.77 195.601 L
242.455 195.63 L
244.14 195.422 L
245.825 195.473 L
247.51 195.307 L
249.195 195.459 L
250.88 195.785 L
252.565 195.539 L
254.25 194.736 L
255.935 195.067 L
257.62 194.648 L
259.305 194.01 L
260.99 193.737 L
262.675 192.471 L
264.36 194.205 L
266.045 192.216 L
267.73 192.422 L
269.415 193.3 L
271.1 195.396 L
272.785 189.403 L
274.47 190.988 L
276.155 190.64 L
277.84 190.675 L
279.525 189.878 L
281.21 188.861 L
282.895 188.439 L
284.58 190.325 L
286.265 189.757 L
287.95 188.609 L
289.635 189.823 L
291.32 192.507 L
293.005 185.143 L
294.69 176.413 L
296.375 174.048 L
298.06 178.7 L
299.745 179.22 L
301.43 174.022 L
303.115 162.177 L
304.8 157.511 L
306.485 151.144 L
308.17 135.256 L
309.855 122.978 L
311.54 101.175 L
313.225 108.671 L
314.91 131.568 L
316.595 151.802 L
318.28 171.199 L
319.965 167.242 L
321.65 134.212 L
323.335 118.766 L
325.02 147.293 L
326.705 200.807 L
328.39 254.999 L
330.075 282.659 L
331.76 284.843 L
333.445 292.273 L
335.13 312.34 L
336.815 347.986 L
338.5 375.416 L
340.185 381.46 L
341.87 374.807 L
343.555 353.181 L
345.24 339.167 L
346.925 339.823 L
348.61 343.157 L
350.295 345.397 L
351.98 346.378 L
353.665 332.96 L
355.35 306.923 L
357.035 268.775 L
358.72 252.706 L
360.405 259.285 L
362.09 272.674 L
363.775 271.906 L
365.46 249.855 L
367.145 235.827 L
368.83 255.562 L
370.515 285.697 L
372.2 293.872 L
373.885 272.247 L
375.57 238 L
377.255 221.67 L
378.94 220.811 L
380.625 219.445 L
382.31 212.122 L
383.995 203.823 L
385.68 198.471 L
387.365 200.225 L
389.05 206.839 L
390.735 209.511 L
392.42 205.383 L
394.105 201.932 L
395.79 201.245 L
397.475 202.066 L
399.16 201.539 L
400.845 202.405 L
402.53 203.537 L
404.215 207.732 L
405.9 209.178 L
407.585 202.223 L
409.27 195.736 L
410.955 179.646 L
412.64 171.892 L
414.325 180.806 L
416.01 195.967 L
417.695 217.093 L
419.38 234.124 L
421.065 235.557 L
422.75 230.801 L
424.435 224.604 L
426.12 219.516 L
427.805 217.871 L
429.49 216.002 L
431.175 209.922 L
432.86 194.725 L
434.545 192.41 L
436.23 207.581 L
437.915 226.759 L
439.6 227.114 L
441.285 216.422 L
442.97 203.236 L
444.655 197.264 L
446.34 191.796 L
448.025 189.7 L
449.71 193.984 L
451.395 191.305 L
453.08 175.582 L
454.765 159.502 L
456.45 163.626 L
458.135 192.015 L
459.82 221.374 L
461.505 231.635 L
463.19 223.044 L
464.875 219.459 L
466.56 228.016 L
468.245 245.886 L
469.93 269.255 L
471.615 293.535 L
473.3 313.813 L
474.985 328.708 L
476.67 343.704 L
478.355 357.032 L
480.04 367.64 L
481.725 380.25 L
483.41 390.091 L
485.095 391.877 L
486.78 374.222 L
488.465 363.339 L
490.15 367.516 L
491.835 371.813 L
493.52 369.676 L
495.205 353.318 L
496.89 319.277 L
498.575 284.373 L
500.26 263.26 L
501.945 251.508 L
503.63 247.995 L
505.315 245.391 L
507 243.023 L
508.685 241.214 L
510.37 236.138 L
512.055 231.179 L
513.74 224.552 L
515.425 218.379 L
517.11 216.852 L
518.795 218.915 L
520.48 217.807 L
522.165 210.271 L
523.85 193.525 L
525.535 181.436 L
527.22 182.267 L
528.905 187.072 L
530.59 193.18 L
532.275 195.054 L
533.96 185.488 L
535.645 169.557 L
537.33 161.958 L
539.015 171.682 L
540.7 188.277 L
542.385 193.976 L
544.07 182.402 L
545.755 164.285 L
547.44 155.998 L
549.125 163.057 L
550.81 175.902 L
552.495 180.384 L
554.18 174.699 L
555.865 172.368 L
557.55 185.7 L
559.235 197.929 L
560.92 199.875 L
562.605 192.335 L
564.29 187.793 L
565.975 193.236 L
567.66 200.686 L
569.345 199.322 L
571.03 188 L
572.715 179.356 L
574.4 187.17 L
576.085 200.285 L
577.77 208.423 L
579.455 201.919 L
581.14 198.545 L
582.825 200.114 L
584.51 208.465 L
586.195 225.67 L
587.88 246.238 L
589.565 264.977 L
591.25 274.121 L
592.935 271.713 L
594.62 273.369 L
596.305 278.534 L
597.99 283.234 L
599.675 286.386 L
601.36 297.073 L
603.045 304 L
604.73 302.465 L
606.415 286.781 L
608.1 284.857 L
609.785 301.018 L
611.47 327.272 L
613.155 350.299 L
614.84 351.946 L
616.525 340.591 L
618.21 335.96 L
619.895 347.217 L
621.58 368.082 L
623.265 386.533 L
624.95 387.415 L
626.635 384.286 L
628.32 374.208 L
630.005 363.029 L
631.69 347.741 L
633.375 322.694 L
635.06 303.992 L
636.745 295.363 L
638.43 292.49 L
640.115 285.457 L
641.8 272.782 L
643.485 260.405 L
645.17 257.928 L
646.855 261.101 L
648.54 258.805 L
650.225 242.424 L
651.91 218.934 L
653.595 197.672 L
655.28 183.236 L
656.965 163.415 L
658.65 153.494 L
660.335 151.905 L
662.02 150.896 L
663.705 146.344 L
665.39 141.675 L
667.075 149.354 L
668.76 164.784 L
670.445 186.023 L
672.13 246.825 L
673.815 239.694 L
675.5 172.433 L
677.185 126.028 L
678.87 132.688 L
680.555 156.928 L
682.24 166.002 L
683.925 149.093 L
685.61 128.317 L
687.295 133.066 L
688.98 154.231 L
690.665 173.633 L
692.35 175.395 L
694.035 175.158 L
695.72 183.316 L
697.405 197.542 L
699.09 210.276 L
700.775 233.626 L
702.46 284.798 L
704.145 280.096 L
705.83 276.751 L
707.515 284.224 L
709.2 304.744 L
710.885 335.557 L
712.57 365.745 L
714.255 384.006 L
715.94 393.399 L
717.625 399.766 L
719.31 405.139 L
720.995 406.781 L
722.68 410.115 L
724.365 411.251 L
726.05 411.4 L
727.735 402.342 L
729.42 381.987 L
731.105 356.077 L
732.79 328.764 L
734.475 297.659 L
736.16 268.069 L
737.845 244.593 L
739.53 228.723 L
741.215 215.84 L
742.9 203.82 L
744.585 194.476 L
746.27 188.041 L
747.955 176.523 L
749.64 171.023 L
751.325 165.828 L
753.01 166.348 L
754.695 172.413 L
756.38 178.559 L
758.065 179.982 L
759.75 175.925 L
761.435 168.293 L
763.12 160.491 L
764.805 158.889 L
766.49 162.135 L
768.175 163.256 L
769.86 162.462 L
771.545 163.596 L
773.23 163.604 L
774.915 158.105 L
776.6 152.539 L
778.285 149.582 L
779.97 146.555 L
781.655 141.962 L
783.34 149.917 L
785.025 159.523 L
786.71 160.282 L
788.395 150.053 L
790.08 139.725 L
791.765 143.62 L
793.45 165.219 L
795.135 195.726 L
796.82 232.422 L
798.505 274.748 L
800.19 311.274 L
801.875 331.983 L
803.56 339.856 L
805.245 350.298 L
806.93 369.55 L
808.615 384.653 L
810.3 390.725 L
811.985 386.965 L
813.67 389.46 L
815.355 394.685 L
817.04 394.862 L
818.725 382.936 L
820.41 362.552 L
822.095 330.819 L
823.78 297.522 L
825.465 271.039 L
827.15 253.983 L
828.835 244.293 L
830.52 241.748 L
832.205 244.786 L
833.89 240.521 L
835.575 233.75 L
837.26 227.75 L
838.945 231.554 L
840.63 239.479 L
842.315 256.126 L
844 263.893 L
845.685 262.081 L
847.37 246.096 L
849.055 224.218 L
850.74 206.641 L
852.425 194.986 L
854.11 197.78 L
855.795 206.303 L
857.48 215.505 L
859.165 220.022 L
860.85 220.051 L
862.535 221.766 L
864.22 221.227 L
865.905 219.378 L
867.59 215.377 L
869.275 214.146 L
870.96 215.157 L
872.645 214.93 L
874.33 218.078 L
876.015 225.787 L
877.7 232.26 L
879.385 232.533 L
881.07 223.85 L
882.755 215.276 L
884.44 216.982 L
886.125 240.334 L
887.81 250.438 L
889.495 218.271 L
891.18 205.509 L
892.865 204.989 L
894.55 218.88 L
896.235 231.032 L
897.92 226.201 L
899.605 208.385 L
901.29 194.571 L
902.975 193.79 L
904.66 191.508 L
906.345 195.696 L
908.03 196.633 L
909.715 193.437 L
911.4 195.343 L
913.085 206.67 L
914.77 216.594 L
916.455 175.499 L
918.14 189.127 L
919.825 200.648 L
921.51 212.46 L
923.195 233.169 L
924.88 265.03 L
926.565 306.066 L
928.25 365.53 L
929.935 374.406 L
931.62 381.645 L
933.305 386.703 L
934.99 391.065 L
936.675 391.262 L
938.36 388.195 L
940.045 382.874 L
941.73 369.824 L
943.415 351.487 L
945.1 335.5 L
946.785 323.292 L
948.47 309.478 L
950.155 293.848 L
951.84 273.582 L
953.525 248.579 L
955.21 221.678 L
956.895 198.745 L
958.58 183.628 L
960.265 172.336 L
961.95 166.355 L
963.635 166.756 L
965.32 171.282 L
967.005 173.101 L
968.69 174.005 L
970.375 174.382 L
972.06 172.311 L
973.745 165.294 L
975.43 162.625 L
977.115 163.333 L
978.8 167.499 L
980.485 168.455 L
982.17 167.843 L
983.855 169.105 L
985.54 169.461 L
987.225 165.577 L
988.91 156.457 L
990.595 149.657 L
992.28 154.162 L
993.965 171.872 L
995.65 186.929 L
997.335 186.05 L
999.02 175.288 L
1000.705 165.897 L
1002.39 167.158 L
1004.075 183.848 L
1005.76 209.28 L
1007.445 235.685 L
1009.13 258.507 L
1010.815 280.551 L
1012.5 311.918 L
1014.185 350.481 L
1015.87 390.928 L
1017.555 412.802 L
1019.24 419.473 L
1020.925 420.708 L
1022.61 420.896 L
1024.295 419.582 L
1025.98 413.015 L
1027.665 410.153 L
1029.35 409.356 L
1031.035 407.364 L
1032.72 400.902 L
1034.405 385.383 L
1036.09 380.846 L
1037.775 403.557 L
1039.46 430.069 L
1041.145 446.311 L
1042.83 444.53 L
1044.515 425.632 L
1046.2 405.962 L
1047.885 382.09 L
1049.57 371.884 L
1051.255 348.288 L
1052.94 322.254 L
1054.625 295.427 L
1056.31 279.792 L
1057.995 273.414 L
1059.68 261.415 L
1061.365 234.332 L
1063.05 198.901 L
1064.735 174.949 L
1066.42 171.045 L
S
GR
GS
[0.75 0 0 0.75 0 0.25] CT
0.851 0.325 0.098 RC
1 LJ
0.667 LW
N
170 198.484 M
171.685 198.484 L
173.37 201.601 L
175.055 198.484 L
176.74 198.484 L
178.425 198.484 L
180.11 198.484 L
181.795 195.367 L
183.48 198.484 L
185.165 198.484 L
186.85 201.601 L
188.535 198.484 L
190.22 198.484 L
191.905 198.484 L
193.59 198.484 L
195.275 198.484 L
196.96 198.484 L
198.645 198.484 L
200.33 198.484 L
202.015 198.484 L
203.7 198.484 L
205.385 198.484 L
207.07 198.484 L
208.755 198.484 L
210.44 198.484 L
212.125 198.484 L
213.81 198.484 L
215.495 195.367 L
217.18 198.484 L
218.865 198.484 L
220.55 198.484 L
222.235 195.367 L
223.92 198.484 L
225.605 198.484 L
227.29 198.484 L
228.975 198.484 L
230.66 198.484 L
232.345 195.367 L
234.03 198.484 L
235.715 198.484 L
237.4 198.484 L
239.085 198.484 L
240.77 198.484 L
242.455 198.484 L
244.14 198.484 L
245.825 198.484 L
247.51 198.484 L
249.195 198.484 L
250.88 198.484 L
252.565 198.484 L
254.25 198.484 L
255.935 198.484 L
257.62 198.484 L
259.305 198.484 L
260.99 198.484 L
262.675 198.484 L
264.36 198.484 L
266.045 198.484 L
267.73 198.484 L
269.415 198.484 L
271.1 198.484 L
272.785 198.484 L
274.47 198.484 L
276.155 198.484 L
277.84 198.484 L
279.525 198.484 L
281.21 198.484 L
282.895 198.484 L
284.58 198.484 L
286.265 198.484 L
287.95 192.251 L
289.635 198.484 L
291.32 198.484 L
293.005 198.484 L
294.69 198.484 L
296.375 198.484 L
298.06 198.484 L
299.745 198.484 L
301.43 198.484 L
303.115 201.601 L
304.8 201.601 L
306.485 201.601 L
308.17 198.484 L
309.855 198.484 L
311.54 195.367 L
313.225 201.601 L
314.91 198.484 L
316.595 198.484 L
318.28 198.484 L
319.965 245.236 L
321.65 307.572 L
323.335 388.609 L
325.02 450.944 L
326.705 450.944 L
328.39 463.412 L
330.075 469.645 L
331.76 469.645 L
333.445 469.645 L
335.13 469.645 L
336.815 450.944 L
338.5 422.893 L
340.185 422.893 L
341.87 422.893 L
343.555 413.543 L
345.24 388.609 L
346.925 344.973 L
348.61 313.806 L
350.295 285.754 L
351.98 251.47 L
353.665 235.886 L
355.35 226.535 L
357.035 229.652 L
358.72 217.185 L
360.405 217.185 L
362.09 204.718 L
363.775 204.718 L
365.46 204.718 L
367.145 204.718 L
368.83 204.718 L
370.515 204.718 L
372.2 204.718 L
373.885 204.718 L
375.57 204.718 L
377.255 204.718 L
378.94 204.718 L
380.625 204.718 L
382.31 204.718 L
383.995 204.718 L
385.68 204.718 L
387.365 204.718 L
389.05 204.718 L
390.735 201.601 L
392.42 204.718 L
394.105 204.718 L
395.79 201.601 L
397.475 204.718 L
399.16 204.718 L
400.845 204.718 L
402.53 204.718 L
404.215 204.718 L
405.9 204.718 L
407.585 201.601 L
409.27 204.718 L
410.955 204.718 L
412.64 204.718 L
414.325 204.718 L
416.01 201.601 L
417.695 204.718 L
419.38 204.718 L
421.065 204.718 L
422.75 204.718 L
424.435 201.601 L
426.12 204.718 L
427.805 204.718 L
429.49 204.718 L
431.175 204.718 L
432.86 204.718 L
434.545 204.718 L
436.23 204.718 L
437.915 204.718 L
439.6 204.718 L
441.285 201.601 L
442.97 204.718 L
444.655 204.718 L
446.34 204.718 L
448.025 204.718 L
449.71 201.601 L
451.395 204.718 L
453.08 204.718 L
454.765 204.718 L
456.45 201.601 L
458.135 204.718 L
459.82 204.718 L
461.505 204.718 L
463.19 204.718 L
464.875 223.419 L
466.56 276.404 L
468.245 360.557 L
469.93 397.959 L
471.615 419.777 L
473.3 419.777 L
474.985 419.777 L
476.67 419.777 L
478.355 419.777 L
480.04 407.309 L
481.725 407.309 L
483.41 401.076 L
485.095 404.193 L
486.78 388.609 L
488.465 360.557 L
490.15 338.74 L
491.835 316.922 L
493.52 270.17 L
495.205 239.003 L
496.89 204.718 L
498.575 204.718 L
500.26 204.718 L
501.945 204.718 L
503.63 204.718 L
505.315 204.718 L
507 204.718 L
508.685 204.718 L
510.37 192.251 L
512.055 192.251 L
513.74 195.367 L
515.425 195.367 L
517.11 192.251 L
518.795 192.251 L
520.48 192.251 L
522.165 195.367 L
523.85 195.367 L
525.535 192.251 L
527.22 195.367 L
528.905 195.367 L
530.59 192.251 L
532.275 192.251 L
533.96 192.251 L
535.645 192.251 L
537.33 192.251 L
539.015 192.251 L
540.7 192.251 L
542.385 192.251 L
544.07 195.367 L
545.755 192.251 L
547.44 192.251 L
549.125 192.251 L
550.81 192.251 L
552.495 195.367 L
554.18 195.367 L
555.865 195.367 L
557.55 195.367 L
559.235 195.367 L
560.92 195.367 L
562.605 195.367 L
564.29 192.251 L
565.975 192.251 L
567.66 192.251 L
569.345 192.251 L
571.03 192.251 L
572.715 192.251 L
574.4 192.251 L
576.085 192.251 L
577.77 192.251 L
579.455 192.251 L
581.14 195.367 L
582.825 192.251 L
584.51 192.251 L
586.195 195.367 L
587.88 192.251 L
589.565 195.367 L
591.25 195.367 L
592.935 207.835 L
594.62 204.718 L
596.305 204.718 L
597.99 204.718 L
599.675 204.718 L
601.36 204.718 L
603.045 214.068 L
604.73 229.652 L
606.415 279.521 L
608.1 316.922 L
609.785 323.156 L
611.47 341.857 L
613.155 351.207 L
614.84 351.207 L
616.525 341.857 L
618.21 338.74 L
619.895 332.506 L
621.58 335.623 L
623.265 298.222 L
624.95 282.638 L
626.635 276.404 L
628.32 254.586 L
630.005 223.419 L
631.69 223.419 L
633.375 226.535 L
635.06 226.535 L
636.745 204.718 L
638.43 204.718 L
640.115 204.718 L
641.8 204.718 L
643.485 204.718 L
645.17 204.718 L
646.855 204.718 L
648.54 204.718 L
650.225 207.835 L
651.91 204.718 L
653.595 204.718 L
655.28 204.718 L
656.965 204.718 L
658.65 204.718 L
660.335 192.251 L
662.02 192.251 L
663.705 192.251 L
665.39 192.251 L
667.075 192.251 L
668.76 192.251 L
670.445 192.251 L
672.13 192.251 L
673.815 192.251 L
675.5 192.251 L
677.185 192.251 L
678.87 192.251 L
680.555 198.484 L
682.24 192.251 L
683.925 192.251 L
685.61 192.251 L
687.295 192.251 L
688.98 195.367 L
690.665 207.835 L
692.35 239.003 L
694.035 251.47 L
695.72 276.404 L
697.405 285.754 L
699.09 301.338 L
700.775 313.806 L
702.46 351.207 L
704.145 363.674 L
705.83 373.025 L
707.515 410.426 L
709.2 454.061 L
710.885 454.061 L
712.57 454.061 L
714.255 454.061 L
715.94 463.412 L
717.625 485.229 L
719.31 494.58 L
720.995 491.463 L
722.68 469.645 L
724.365 419.777 L
726.05 391.725 L
727.735 360.557 L
729.42 332.506 L
731.105 276.404 L
732.79 232.769 L
734.475 201.601 L
736.16 201.601 L
737.845 201.601 L
739.53 201.601 L
741.215 201.601 L
742.9 201.601 L
744.585 201.601 L
746.27 201.601 L
747.955 201.601 L
749.64 201.601 L
751.325 201.601 L
753.01 201.601 L
754.695 201.601 L
756.38 201.601 L
758.065 201.601 L
759.75 201.601 L
761.435 201.601 L
763.12 201.601 L
764.805 201.601 L
766.49 201.601 L
768.175 201.601 L
769.86 201.601 L
771.545 201.601 L
773.23 201.601 L
774.915 201.601 L
776.6 201.601 L
778.285 201.601 L
779.97 201.601 L
781.655 201.601 L
783.34 201.601 L
785.025 201.601 L
786.71 201.601 L
788.395 201.601 L
790.08 223.419 L
791.765 313.806 L
793.45 441.594 L
795.135 488.346 L
796.82 507.047 L
798.505 522.631 L
800.19 538.215 L
801.875 560.032 L
803.56 563.149 L
805.245 550.682 L
806.93 538.215 L
808.615 531.981 L
810.3 531.981 L
811.985 531.981 L
813.67 519.514 L
815.355 507.047 L
817.04 482.112 L
818.725 397.959 L
820.41 344.973 L
822.095 301.338 L
823.78 276.404 L
825.465 270.17 L
827.15 270.17 L
828.835 276.404 L
830.52 276.404 L
832.205 270.17 L
833.89 267.054 L
835.575 301.338 L
837.26 323.156 L
838.945 341.857 L
840.63 363.674 L
842.315 332.506 L
844 301.338 L
845.685 276.404 L
847.37 207.835 L
849.055 198.484 L
850.74 198.484 L
852.425 201.601 L
854.11 198.484 L
855.795 198.484 L
857.48 198.484 L
859.165 198.484 L
860.85 198.484 L
862.535 198.484 L
864.22 198.484 L
865.905 198.484 L
867.59 198.484 L
869.275 198.484 L
870.96 198.484 L
872.645 195.367 L
874.33 198.484 L
876.015 198.484 L
877.7 198.484 L
879.385 198.484 L
881.07 201.601 L
882.755 198.484 L
884.44 198.484 L
886.125 198.484 L
887.81 198.484 L
889.495 198.484 L
891.18 198.484 L
892.865 198.484 L
894.55 198.484 L
896.235 198.484 L
897.92 198.484 L
899.605 198.484 L
901.29 198.484 L
902.975 198.484 L
904.66 198.484 L
906.345 198.484 L
908.03 201.601 L
909.715 198.484 L
911.4 198.484 L
913.085 198.484 L
914.77 198.484 L
916.455 267.054 L
918.14 310.689 L
919.825 391.725 L
921.51 426.01 L
923.195 457.178 L
924.88 466.528 L
926.565 466.528 L
928.25 472.762 L
929.935 475.879 L
931.62 475.879 L
933.305 472.762 L
934.99 472.762 L
936.675 475.879 L
938.36 475.879 L
940.045 472.762 L
941.73 457.178 L
943.415 426.01 L
945.1 379.258 L
946.785 332.506 L
948.47 282.638 L
950.155 201.601 L
951.84 201.601 L
953.525 201.601 L
955.21 201.601 L
956.895 201.601 L
958.58 201.601 L
960.265 201.601 L
961.95 201.601 L
963.635 201.601 L
965.32 201.601 L
967.005 207.835 L
968.69 201.601 L
970.375 201.601 L
972.06 201.601 L
973.745 201.601 L
975.43 201.601 L
977.115 201.601 L
978.8 201.601 L
980.485 201.601 L
982.17 204.718 L
983.855 201.601 L
985.54 201.601 L
987.225 201.601 L
988.91 201.601 L
990.595 201.601 L
992.28 201.601 L
993.965 201.601 L
995.65 201.601 L
997.335 201.601 L
999.02 201.601 L
1000.705 201.601 L
1002.39 201.601 L
1004.075 201.601 L
1005.76 260.82 L
1007.445 335.623 L
1009.13 460.295 L
1010.815 513.28 L
1012.5 528.864 L
1014.185 528.864 L
1015.87 528.864 L
1017.555 488.346 L
1019.24 478.996 L
1020.925 463.412 L
1022.61 457.178 L
1024.295 457.178 L
1025.98 457.178 L
1027.665 457.178 L
1029.35 466.528 L
1031.035 475.879 L
1032.72 507.047 L
1034.405 541.331 L
1036.09 584.967 L
1037.775 569.383 L
1039.46 531.981 L
1041.145 503.93 L
1042.83 497.696 L
1044.515 482.112 L
1046.2 444.711 L
1047.885 373.025 L
1049.57 338.74 L
1051.255 316.922 L
1052.94 298.222 L
1054.625 285.754 L
1056.31 273.287 L
1057.995 254.586 L
1059.68 235.886 L
1061.365 223.419 L
1063.05 217.185 L
1064.735 204.718 L
1066.42 204.718 L
S
GR
GS
[0.75 0 0 0.75 0 0.25] CT
1 GC
N
1170 97 M
1170 63 L
1016 63 L
1016 97 L
cp
f
GR
GS
[0.75 0 0 0.75 797.25 54.52174] CT
/Helvetica 12 F
GS
[1 0 0 1 0 0] CT
0 4.5 moveto 
1 -1 scale
(pitch - measured) t 
GR
GR
GS
[0.75 0 0 0.75 0 0.25] CT
0 0.447 0.741 RC
1 LJ
0.667 LW
N
1020 72.362 M
1060 72.362 L
S
GR
GS
[0.75 0 0 0.75 797.25 65.97826] CT
/Helvetica 12 F
GS
[1 0 0 1 0 0] CT
0 4.5 moveto 
1 -1 scale
(pitch - reference) t 
GR
GR
GS
[0.75 0 0 0.75 0 0.25] CT
0.851 0.325 0.098 RC
1 LJ
0.667 LW
N
1020 87.638 M
1060 87.638 L
S
GR
GS
[0.75 0 0 0.75 0 0.25] CT
0.149 GC
10.0 ML
0.667 LW
N
1016 97 M
1016 63 L
1170 63 L
1170 97 L
cp
S
GR
%%Trailer
%%Pages: 1
%%EOF
