16:59:22 **** Incremental Build of configuration Debug for project FC722_18_Bias ****
make all 
Building file: ../Src/main.c
Invoking: MCU GCC Compiler
/home/elgarbe/ws_gise/FC722_18_Bias/Debug
arm-none-eabi-gcc -mcpu=cortex-m7 -mthumb -mfloat-abi=hard -mfpu=fpv5-sp-d16 '-D__weak=__attribute__((weak))' '-D__packed="__attribute__((__packed__))"' -DUSE_HAL_DRIVER -DSTM32F722xx -I"/home/elgarbe/ws_gise/FC722_18_Bias/Inc" -I/home/elgarbe/STM32Cube/Repository/STM32Cube_FW_F7_V1.11.0/Drivers/STM32F7xx_HAL_Driver/Inc -I/home/elgarbe/STM32Cube/Repository/STM32Cube_FW_F7_V1.11.0/Drivers/STM32F7xx_HAL_Driver/Inc/Legacy -I/home/elgarbe/STM32Cube/Repository/STM32Cube_FW_F7_V1.11.0/Drivers/CMSIS/Device/ST/STM32F7xx/Include -I/home/elgarbe/STM32Cube/Repository/STM32Cube_FW_F7_V1.11.0/Drivers/CMSIS/Include  -O0 -g3 -Wall -fmessage-length=0 -ffunction-sections -c -fmessage-length=0 -MMD -MP -MF"Src/main.d" -MT"Src/main.o" -o "Src/main.o" "../Src/main.c"
Finished building: ../Src/main.c
 
Building target: FC722_18_Bias.elf
Invoking: MCU GCC Linker
arm-none-eabi-gcc -mcpu=cortex-m7 -mthumb -mfloat-abi=hard -mfpu=fpv5-sp-d16 -specs=nosys.specs -specs=nano.specs -T"../STM32F722RETx_FLASH.ld" -Wl,-Map=output.map -Wl,--gc-sections -o "FC722_18_Bias.elf" @"objects.list"   -lm
Finished building target: FC722_18_Bias.elf
 
make --no-print-directory post-build
Generating hex and Printing size information:
arm-none-eabi-objcopy -O ihex "FC722_18_Bias.elf" "FC722_18_Bias.hex"
arm-none-eabi-size "FC722_18_Bias.elf"
   text	   data	    bss	    dec	    hex	filename
  31812	    212	   2740	  34764	   87cc	FC722_18_Bias.elf
 

16:59:23 Build Finished (took 614ms)

