18:43:06 **** Incremental Build of configuration Debug for project FC722_05_EEPROM ****
make all 
Building file: ../Src/main.c
Invoking: MCU GCC Compiler
/home/elgarbe/ws_gise/FC722_05_EEPROM/Debug
arm-none-eabi-gcc -mcpu=cortex-m7 -mthumb -mfloat-abi=hard -mfpu=fpv5-sp-d16 '-D__weak=__attribute__((weak))' '-D__packed="__attribute__((__packed__))"' -DUSE_HAL_DRIVER -DSTM32F722xx -I"/home/elgarbe/ws_gise/FC722_05_EEPROM/Inc" -I/home/elgarbe/STM32Cube/Repository/STM32Cube_FW_F7_V1.11.0/Drivers/STM32F7xx_HAL_Driver/Inc -I/home/elgarbe/STM32Cube/Repository/STM32Cube_FW_F7_V1.11.0/Drivers/STM32F7xx_HAL_Driver/Inc/Legacy -I/home/elgarbe/STM32Cube/Repository/STM32Cube_FW_F7_V1.11.0/Drivers/CMSIS/Device/ST/STM32F7xx/Include -I/home/elgarbe/STM32Cube/Repository/STM32Cube_FW_F7_V1.11.0/Drivers/CMSIS/Include  -O0 -g3 -Wall -fmessage-length=0 -ffunction-sections -c -fmessage-length=0 -MMD -MP -MF"Src/main.d" -MT"Src/main.o" -o "Src/main.o" "../Src/main.c"
../Src/main.c: In function 'main':
../Src/main.c:102:11: warning: unused variable 'dummy' [-Wunused-variable]
   uint8_t dummy;
           ^~~~~
../Src/main.c:100:11: warning: unused variable 'd' [-Wunused-variable]
   uint8_t d[3]={7,5,10};
           ^
Finished building: ../Src/main.c
 
Building target: FC722_05_EEPROM.elf
Invoking: MCU GCC Linker
arm-none-eabi-gcc -mcpu=cortex-m7 -mthumb -mfloat-abi=hard -mfpu=fpv5-sp-d16 -specs=nosys.specs -specs=nano.specs -T"../STM32F722RETx_FLASH.ld" -Wl,-Map=output.map -Wl,--gc-sections -o "FC722_05_EEPROM.elf" @"objects.list"   -lm
Finished building target: FC722_05_EEPROM.elf
 
make --no-print-directory post-build
Generating hex and Printing size information:
arm-none-eabi-objcopy -O ihex "FC722_05_EEPROM.elf" "FC722_05_EEPROM.hex"
arm-none-eabi-size "FC722_05_EEPROM.elf"
   text	   data	    bss	    dec	    hex	filename
  11140	     20	   1748	  12908	   326c	FC722_05_EEPROM.elf
 

18:43:06 Build Finished (took 567ms)

